Adding post approval to a discussion forum or topic | Desire2Learn Resource Center   
 
 
 
 
   
 
 
 
 
 
 
 
 
 
 
 
 
 
 
 Adding post approval to a discussion forum or topic | Desire2Learn Resource Center 






 

 
 
 
 
 

 

 

 





 
 
 
   
     Skip to main content 
   
     
   

           
         
              
       Main menu 
  
     Home    Accessibility    Capture    ePortfolio    Ideas Library    Insights    Integrations    Learning Environment    Learning Repository   
             
       
    
     
       

         

                       

                               
                                      
              
                               

                                        Desire2Learn Resource Center  
                  
                  
                 
              
             
          
                
       Select your language 
  
      
   العربية  English  Português  Español  Français  
 
 
 
 
 
 
 
 
 
 
   
      
         

       
     

    
    
    
     
       

         
           

             
               

                
                 

                  
                   
                     

                      
                       You are here    Home    »    Learning Environment    »    Discussions    »    Monitoring discussions   
                      
                      
                      
                      
                       
                           
  
   
   

    
               

                   
                          Adding post approval to a discussion forum or topic                       
        
        
       
        
     
              
	Click    Edit  from the context menu of the forum or topic you want to add post approval to and select  A moderator must approve individual posts before they display in the forum  in the Properties tab to ensure that you have the ability to approve posts activated.
 
     Audience:     Instructor       

    
           

                   ‹ Monitoring discussions 
        
                   up 
        
                   Approving and unapproving discussion threads and posts › 
        
       
    
   
     

              Printer-friendly version    
    
    
   
 

                          

                      
                     
                   

                 

                      
  
    
	    Copyright © 1999-2013 Desire2Learn Incorporated. All rights reserved.
 
 
      
               
             

                  
        Discussions  
  
      Participating in discussions    Following discussions    Creating and managing discussions    Monitoring discussions    Adding post approval to a discussion forum or topic    Approving and unapproving discussion threads and posts    Editing other users  discussion posts    Viewing discussion statistics    Exporting discussion statistics    Viewing a discussion post s history      
                  
           
         

       
     

    
    
    
   
 
   
 
