BIT Department’s Advisory Council president, Gene Fernandez, to be inducted into UIS MIS Hall of Fame - FCBE - University of Memphis    










 
 
 
     



 
    
    
    BIT Department’s Advisory Council president, Gene Fernandez, to be inducted into UIS
      MIS Hall of Fame - 
      	FCBE
      	 - University of Memphis
    
    
    
    
    
    
    
    
    
    
    
    
    
    
    
    
    
    
    
    
    
    
    
    
    
   
   
   






   
   
   
    
    
 
 
   
   
   
   
 
    
   
   
    
      
      
          
     
    
       
          
             
                
				    
					     
                   
      
                
                
                    
                
                
                   
                      
                         
                            
                               
                                   Lambuth Campus  
                                   myMemphis  
                                   Webmail  
                                   Faculty   Staff  
                                   Contact  
                                   Directories  
                               
                            
                            
                               Search 
                               
							   
							      
						 Site Index 
                            
                             
                         
                      
                   
                   
                      
                         
                            
                                Academics    
                                  
                                      Academics Overview  
                                      Colleges   Schools  
                                      Undergraduate Catalog  
                                      Graduate Catalog  
                                      Honors Program  
								      UofM Global  
                                  
                               
                                Admissions    
                                  
                                      Admissions Information  
                                      Undergraduate Students  
                                      Graduate Students  
                                      Law Students  
                                      International Students  
                                  
                               
                                Athletics    
                                  
                                      Tiger Athletics  
                                      Ticket Information  
                                      Intramurals  
                                      Make A Gift  
                                      Rec Center  
                                      gotigersgo.com  
                                  
                               
                                Research    
                                  
                                      Research   Sponsored Programs  
                                      Research Resources  
                                      Centers/Chairs of Excellence  

                                      Centers and Institutes  
									  FedEx Institute of Technology  
                                      electronic Research Administration (eRA)  
									  Office of Institutional Research  
                                  
                               
                                Support UofM    
                                  
                                      Development  
                                      Make a Gift  
                                      Alumni Association  
                                      Athletics Development  
                                  
                               
                                Libraries    
                                  
                                      University Libraries  
                                      Libraries Resources  
                                      Libraries Services  
                                      Special Collections  
                                      Ask a Librarian  
                                  
                               
                            
                         
                      
                   
                
             
             
                
                   
                      Resources for... 
                      
                          Prospective Students  
                          Current and Returning Students  
                          Parents  
                          Alumni  
                          Veterans  
                      
                       Expand Menu  
                   
				   			   
                
             
          
       
    
          
      
          
    
       
          
             
                
                   
                       
                           			Fogelman College of Business   Economics
                           	 
                          
                   
                
             
          
       
       
          
             
                
                   
                      
                          About  
                          Programs  
                          Students  
                          Departments  
                          Faculty   Staff  
                          Research  
                          News  
                      
                      
                         
                            News   
                            
                               
                                  
                                   News  
                                         Current News  
                                         News Archive  
                                     
                                  
                                   Events  
                                   FCBE Media Room  
                                         College Publications  
                                         Fogelman Focus  
                                         Fogelman Flash  
                                         Memphis Memo  
                                         Fogelman Features  
                                     
                                  
                               
                            
                         
                      
                   
                
             
          
          
             
                
                   
                      
                          Home  
                          
                              	FCBE
                              	  
                          
                              	News
                              	  
                         BIT Department’s Advisory Council president, Gene Fernandez, to be inducted into UIS
                           MIS Hall of Fame
                         
                      
                   
                   
                       
                      
                     
                     		
                     
                     
                      BIT Department's Advisory Council president, Gene Fernandez, to be inducted into UIS
                        MIS Hall of Fame
                      
                     
                      For release:  May 11, 2017  The Department of Business Information and Technology is proud to announce that Gene
                        Fernandez, vice president and chief technology officer at Methodist Le Bonheur Healthcare
                        and current president of the BIT Advisory Council, will be inducted into the University
                        of Illinois-Springfield's Department of Management Information Systems Hall of Fame.
                        The inaugural class of the Hall of Fame honors graduates of the MIS program who are
                        distinguished in their field. The award is especially impressive because only three
                        of 650 candidates will be inducted. Mr. Fernandez will attend an induction ceremony
                        at the Midwest U.S. Association for Information Systems conference in Springfield
                        this month.
                      
                     
                      "This is a terrific honor and we are thrilled that it will be bestowed upon such a
                        deserving person. We look forward to working closely with Mr. Fernandez to raise the
                        bar for research, teaching, and service in BIT," said Dr. Robin Poston, chair of the
                        Department of Business Information and Technology.
                      
                     
                     
                     	
                      
                   
                
                
                   
                      
                         News 
                         
                            
                               
                                News  
                                      Current News  
                                      News Archive  
                                  
                               
                                Events  
                                FCBE Media Room  
                                      College Publications  
                                      Fogelman Focus  
                                      Fogelman Flash  
                                      Memphis Memo  
                                      Fogelman Features  
                                  
                               
                            
                         
                      
                      
                      
                         
                            
                                Apply to our Undergraduate Programs    
                               Enroll at the university and engage yourself with our six different departments, student
                                 enrichment, and more. 
                               
                            
                            
                                Apply to our Masters Programs    
                               Earn your degree with one of our five MBA tracks or with one of our four specialized
                                 Masters programs!
                               
                            
                            
                                Apply to our Doctoral Programs    
                               Interested in a Ph.D.? Start the journey towards your Ph.D. here! 
                            
                            
                                Contact Us    
                               Have questions? Call or email today!  
                            
                         
                      
                      
                      
                   
                   
                
                
             
             
          
          
       
    
    
    
      
      
       
 
    
       
          
             
                 Full sitemap   
             
             
                
                   
                      Admissions 
                      
                         
                             Prospective Students  
                             Undergraduate  
                             Graduate  
                             Law School  
                             International  
                             Parents  
                             Scholarship   Financial Aid  
                             Tuition   Fee Payment  
                             FAQs  
                             About UofM  
                         
                      
                   
                   
                      Academics 
                      
                         
                             Provost's Office  
                             Libraries  
                             Transcripts  
                             Undergraduate Catalog  
                             Graduate Catalog  
                             Academic Calendars  
                             Course Schedule  
                             Financial Aid  
                             Graduation  
                             Honors Program  
						     eCourseware  
                         
                      
                   
                   
                      Athletics 
                      
                         
                             Gotigersgo.com  
                             Ticket Information  
                             Intramural Sports  
                             Recreation Center  
                             Athletic Academic Support  
                             Former Tigers  
                             Facilities  
                             Tiger Scholarship Fund  
                             Media  
                         
                      
                   
				    
                   
                      Research 
                      
                         
                             Sponsored Programs  
                             Research Resources  
                             Centers   Institutes  
                             Chairs of Excellence  
                             FedEx Institute of Technology  
                             Libraries  
                             Grants Accounting  
                             Environmental Health  
                             Office of Institutional Research  
                         
                      
                   
                   
                      Support UofM 
                      
                         
                             Make a Gift  
                             Alumni Association  
                             Year of Service  
                         
                      
                   
                   
                      Administrative Support 
                      
                         
                             President's Office  
                             Academic Affairs  
                             Business   Finance  
                             Career Opportunities  
                             Conference   Event Services  
                             Corporate Partnerships  
  Development Office  
                             Government Relations  
                             Information Technology Services  
                             Media and Marketing  
                             Student Affairs  
                         
                      
                   
                
             
          
          
             
				    
                  
                
             
             
                   
                  
                
             
             
                
                   Follow UofM Online 
                     UofM Facebook     UofM Twitter     UofM YouTube   
                    
                   
                     UofM Instagram     UofM Pinterest     UofM LinkedIn   
                
             
              
                   
                      
                   
                
      
          
       
    
 
 
      
      
      
       
          
             
                
                   
                      
                         
                            
                               
                                 
                                 
                                  
  Print  
  Got a Question? Ask TOM  
  Copyright © 2017 University of Memphis  
  Important Notice  
                                  
                                 
                                 
                                  
                                     Last Updated: 11/4/17 
                                  
                                 
                                 
                                  
  University of Memphis  
 Memphis, TN 38152 
 Phone: 901.678.2000 
 
  
 The University of Memphis does not discriminate against students, employees, or applicants for admission or employment on the basis of race, color, religion, creed, national origin, sex, sexual orientation, gender identity/expression, disability, age, status as a protected veteran, genetic information, or any other legally protected class with respect to all employment, programs and activities sponsored by the University of Memphis. The Office for Institutional Equity has been designated to handle inquiries regarding non-discrimination policies. For more information, visit  University of Memphis Equal Opportunity and Affirmative Action .  
Title IX of the Education Amendments of 1972 protects people from discrimination based on sex in education programs or activities which receive Federal financial assistance. Title IX states: "No person in the United States shall, on the basis of sex, be excluded from participation in, be denied the benefits of, or be subjected to discrimination under any education program or activity receiving Federal financial assistance..." 20 U.S.C. § 1681 - To Learn More, visit  Title IX and Sexual Misconduct .
 
 
                                 
                                 
                                 
                               
                            
                         
                      
                   
                
             
          
       
    
   
   
   
   
   
   
 



 


