Dr. Alex Rubenstein invited to serve on the editorial board of the Journal of Organizational Behavior - FCBE - University of Memphis    










 
 
 
     



 
    
    
    Dr. Alex Rubenstein invited to serve on the editorial board of the Journal of Organizational
      Behavior - 
      	FCBE
      	 - University of Memphis
    
    
    
    
    
    
    
    
    
    
    
    
    
    
    
    
    
    
    
    
    
    
    
    
    
   
   
   






   
   
   
    
    
 
 
   
   
   
   
 
    
   
   
    
      
      
          
     
    
       
          
             
                
				    
					     
                   
      
                
                
                    
                
                
                   
                      
                         
                            
                               
                                   Lambuth Campus  
                                   myMemphis  
                                   Webmail  
                                   Faculty   Staff  
                                   Contact  
                                   Directories  
                               
                            
                            
                               Search 
                               
							   
							      
						 Site Index 
                            
                             
                         
                      
                   
                   
                      
                         
                            
                                Academics    
                                  
                                      Academics Overview  
                                      Colleges   Schools  
                                      Undergraduate Catalog  
                                      Graduate Catalog  
                                      Honors Program  
								      UofM Global  
                                  
                               
                                Admissions    
                                  
                                      Admissions Information  
                                      Undergraduate Students  
                                      Graduate Students  
                                      Law Students  
                                      International Students  
                                  
                               
                                Athletics    
                                  
                                      Tiger Athletics  
                                      Ticket Information  
                                      Intramurals  
                                      Make A Gift  
                                      Rec Center  
                                      gotigersgo.com  
                                  
                               
                                Research    
                                  
                                      Research   Sponsored Programs  
                                      Research Resources  
                                      Centers/Chairs of Excellence  

                                      Centers and Institutes  
									  FedEx Institute of Technology  
                                      electronic Research Administration (eRA)  
									  Office of Institutional Research  
                                  
                               
                                Support UofM    
                                  
                                      Development  
                                      Make a Gift  
                                      Alumni Association  
                                      Athletics Development  
                                  
                               
                                Libraries    
                                  
                                      University Libraries  
                                      Libraries Resources  
                                      Libraries Services  
                                      Special Collections  
                                      Ask a Librarian  
                                  
                               
                            
                         
                      
                   
                
             
             
                
                   
                      Resources for... 
                      
                          Prospective Students  
                          Current and Returning Students  
                          Parents  
                          Alumni  
                          Veterans  
                      
                       Expand Menu  
                   
				   			   
                
             
          
       
    
          
      
          
    
       
          
             
                
                   
                       
                           			Fogelman College of Business   Economics
                           	 
                          
                   
                
             
          
       
       
          
             
                
                   
                      
                          About  
                          Programs  
                          Students  
                          Departments  
                          Faculty   Staff  
                          Research  
                          News  
                      
                      
                         
                            News   
                            
                               
                                  
                                   News  
                                         Current News  
                                         News Archive  
                                     
                                  
                                   Events  
                                   FCBE Media Room  
                                         College Publications  
                                         Fogelman Focus  
                                         Fogelman Flash  
                                         Memphis Memo  
                                         Fogelman Features  
                                     
                                  
                               
                            
                         
                      
                   
                
             
          
          
             
                
                   
                      
                          Home  
                          
                              	FCBE
                              	  
                          
                              	News
                              	  
                         Dr. Alex Rubenstein invited to serve on the editorial board of the Journal of Organizational
                           Behavior
                         
                      
                   
                   
                       
                      
                     
                     		
                     
                     
                      Dr. Alex Rubenstein invited to serve on the editorial board of the  Journal of Organizational Behavior  
                     
                      For release:  March 16, 2017  Dr. Alex Rubenstein, assistant professor in the Department of Management, was recently
                        invited to serve on the editorial board of the  Journal of Organizational Behavior  ( JOB ).  JOB  is a premier outlet for management research, publishing empirical reports and theoretical
                        reviews in the area of organizational behavior, at the individual, group, and organizational
                        levels of analysis. The journal is ranked 8/79 in the area of Applied Psychology,
                        21/120 in Business, and 26/192 in Management.
                      
                     
                      The  Journal of Organizational Behavior  aims to publish empirical reports and theoretical reviews of research in the field
                        of organizational behavior, wherever in the world that work is conducted. The journal
                        focuses on research and theory in all topics associated with organizational behavior
                        within and across individual, group and organizational levels of analysis, including:
                      
                     
                      
                        
                         At the individual level: personality, perception, beliefs, attitudes, values, motivation,
                           career behavior, stress, emotions, judgment, and commitment.
                         
                        
                         At the group level: size, composition, structure, leadership, power, group affect,
                           and politics.
                         
                        
                         At the organizational level: structure, change, goal-setting, creativity, and human
                           resource management policies and practices.
                         
                        
                         Across levels: decision-making, performance, job satisfaction, turnover and absenteeism,
                           diversity, careers and career development, equal opportunities, work-life balance,
                           identification, organizational culture and climate, inter-organizational processes,
                           and multi-national and cross-national issues.
                         
                        
                         Research methodologies in studies of organizational behavior. 
                        
                      
                     
                      "The Department of Management is thrilled about Dr. Rubenstein's invitation to join
                        the editorial board of the Journal of Organizational Behavior.  JOB  is a premier, top-tier scholarly journal in management. Congratulations, Alex," said
                        Dr. Chuck Pierce, chair of the Department of Management.
                      
                     
                     
                     	
                      
                   
                
                
                   
                      
                         News 
                         
                            
                               
                                News  
                                      Current News  
                                      News Archive  
                                  
                               
                                Events  
                                FCBE Media Room  
                                      College Publications  
                                      Fogelman Focus  
                                      Fogelman Flash  
                                      Memphis Memo  
                                      Fogelman Features  
                                  
                               
                            
                         
                      
                      
                      
                         
                            
                                Apply to our Undergraduate Programs    
                               Enroll at the university and engage yourself with our six different departments, student
                                 enrichment, and more. 
                               
                            
                            
                                Apply to our Masters Programs    
                               Earn your degree with one of our five MBA tracks or with one of our four specialized
                                 Masters programs!
                               
                            
                            
                                Apply to our Doctoral Programs    
                               Interested in a Ph.D.? Start the journey towards your Ph.D. here! 
                            
                            
                                Contact Us    
                               Have questions? Call or email today!  
                            
                         
                      
                      
                      
                   
                   
                
                
             
             
          
          
       
    
    
    
      
      
       
 
    
       
          
             
                 Full sitemap   
             
             
                
                   
                      Admissions 
                      
                         
                             Prospective Students  
                             Undergraduate  
                             Graduate  
                             Law School  
                             International  
                             Parents  
                             Scholarship   Financial Aid  
                             Tuition   Fee Payment  
                             FAQs  
                             About UofM  
                         
                      
                   
                   
                      Academics 
                      
                         
                             Provost's Office  
                             Libraries  
                             Transcripts  
                             Undergraduate Catalog  
                             Graduate Catalog  
                             Academic Calendars  
                             Course Schedule  
                             Financial Aid  
                             Graduation  
                             Honors Program  
						     eCourseware  
                         
                      
                   
                   
                      Athletics 
                      
                         
                             Gotigersgo.com  
                             Ticket Information  
                             Intramural Sports  
                             Recreation Center  
                             Athletic Academic Support  
                             Former Tigers  
                             Facilities  
                             Tiger Scholarship Fund  
                             Media  
                         
                      
                   
				    
                   
                      Research 
                      
                         
                             Sponsored Programs  
                             Research Resources  
                             Centers   Institutes  
                             Chairs of Excellence  
                             FedEx Institute of Technology  
                             Libraries  
                             Grants Accounting  
                             Environmental Health  
                             Office of Institutional Research  
                         
                      
                   
                   
                      Support UofM 
                      
                         
                             Make a Gift  
                             Alumni Association  
                             Year of Service  
                         
                      
                   
                   
                      Administrative Support 
                      
                         
                             President's Office  
                             Academic Affairs  
                             Business   Finance  
                             Career Opportunities  
                             Conference   Event Services  
                             Corporate Partnerships  
  Development Office  
                             Government Relations  
                             Information Technology Services  
                             Media and Marketing  
                             Student Affairs  
                         
                      
                   
                
             
          
          
             
				    
                  
                
             
             
                   
                  
                
             
             
                
                   Follow UofM Online 
                     UofM Facebook     UofM Twitter     UofM YouTube   
                    
                   
                     UofM Instagram     UofM Pinterest     UofM LinkedIn   
                
             
              
                   
                      
                   
                
      
          
       
    
 
 
      
      
      
       
          
             
                
                   
                      
                         
                            
                               
                                 
                                 
                                  
  Print  
  Got a Question? Ask TOM  
  Copyright © 2017 University of Memphis  
  Important Notice  
                                  
                                 
                                 
                                  
                                     Last Updated: 11/3/17 
                                  
                                 
                                 
                                  
  University of Memphis  
 Memphis, TN 38152 
 Phone: 901.678.2000 
 
  
 The University of Memphis does not discriminate against students, employees, or applicants for admission or employment on the basis of race, color, religion, creed, national origin, sex, sexual orientation, gender identity/expression, disability, age, status as a protected veteran, genetic information, or any other legally protected class with respect to all employment, programs and activities sponsored by the University of Memphis. The Office for Institutional Equity has been designated to handle inquiries regarding non-discrimination policies. For more information, visit  University of Memphis Equal Opportunity and Affirmative Action .  
Title IX of the Education Amendments of 1972 protects people from discrimination based on sex in education programs or activities which receive Federal financial assistance. Title IX states: "No person in the United States shall, on the basis of sex, be excluded from participation in, be denied the benefits of, or be subjected to discrimination under any education program or activity receiving Federal financial assistance..." 20 U.S.C. § 1681 - To Learn More, visit  Title IX and Sexual Misconduct .
 
 
                                 
                                 
                                 
                               
                            
                         
                      
                   
                
             
          
       
    
   
   
   
   
   
   
 



 


