Douglas Strohmer - CEPR - University of Memphis    










 
 
 
     



 
    
    
    Douglas Strohmer - 
      	CEPR
      	 - University of Memphis
    
    
    
    
    
    
    
    
    
    
    
    
    
    
    
    
    
    
    
    
    
    
    
    
    
   
   
   






   
   
   
    
    
 
 
   
   
   
   
 
    
   
   
    
      
      
          
     
    
       
          
             
                
				    
					     
                   
      
                
                
                    
                
                
                   
                      
                         
                            
                               
                                   Lambuth Campus  
                                   myMemphis  
                                   Webmail  
                                   Faculty   Staff  
                                   Contact  
                                   Directories  
                               
                            
                            
                               Search 
                               
							   
							      
						 Site Index 
                            
                             
                         
                      
                   
                   
                      
                         
                            
                                Academics    
                                  
                                      Academics Overview  
                                      Colleges   Schools  
                                      Undergraduate Catalog  
                                      Graduate Catalog  
                                      Honors Program  
								      UofM Global  
                                  
                               
                                Admissions    
                                  
                                      Admissions Information  
                                      Undergraduate Students  
                                      Graduate Students  
                                      Law Students  
                                      International Students  
                                  
                               
                                Athletics    
                                  
                                      Tiger Athletics  
                                      Ticket Information  
                                      Intramurals  
                                      Make A Gift  
                                      Rec Center  
                                      gotigersgo.com  
                                  
                               
                                Research    
                                  
                                      Research   Sponsored Programs  
                                      Research Resources  
                                      Centers/Chairs of Excellence  

                                      Centers and Institutes  
									  FedEx Institute of Technology  
                                      electronic Research Administration (eRA)  
									  Office of Institutional Research  
                                  
                               
                                Support UofM    
                                  
                                      Development  
                                      Make a Gift  
                                      Alumni Association  
                                      Athletics Development  
                                  
                               
                                Libraries    
                                  
                                      University Libraries  
                                      Libraries Resources  
                                      Libraries Services  
                                      Special Collections  
                                      Ask a Librarian  
                                  
                               
                            
                         
                      
                   
                
             
             
                
                   
                      Resources for... 
                      
                          Prospective Students  
                          Current and Returning Students  
                          Parents  
                          Alumni  
                          Veterans  
                      
                       Expand Menu  
                   
				   			   
                
             
          
       
    
          
      
          
    
       
          
             
                
                   
                       
                           			Counseling, Educational Psychology   Research
                           	 
                          
                   
                
             
          
       
       
          
             
                
                   
                      
                          Counseling  
                          Counseling Psychology  
                          Ed Psych   Research  
                          Faculty  
                          Research  
                      
                   
                
             
          
          
             
                
                   
                      
                          Home  
                          
                              	CEPR
                              	  
                          
                              	Faculty
                              	  
                         Douglas Strohmer 
                      
                   
                   
                       
                      
                     
                     	
                     
                     		  
                      
                        
                        
                         
                           
                           
                                                                
                              
                              
                               
                              
                              
                            
                           
                           
                            
                              
                               
                                 
                                 Douglas Strohmer
                                 
                               
                              
                              
                               
                                 
                                 Professor
                                 
                               
                              
                              
                               
                                 
                                  
                                    
                                     Phone 
                                    
                                     
                                       
                                       (901) 678-5466
                                       
                                     
                                    
                                  
                                 
                                  
                                    
                                     Email 
                                    
                                     
                                       
                                       dstrohmr@memphis.edu
                                       
                                     
                                    
                                  
                                 
                                  
                                    
                                     Fax 
                                    
                                     
                                       
                                       
                                       
                                     
                                    
                                  
                                 
                               
                              
                              
                               
                                 
                                  
                                    
                                     Office 
                                    
                                     
                                       
                                       Ball Hall 101B
                                       
                                     
                                    
                                  
                                 
                                  
                                    
                                     Office Hours 
                                    
                                     
                                       
                                       Monday, 1 -3, after class,   by appointment (678-2841)
                                       
                                     
                                    
                                  
                                 
                               
                              
                              
                               
                                 										
                                 
                                 
                                   CVS  
                                                                         
                                 
                               
                              
                            
                           
                           
                         
                        			 
                        			  
                        
                        
                         About Dr. Strohmer 
                        
                         Dr. Douglas Strohmer, Ph.D, CRC, APA Fellow, is the former Chair of the Department
                           of Counseling, Educational Psychology and Research. He holds fellow status in the
                           American Psychological Association. His interests include: clinical judgment and decision-making,
                           medical decision-making and the Internet, personality assessment, counseling process,
                           professional identity, men in counseling, and disability issues. He has published
                           over 60 articles in major counseling and psychology journals. In addition, he had
                           authored several commercially available assessment instruments for use with lower
                           intelligence individuals. He has been awarded the American Rehabilitation Counseling
                           Association (ARCA) research award three times, the National Council on Rehabilitation
                           Education (NCRE) research and career educator awards, the ARCA career research award,
                           and the Pfizer Excellence in Research Award. Dr. Strohmer's work has also been recognized
                           in other areas of counseling. For example, Dr. Strohmer was in the top 20 of individuals
                           publishing in Journal of Counseling Psychology over a 25-year period. He has co-edited
                           three journals (Rehabilitation Education, Assessment in Rehabilitation and Exceptionality,
                           and The Journal of Forensic Vocational Assessment) and is editor emeritus of the Rehabilitation
                           Counseling Bulletin.
                         
                        
                         Education 
                        
                         
                           
                            BA Psychology - Michigan State University - 1967 
                           
                            MA Counseling and Guidance - Michigan State University - 1972 
                           
                            Ph.D. Counseling and Educational Psychology - Michigan State University - 1979 
                           
                         
                        
                        
                      
                     								
                     
                     
                     
                     
                     	
                      
                   
                
                
                   
                      
                      
                         
                            
                                About the Department  
                                
                            
                            
                                Student Organizations in CEPR  
                                
                            
                            
                                Department News  
                                
                            
                            
                                Contact Us  
                                
                            
                         
                      
                      
                      
                   
                   
                
                
             
             
          
          
       
    
    
    
      
      
       
 
    
       
          
             
                 Full sitemap   
             
             
                
                   
                      Admissions 
                      
                         
                             Prospective Students  
                             Undergraduate  
                             Graduate  
                             Law School  
                             International  
                             Parents  
                             Scholarship   Financial Aid  
                             Tuition   Fee Payment  
                             FAQs  
                             About UofM  
                         
                      
                   
                   
                      Academics 
                      
                         
                             Provost's Office  
                             Libraries  
                             Transcripts  
                             Undergraduate Catalog  
                             Graduate Catalog  
                             Academic Calendars  
                             Course Schedule  
                             Financial Aid  
                             Graduation  
                             Honors Program  
						     eCourseware  
                         
                      
                   
                   
                      Athletics 
                      
                         
                             Gotigersgo.com  
                             Ticket Information  
                             Intramural Sports  
                             Recreation Center  
                             Athletic Academic Support  
                             Former Tigers  
                             Facilities  
                             Tiger Scholarship Fund  
                             Media  
                         
                      
                   
				    
                   
                      Research 
                      
                         
                             Sponsored Programs  
                             Research Resources  
                             Centers   Institutes  
                             Chairs of Excellence  
                             FedEx Institute of Technology  
                             Libraries  
                             Grants Accounting  
                             Environmental Health  
                             Office of Institutional Research  
                         
                      
                   
                   
                      Support UofM 
                      
                         
                             Make a Gift  
                             Alumni Association  
                             Year of Service  
                         
                      
                   
                   
                      Administrative Support 
                      
                         
                             President's Office  
                             Academic Affairs  
                             Business   Finance  
                             Career Opportunities  
                             Conference   Event Services  
                             Corporate Partnerships  
  Development Office  
                             Government Relations  
                             Information Technology Services  
                             Media and Marketing  
                             Student Affairs  
                         
                      
                   
                
             
          
          
             
				    
                  
                
             
             
                   
                  
                
             
             
                
                   Follow UofM Online 
                     UofM Facebook     UofM Twitter     UofM YouTube   
                    
                   
                     UofM Instagram     UofM Pinterest     UofM LinkedIn   
                
             
              
                   
                      
                   
                
      
          
       
    
 
 
      
      
      
       
          
             
                
                   
                      
                         
                            
                               
                                 
                                 
                                  
  Print  
  Got a Question? Ask TOM  
  Copyright © 2017 University of Memphis  
  Important Notice  
                                  
                                 
                                 
                                  
                                     Last Updated: 11/6/17 
                                  
                                 
                                 
                                  
  University of Memphis  
 Memphis, TN 38152 
 Phone: 901.678.2000 
 
  
 The University of Memphis does not discriminate against students, employees, or applicants for admission or employment on the basis of race, color, religion, creed, national origin, sex, sexual orientation, gender identity/expression, disability, age, status as a protected veteran, genetic information, or any other legally protected class with respect to all employment, programs and activities sponsored by the University of Memphis. The Office for Institutional Equity has been designated to handle inquiries regarding non-discrimination policies. For more information, visit  University of Memphis Equal Opportunity and Affirmative Action .  
Title IX of the Education Amendments of 1972 protects people from discrimination based on sex in education programs or activities which receive Federal financial assistance. Title IX states: "No person in the United States shall, on the basis of sex, be excluded from participation in, be denied the benefits of, or be subjected to discrimination under any education program or activity receiving Federal financial assistance..." 20 U.S.C. § 1681 - To Learn More, visit  Title IX and Sexual Misconduct .
 
 
                                 
                                 
                                 
                               
                            
                         
                      
                   
                
             
          
       
    
   
   
   
   
   
   
 



 


