Restoring a dismissed news item | Resource Center   
 
 
 
 
   
 
 
 
 
 
 
 
 
 
 
 
 
 
 Restoring a dismissed news item | Resource Center 








 

 
 
 
 
 

 

 

 








 
 
 
   
     Skip to main content 
   
     
   
  
	      
       Select your language 
  
      
   العربية  English  Português  Español  Français  
 
 
 
 
 
 
 
 
 
 
   
      	
     
       
         
                       
								 
				     				 
											
				                 

                                        Resource Center  
                  
                  
                 
							 
          
		  			    
       Main menu 
  
     Home    Accessibility    Capture    ePortfolio    Integrations    Learning Environment   
    		  
         
       
     

  	 
	 


    
    
    
     
       

         
           

             
               

                
                 

                  
                   
                     

                      
                       You are here    Home    »    Learning Environment    »    News    »    News basics   
                      
                      
                      
                      
                       
                           
  
   
   

    
               

                   
                          Restoring a dismissed news item                       
        
        
       
          
     
           Printer-friendly version      
 
	On the News page or Global News page, click    Restore  from the context menu of the news item you want to restore.
 

 
	 Note  You can click    Go to News tool  from the News widget menu to view all news items on the News page.
 

     Audience:    Learner      

    
           

                   ‹ Dismissing a news item 
        
                   up 
        
                   Subscribing to a News RSS feed › 
        
       
    
   
     

    
    
   
 

                          

                      
                     
                   

                 

                
               
             

                  
        News  
  
      News basics    Accessing News    Dismissing a news item    Restoring a dismissed news item    Subscribing to a News RSS feed    Global News    Enabling notifications in News      
                  
           
         

       
     

    
    
           
         
                       
           
         
       
	 
		 
		 
			 
				 
					 Links 
					 	
						   Printer-friendly version   
						  							
						  							
					 
				 
				 
					 Contact Us 
					 Want to reach a member of the Client Enablement team?  Contact us via the Brightspace Community site, email or Twitter. 
					  Brightspace Community      Community Email      @BrightspaceHelp  
				 
			 
			  The D2L family of companies includes D2L Corporation, D2L Ltd, D2L Australia Pty Ltd, D2L Europe Ltd, D2L Asia Pte Ltd and D2L Brasil Solu  es de Tecnologia para Educa  o Ltda.    1999-2015 D2L Corporation. |   Privacy Statement   |   Community Rules   |   About    Brightspace, D2L, and other marks ("D2L marks") are trademarks of D2L Corporation, registered in the U.S. and other countries.  Please visit  www.d2l.com/trademarks  for a list of other D2L marks.
			 
			 			
		 
	 
	 
    
   
 
   
 
