Profile for ERNEST A RAKOW | The University of Memphis  
   Profile for ERNEST A RAKOW | The University of Memphis   
 
 
 
  

 

 
 
     
 
    Faculty and Staff Profiles    
 

 
 
  
 
 

 
 
 

 
 
    ERNEST A RAKOW    
 
 
    Assoc Dean, College of Education    
 
 
 Email:   erakow@memphis.edu    
 
 
   Office Location:   215 Ball Hall   
 
 
 

   

 
 





 
 
 

 
 

 

 

 

 
 
 
 

 
 

