ASEIS Research Lab   
 
   
     
     
     ASEIS Research Lab 

     
     
     
     
    
   
   
     
          
       
    	
    	I will soon be uploading my personal information here.  In the meanwhile please visit my Lab's website at:  www.ceri.memphis.edu/aseis .    
          
       

     
    
    

   
 
