tutorial   
 
 
    
   
    
   
   tutorial 
 
   
  
  
  
    Tutorials and Presentations    
 
  
   
  
  
    SAC Tutorial     
   March 7, 2001   
 
  "Tools of the Trade Seminar"   
 
  
   
  
  
    Introduction to Matlab     
   March 21, 2001   
 
  "Tools of the Trade Seminar"   
 
  
   
  
    Introduction to MatSeis 
  
March 10, 2004 
"Tools of the Trade Seminar  
    
 
  
    Return to Main Page    
 
   
 
 
