Index of /dstrohmr/public/    Index of /dstrohmr/public/  
  
 Index of /dstrohmr/public/ 
 Open Web View    
  Name 
 Modified  Size  
  
   
  
 EDPR 7521/  
 
8/25/17 11:35 AM
  
  
  
 Paul/  
 
9/7/16 7:23 AM
  
  
 
 
 
