   
 
   

     
   
   
     
     
     Broadband Networks 
     
       
         
            CERI  
            SLU  
            NSN  
            AG  
            TA  
            OK  
            CO  
            AO  
            N4 East  
           
            N4 West  
           
            Other  
         
       
     
     
     
     shortperiod CERI stations 
     
       
         
            CERI node  
            Marked Tree node  
            Lennox node  
            New Madrid node  
            Morristown node  
            Star Mt. node  
            High Peak node  
         
       
     
     
     
     Other Stations 
     
       
         
            Other networks  
            AZTN  
            UKY  
         
       
     
     
     
     Strongmotion stations 
     
       
         
            CERI strongmotion  
            SLU strongmotion  
            Hernando DeSoto Bridge Vertical
              Array, Memphis   
            Hernando DeSoto Bridge, Memphis
              
         
       
     
   
 
