Encore  
    
     
 
 
 
 
 
 
 
 Encore 
 
 
  

 function onTimeout(){
var href = "http://catalogquicksearch.memphis.edu:80/iii/encore/logoutFilterRedirect";
self.document.location.href = href;
}
var timeoutTimer = null;
function renewSession() {
clearInterval(timeoutTimer);
timeoutTimer = setTimeout(onTimeout, 1800000);}
window.onload = function() {
renewSession();
}
 
 window['adrum-start-time'] = new Date().getTime(); 
  
  
  
  
   






 
 
 
        
 

             
                
                
                 
                
                     
                            
                     
                
                     
                         
                           
                           
     
         
			
			
				 
					My Book Cart  (0 items)  
			
			 
			   
		 
    
 
                             
     
       
      
          
            
          
          
            
          
          
         
         
              
                    
               
                       |  
                      Login 
              
                    
            
            
         
         

      
  
   
    
	 
      	
	 
    

                            
                         
                              UM Libraries Home  
                     
                    
                        
        
            
	 
		 
  
 
 
 
 
 
 
 
 
 
 
             
                
                
                     Search 
                
             
			 
				 
					 
					 
					
						 
					
				 
				
				 
				    
                         
                             
                                Advanced Search
                             
                         
                    
                 
			 
			 
				 
			 
		 
         
	 
   


        
    
                    
                     
                        
     
         
            
         
     

                        
         
         
            
         
         
         
            
	 
		
		
			
               
                    
                         
                             QuickSearch 
                          
                    
                   
                
                    
                   
                        
                               
                               Catalog  
                           
                            
                    
                
			
        
	 

             
               
               
                    
                       
                          No results found
                       
                        . 
                       
	

                    
               
                  
               
             

             
             
                Try - Confirming the spelling of your search words -Using other words for the subject of your searches -Providing more letters of the search words if you are using wildcards.
             
        
             
                
     
        
        
     

             
            
         
        
        
        
        
    
                        
                            
         
             
                
    
       
           
            
                 
                     
                        Other Sources
                     
                     
                        
	 

                        
                            
    
             
                
                
                     
                        
                             
                                 
                                     
                                 
                             
                        
                        
                            
                                 
                                    Show Results 
                            
                     
                
             
        

                        
                     
                  
            
       
    

             
            
         
    
                        
                          
                                  
                          
                     
                     
                      
                 
                 
                    
 
	Back to top
 
 
	 
		 
			 Library Links 
			 
				 
				
			 
			 
				   UM Libraries Home    Classic Catalog    Databases    Research Help Guides    Love Or Hate This? Tell Us!   
			 
			 
				
			 
		 
		 
			 Search Tools 
                 
                     
                        
                              Advanced Search      
                        
                     
                      Encore Home  
                     
                    
                          
     
         
			
			
				 
					My Book Cart  (0 items)  
			
			 
			   
		 
    
  
                    
                     
         
              
                    
               
                       |  
                      Login 
              
                    
            
            
         
         
 
                 
		 
		 
			
      


			 
		 
		 
			
     
         
     

			
     
        
     

		 
	 
	
         
        	Powered by       Innovative Interfaces, Inc.
               
         
        

 

                 
             
            
            
              
             
         
     
 



     
                
    
    
    
    
    
    
    
        
    
    
    
    
    
    
         
       
        
     
    
    


    

    
