CERI Helicorder Displays   
 
 
 
 CERI Helicorder Displays 
 
 
 
   
       Recent Helicorder Displays From  
     
       
         
               
               
         
       
       
        Helicorder Main Page  
         Recent Earthquakes  
       
       


   U32A BHZ OK -- : Winter Ranch, Mooreland, OK (OGS)  
   12/08/2017 (00)  |   12/07/2017 (12)  |   12/07/2017 (00)  |   12/06/2017 (12)  |   12/06/2017 (00)  |   12/05/2017 (12)  |   12/05/2017 (00)  |   12/04/2017 (12)  |   12/04/2017 (00)  |   12/03/2017 (12)  

   X37A BHZ OK -- : Clayton, OK (OGS)  
   12/08/2017 (00)  |   12/07/2017 (12)  |   12/07/2017 (00)  |   12/06/2017 (12)  |   12/06/2017 (00)  |   12/05/2017 (12)  |   12/05/2017 (00)  |   12/04/2017 (12)  |   12/04/2017 (00)  |   12/03/2017 (12)  


 
      Station List  
       Seismic Information Home  
     CERI Home    
   
 
  
 
 
 
