CERI Helicorder Displays   
 
 
 
 CERI Helicorder Displays 
 
 
 
   
       Recent Helicorder Displays From  
     
       
         
               
         
       
       
        Helicorder Main Page  
         Recent Earthquakes  
       
	 
       
   AZTN HGZ NM 00 : AZTN  
   12/12/2017 (00)  |   12/11/2017 (12)  |   12/11/2017 (00)  |   12/10/2017 (12)  |   12/10/2017 (00)  |   12/09/2017 (12)  |   12/09/2017 (00)  |   12/08/2017 (12)  |   12/08/2017 (00)  |   12/07/2017 (12)  

   GPSA XXX NM 00 : AZTN  
   12/12/2017 (00)  |   12/11/2017 (12)  |   12/11/2017 (00)  |   12/10/2017 (12)  |   12/10/2017 (00)  |   12/09/2017 (12)  |   12/09/2017 (00)  |   12/08/2017 (12)  |   12/08/2017 (00)  |   12/07/2017 (12)  

   Arfw HG1 NM 00 : AZTN  
   12/12/2017 (00)  |   12/11/2017 (12)  |   12/11/2017 (00)  |   12/10/2017 (12)  |   12/10/2017 (00)  |   12/09/2017 (12)  |   12/09/2017 (00)  |   12/08/2017 (12)  |   12/08/2017 (00)  |   12/07/2017 (12)  

   Al3w HG1 NM 00 : AZTN  
   12/12/2017 (00)  |   12/11/2017 (12)  |   12/11/2017 (00)  |   12/10/2017 (12)  |   12/10/2017 (00)  |   12/09/2017 (12)  |   12/09/2017 (00)  |   12/08/2017 (12)  |   12/08/2017 (00)  |   12/07/2017 (12)  

   Ab2e HG1 NM 00 : AZTN  
   12/12/2017 (00)  |   12/11/2017 (12)  |   12/11/2017 (00)  |   12/10/2017 (12)  |   12/10/2017 (00)  |   12/09/2017 (12)  |   12/09/2017 (00)  |   12/08/2017 (12)  |   12/08/2017 (00)  |   12/07/2017 (12)  

   Afou HGZ NM 00 : AZTN  
   12/12/2017 (00)  |   12/11/2017 (12)  |   12/11/2017 (00)  |   12/10/2017 (12)  |   12/10/2017 (00)  |   12/09/2017 (12)  |   12/09/2017 (00)  |   12/08/2017 (12)  |   12/08/2017 (00)  |   12/07/2017 (12)  


 
      Station List  
       Seismic Information Home  
     CERI Home    
   
 
  
 
 
 
