CERI Helicorder Displays   
 
 
 
 CERI Helicorder Displays 
 
 
 
   
       Recent Helicorder Displays From  
     
       
         
               
         
       
       
        Helicorder Main Page  
         Recent Earthquakes  
       
	 
       
   BLA EHZ SE -- : Blacksburg, VA (VPI)  
   12/12/2017 (00)  |   12/11/2017 (12)  |   12/11/2017 (00)  |   12/10/2017 (12)  |   12/10/2017 (00)  |   12/09/2017 (12)  |   12/09/2017 (00)  |   12/08/2017 (12)  |   12/08/2017 (00)  |   12/07/2017 (12)  

   JSRW EHZ SE -- : Goochland, VA (VPI)  
   12/12/2017 (00)  |   12/11/2017 (12)  |   12/11/2017 (00)  |   12/10/2017 (12)  |   12/10/2017 (00)  |   12/09/2017 (12)  |   12/09/2017 (00)  |   12/08/2017 (12)  |   12/08/2017 (00)  |   12/07/2017 (12)  

   RCRC EHZ SE -- : Lynchburg, VA (VPI)  
   12/12/2017 (00)  |   12/11/2017 (12)  |   12/11/2017 (00)  |   12/10/2017 (12)  |   12/10/2017 (00)  |   12/09/2017 (12)  |   12/09/2017 (00)  |   12/08/2017 (12)  |   12/08/2017 (00)  |   12/07/2017 (12)  


 
      Station List  
       Seismic Information Home  
     CERI Home    
   
 
  
 
 
 
