CERI Helicorder Displays   
 
 
 
 CERI Helicorder Displays 
 
 
 
   
       Recent Helicorder Displays From  
     
       
         
               
         
       
       
        Helicorder Main Page  
         Recent Earthquakes  
       
	 
       
   BCRT EHZ ET 00 : Bacon Ridge, TN  
   12/12/2017 (00)  |   12/11/2017 (12)  |   12/11/2017 (00)  |   12/10/2017 (12)  |   12/10/2017 (00)  |   12/09/2017 (12)  |   12/09/2017 (00)  |   12/08/2017 (12)  |   12/08/2017 (00)  |   12/07/2017 (12)  

   CCRT EHZ ET 00 : Cowcamps Ridge, TN  
   12/12/2017 (00)  |   12/11/2017 (12)  |   12/11/2017 (00)  |   12/10/2017 (12)  |   12/10/2017 (00)  |   12/09/2017 (12)  |   12/09/2017 (00)  |   12/08/2017 (12)  |   12/08/2017 (00)  |   12/07/2017 (12)  

   CMGA EHZ ET 00 : Chestnut Mt, GA  
   12/12/2017 (00)  |   12/11/2017 (12)  |   12/11/2017 (00)  |   12/10/2017 (12)  |   12/10/2017 (00)  |   12/09/2017 (12)  |   12/09/2017 (00)  |   12/08/2017 (12)  |   12/08/2017 (00)  |   12/07/2017 (12)  

   DYTN EHZ ET 00 : Dayton, TN  
   12/12/2017 (00)  |   12/11/2017 (12)  |   12/11/2017 (00)  |   12/10/2017 (12)  |   12/10/2017 (00)  |   12/09/2017 (12)  |   12/09/2017 (00)  |   12/08/2017 (12)  |   12/08/2017 (00)  |   12/07/2017 (12)  

   ETT EHZ ET 00 : Etowah, TN  
   12/12/2017 (00)  |   12/11/2017 (12)  |   12/11/2017 (00)  |   12/10/2017 (12)  |   12/10/2017 (00)  |   12/09/2017 (12)  |   12/09/2017 (00)  |   12/08/2017 (12)  |   12/08/2017 (00)  |   12/07/2017 (12)  

   GMG EHZ ET 00 : Grassy Mountain, GA  
   12/12/2017 (00)  |   12/11/2017 (12)  |   12/11/2017 (00)  |   12/10/2017 (12)  |   12/10/2017 (00)  |   12/09/2017 (12)  |   12/09/2017 (00)  |   12/08/2017 (12)  |   12/08/2017 (00)  |   12/07/2017 (12)  

   GRBT EHZ ET 00 : Greenback, TN  
   12/12/2017 (00)  |   12/11/2017 (12)  |   12/11/2017 (00)  |   12/10/2017 (12)  |   12/10/2017 (00)  |   12/09/2017 (12)  |   12/09/2017 (00)  |   12/08/2017 (12)  |   12/08/2017 (00)  |   12/07/2017 (12)  

   RCGA EHZ ET 00 : Rock City, GA  
   12/12/2017 (00)  |   12/11/2017 (12)  |   12/11/2017 (00)  |   12/10/2017 (12)  |   12/10/2017 (00)  |   12/09/2017 (12)  |   12/09/2017 (00)  |   12/08/2017 (12)  |   12/08/2017 (00)  |   12/07/2017 (12)  


 
      Station List  
       Seismic Information Home  
     CERI Home    
   
 
  
 
 
 
