HR Program Guide University of Memphis :: Business &amp; Finance :: The HR Program Guide is an online resource for all things related to the Banner Human Resources at the University of Memphis. 
 

 
 
 HR Program Guide 
 
 
 
 
 
 
 
 
 
 







 
 

 

 
 
 
      
 
 
      
 
  



 
 
  
 
 

 CODES 
 
  data standards manual  
  deduction codes  	
  e-classes  
  earnings codes  
  suffix list  
  soc codes  
 
 EMPLOYEE SELF SERVICE 
 
  accessing your info  
  pay stub info  
  troubleshooting  
 
 TRAINING 
 
  learning curve  
 
  reference cards  
 
 UTILITIES 
 
  eContracts  
  position lookup  
 web time entry 
      by organization  
      by name  
  org chart search  
 
 REPORTS 
 
  e~Print  
 
 FORMS 
 
  direct deposit  
  hr  
  payroll  
  student employment  
  system access  
 
 
  FI PROGRAM GUIDE  
  TIGERBUY WEB SITE  

  
  
  
   
  
 
   
  

 Banner HR Reference Card(s) 
  Banner HR Reference Card    
  Web Time Entry Troubleshooting Guide  
  Electronic W-2 Printing Instructions    

 
  
 
  
 

 
    Comments   Suggestions  
    |  
    Important Notice  
    |  
    U of M Home  
 
Site maintained by  Division of Business   Finance  
Last update: 01/16/2014

  
  
  




 
 