 Part-Time Faculty Hiring - Academic Affairs - University of Memphis    










 
 
 
     



 
    
    
     Part-Time Faculty Hiring - 
      	Academic Affairs
      	 - University of Memphis
    
    
    
    
    
    
    
    
    
    
    
    
    
    
    
    
    
    
    
    
    
    
    
    
    
   
   
   






   
   
   
    
    
 
 
   
   
   
   
 
    
   
   
    
      
      
          
     
    
       
          
             
                
				    
					     
                   
      
                
                
                    
                
                
                   
                      
                         
                            
                               
                                   Lambuth Campus  
                                   myMemphis  
                                   Webmail  
                                   Faculty   Staff  
                                   Contact  
                                   Directories  
                               
                            
                            
                               Search 
                               
							   
							      
						 Site Index 
                            
                             
                         
                      
                   
                   
                      
                         
                            
                                Academics    
                                  
                                      Academics Overview  
                                      Colleges   Schools  
                                      Undergraduate Catalog  
                                      Graduate Catalog  
                                      Honors Program  
								      UofM Global  
                                  
                               
                                Admissions    
                                  
                                      Admissions Information  
                                      Undergraduate Students  
                                      Graduate Students  
                                      Law Students  
                                      International Students  
                                  
                               
                                Athletics    
                                  
                                      Tiger Athletics  
                                      Ticket Information  
                                      Intramurals  
                                      Make A Gift  
                                      Rec Center  
                                      gotigersgo.com  
                                  
                               
                                Research    
                                  
                                      Research   Sponsored Programs  
                                      Research Resources  
                                      Centers/Chairs of Excellence  

                                      Centers and Institutes  
									  FedEx Institute of Technology  
                                      electronic Research Administration (eRA)  
									  Office of Institutional Research  
                                  
                               
                                Support UofM    
                                  
                                      Development  
                                      Make a Gift  
                                      Alumni Association  
                                      Athletics Development  
                                  
                               
                                Libraries    
                                  
                                      University Libraries  
                                      Libraries Resources  
                                      Libraries Services  
                                      Special Collections  
                                      Ask a Librarian  
                                  
                               
                            
                         
                      
                   
                
             
             
                
                   
                      Resources for... 
                      
                          Prospective Students  
                          Current and Returning Students  
                          Parents  
                          Alumni  
                          Veterans  
                      
                       Expand Menu  
                   
				   			   
                
             
          
       
    
          
      
          
    
       
          
             
                
                   
                       
                           			Academic Affairs
                           	 
                          
                   
                
             
          
       
       
          
             
                
                   
                      
                          About  
                          Provost  
                          Resources  
                          Academic Affairs Units  
                          Employee Recognition  
                      
                      
                         
                            Resources   
                            
                               
                                   Faculty Resources  
                                         Calendars  
                                         New Faculty  
                                         Tenure   Promotion  
                                         Faculty Evaluation  
                                         Faculty Handbook  
                                         CV Information  
                                         University Resources  
                                     
                                  
                                   Administration Resources  
                                         Faculty Hiring  
                                         Part-Time Instructor Hiring  
                                     
                                  
                               
                            
                         
                      
                   
                
             
          
          
             
                
                   
                      
                          Home  
                          
                              	Academic Affairs
                              	  
                         
                           	Resources
                           	
                         
                      
                   
                   
                       
                      
                     
                     		
                     
                     
                      Part-Time Faculty Hiring 
                     
                      This page provides all forms and information regarding the hiring of part-time faculty,
                        including summer part-time hires.  New applicants for part-time instructor positions
                        apply electronically through WorkForUM. Anyone who has not taught within the past
                        two years is considered a new applicant and must complete the electronic application.
                      
                     
                      As of Fall 2014, all part-time faculty appointments and re-appointments are processed
                        electronically. 
                      
                     
                      To initiate an appointment or re-appointment, staff in the employing departments access
                        electronic forms and instructions through the  E-Contracts Reference   Bookshelf . 
                      
                     
                      For questions, contact Faculty Administrative Services at  facultyservices@memphis.edu .
                      
                     
                      Semester Deadlines 
                     
                      Fall - August 1 Spring - December 1 Summer - 5th working day for May, June, July and August
                      
                     
                      Forms   Information 
                     
                       Part-Time Expenditure Summary Form    Part-Time Faculty Justification Form    Extra Compensation for Instructional Purposes  
                     
                      Lambuth New Part-time Instructor Hires 
                     
                      
                        
                         New part-time instructors will apply via WorkForUM. 
                        
                         The Lambuth Dean will notify the Department Chair when there is need for additional
                           part-timers.
                         
                        
                         Department Chairs will review applications and identify acceptable candidates in WorkForUM
                           by changing the status to Recommend for Interview. The department will notify the
                           Lambuth Dean that the recommended applications are ready for review.
                         
                        
                         The Lambuth Dean will review the acceptable candidates, make the selection, and contact
                           the candidate. S/He will need the guest pass information for this step.
                         
                        
                         The Lambuth Dean will inform the department chair who will then indicate the selection
                           in WorkForUM by changing the status to Recommend for Hire.
                         
                        
                         Lambuth staff will process the paperwork, including I-9, W4, and direct deposit. 
                        
                         Lambuth Dean or Associate Dean must communicate with Lambuth staff regarding hires,
                           scheduling, and Dual Service Agreements.
                         
                        
                      
                     
                     
                     	
                      
                   
                
                
                   
                      
                         Resources 
                         
                            
                                Faculty Resources  
                                      Calendars  
                                      New Faculty  
                                      Tenure   Promotion  
                                      Faculty Evaluation  
                                      Faculty Handbook  
                                      CV Information  
                                      University Resources  
                                  
                               
                                Administration Resources  
                                      Faculty Hiring  
                                      Part-Time Instructor Hiring  
                                  
                               
                            
                         
                      
                      
                      
                         
                            
                                Provost's Blog  
                               Check out the latest Academic Affairs news 
                            
                            
                                Academic Affairs Award Nominations  
                               Submit your nomination to recognize outstanding faculty   staff 
                            
                            
                                Critical Conversations  
                               Join the conversation today! 
                            
                            
                                Healthy Memphis Initiative  
                               Making Memphis a healthier place 
                            
                         
                      
                      
                      
                   
                   
                
                
             
             
          
          
       
    
    
    
      
      
       
 
    
       
          
             
                 Full sitemap   
             
             
                
                   
                      Admissions 
                      
                         
                             Prospective Students  
                             Undergraduate  
                             Graduate  
                             Law School  
                             International  
                             Parents  
                             Scholarship   Financial Aid  
                             Tuition   Fee Payment  
                             FAQs  
                             About UofM  
                         
                      
                   
                   
                      Academics 
                      
                         
                             Provost's Office  
                             Libraries  
                             Transcripts  
                             Undergraduate Catalog  
                             Graduate Catalog  
                             Academic Calendars  
                             Course Schedule  
                             Financial Aid  
                             Graduation  
                             Honors Program  
						     eCourseware  
                         
                      
                   
                   
                      Athletics 
                      
                         
                             Gotigersgo.com  
                             Ticket Information  
                             Intramural Sports  
                             Recreation Center  
                             Athletic Academic Support  
                             Former Tigers  
                             Facilities  
                             Tiger Scholarship Fund  
                             Media  
                         
                      
                   
				    
                   
                      Research 
                      
                         
                             Sponsored Programs  
                             Research Resources  
                             Centers   Institutes  
                             Chairs of Excellence  
                             FedEx Institute of Technology  
                             Libraries  
                             Grants Accounting  
                             Environmental Health  
                             Office of Institutional Research  
                         
                      
                   
                   
                      Support UofM 
                      
                         
                             Make a Gift  
                             Alumni Association  
                             Year of Service  
                         
                      
                   
                   
                      Administrative Support 
                      
                         
                             President's Office  
                             Academic Affairs  
                             Business   Finance  
                             Career Opportunities  
                             Conference   Event Services  
                             Corporate Partnerships  
  Development Office  
                             Government Relations  
                             Information Technology Services  
                             Media and Marketing  
                             Student Affairs  
                         
                      
                   
                
             
          
          
             
				    
                  
                
             
             
                   
                  
                
             
             
                
                   Follow UofM Online 
                     UofM Facebook     UofM Twitter     UofM YouTube   
                    
                   
                     UofM Instagram     UofM Pinterest     UofM LinkedIn   
                
             
              
                   
                      
                   
                
      
          
       
    
 
 
      
      
      
       
          
             
                
                   
                      
                         
                            
                               
                                 
                                 
                                  
  Print  
  Got a Question? Ask TOM  
  Copyright © 2017 University of Memphis  
  Important Notice  
                                  
                                 
                                 
                                  
                                     Last Updated: 11/26/17 
                                  
                                 
                                 
                                  
  University of Memphis  
 Memphis, TN 38152 
 Phone: 901.678.2000 
 
  
 The University of Memphis does not discriminate against students, employees, or applicants for admission or employment on the basis of race, color, religion, creed, national origin, sex, sexual orientation, gender identity/expression, disability, age, status as a protected veteran, genetic information, or any other legally protected class with respect to all employment, programs and activities sponsored by the University of Memphis. The Office for Institutional Equity has been designated to handle inquiries regarding non-discrimination policies. For more information, visit  University of Memphis Equal Opportunity and Affirmative Action .  
Title IX of the Education Amendments of 1972 protects people from discrimination based on sex in education programs or activities which receive Federal financial assistance. Title IX states: "No person in the United States shall, on the basis of sex, be excluded from participation in, be denied the benefits of, or be subjected to discrimination under any education program or activity receiving Federal financial assistance..." 20 U.S.C. § 1681 - To Learn More, visit  Title IX and Sexual Misconduct .
 
 
                                 
                                 
                                 
                               
                            
                         
                      
                   
                
             
          
       
    
   
   
   
   
   
   
 



 


