Finance Program Guide University of Memphis :: Business &amp; Finance :: The Finance Program Guide is an online resource for all things related to the Banner Finance at the University of Memphis. 
 

 
 
 Finance Program Guide 
 
 
 
 
 
 
 
 
 
 
 






 
 

 

 
 
 
      
 
 
      
 
  
  
 
 
  
 
 

 FOAPALs 
 
  search by index  
  search by fund  
  search by organization  
  search by program  
  search by activity  
  search by multiple fields  
  search by orgn title  
  search by index title  
 
 SIGNATURES 
 
  signatures by org  
  signatures by name  
  approval queues by org  
  approval queues by name  
  EPAF approval queues by name  
 
 EQUIPMENT REPS 
 
    assign equipment reps  
    view equipment reps  
    fixed asset workflow help  
 
 CODES 
 
  account code list  
  rule code list  
  location code search  
  program code list  
  data standards manual  
 
 TRAINING 
 
  learning curve  
 
 
 UTILITIES & REPORTS 
 
  budget overexpenditures  
  e~Print  
 
 FORMS 
 
  accounting   
  budget   
  direct deposit   
  procurement   
  system access  
 
 
  HR PROGRAM GUIDE  
  TIGERBUY WEB SITE  

  
  
  
   
  

 

 

  
  
  
 Banner e~Print Reports 
 
   
       Report Name   
       Title   Description   
       Contact  Department   
   
   
      Banner HR Reports   
   
   
       NHRDIST  
      Organization Payroll Distribution  
        Payroll   
   
   
       NHRSDST  
      Employee Payroll Summary by Organization 
       Payroll   
   
   
       PHRCDST   
      List of Direct Deposits and Checks  
       Payroll   
   
   
       PERLEAV   
      Leave Liability Report  
       Employee Records   
   
   
      Banner Finance Reports   
   
   
       FAROINV  
      Open Invoice Report 
       General Accounting    
   
   
       FGRACCI  
      Account Index Report 
       Financial 
      Reporting   
   
   
       FGRACTH  
      Account Hierarchy Report 
       Financial 
      Reporting   
   
   
       FGRACTV  
      Activity Codes Report 
       Financial 
      Reporting   
   
   
       FGRBDSC  
      Budget Status (current period)  
       Financial Planning / General Accounting    
   
   
       FGRCGBA  
      Comparative Stmts of Rev, Expn and Changes in Fund Bal 
       Financial 
      Reporting   
   
   
       FGRFAAC  
      Fund/Account Activity Report 
       Financial 
      Reporting / Grants Accounting    
   
   
       FGRFNDH  
      Fund Hierarchy Report 
       Financial 
      Reporting / Grants Accounting    
   
   
       FGRGLTA  
      G/L Transaction Activity Report 
       General Accounting    
   
   
       FGRIDOC  
      Incomplete Document Report 
       General Accounting / Financial Planning / Purchasing    
   
   
       FGRJVLR  
      Journal Voucher Listing Report 
       Financial Planning / General Accounting    
   
   
       FGRODTA  
      Organization Detail Activity Report 
       General Accounting / Financial Planning   
   
   
       FGROPNE  
      Open Encumbrance Report 
       General Accounting   
   
   
       FGRPDTA  
      Program Detail Activity Report 
       Financial 
      Reporting   
   
   
       FGRPRGH  
      Program Hierarchy Report 
       Financial 
      Reporting   
   
   
       FPROPNP  
      Open Purchase Order Report 
       Purchasing   
   
   
       FPROPNR  
      Open Requisition Report 
       Purchasing   
   
   
       FPRPURA  
      Purchase Order Activity Report 
       Purchasing   
   
   
       FRRGBFY  
      Grants Budget Status Report (FYTD) 
       Grants Accounting / Property Accounting   
   
   
       FRRGITD  
      Grants Inception to Date Report 
       Grants Accounting / Property Accounting    
   
   
       FRRGRNT  
      Deferred Grant Process Report 
       Grants Accounting   
   
   
       FRRINDC  
      Grant Expenditures Report 
       Grants Accounting / Property Accounting   
   
   
       FGRCTRL  
      G/L Subsidiary Ledger Control 
       General Accounting   
   
   
       FGRCASH  
      Bank Inter fund Account Control 
       General Accounting   
   
   
       FGRTBEX  
      Trial Balance Exception Report 
       General Accounting   
   
   
       FGRTRNR  
      Transaction Error Report 
       General Accounting   
   
   
       FGRORGH  
      Organization Hierarchy Report 
       Business   Finance Support Services   
   
   
       FGRTBAL  
      Trial Balance Report 
       General Accounting   
   
 
   
 
 
  
 
  
 

 
    Comments   Suggestions  
    |  
    Important Notice  
    |  
    U of M Home  
 
Site maintained by  Division of Business   Finance  
Last update: 10/06/2009

  
  
  




 
 