Display Policy - Libraries - University of Memphis    










 
 
 
     



 
    
    
    Display Policy - 
      	Libraries
      	 - University of Memphis
    
    
    
    
    
    
    
    
    
    
    
    
    
    
    
    
    
    
    
    
    
    
    
    
    
   
   
   






   
   
   
    
    
    
    
    
    
    
    
    
    
    
 
 
   
   
   
   
 
    
   
   
    
      
      
          
     
    
       
          
             
                
				    
					     
                   
      
                
                
                    
                
                
                   
                      
                         
                            
                               
                                   Lambuth Campus  
                                   myMemphis  
                                   Webmail  
                                   Faculty   Staff  
                                   Contact  
                                   Directories  
                               
                            
                            
                               Search 
                               
							   
							      
						 Site Index 
                            
                             
                         
                      
                   
                   
                      
                         
                            
                                Academics    
                                  
                                      Academics Overview  
                                      Colleges   Schools  
                                      Undergraduate Catalog  
                                      Graduate Catalog  
                                      Honors Program  
								      UofM Global  
                                  
                               
                                Admissions    
                                  
                                      Admissions Information  
                                      Undergraduate Students  
                                      Graduate Students  
                                      Law Students  
                                      International Students  
                                  
                               
                                Athletics    
                                  
                                      Tiger Athletics  
                                      Ticket Information  
                                      Intramurals  
                                      Make A Gift  
                                      Rec Center  
                                      gotigersgo.com  
                                  
                               
                                Research    
                                  
                                      Research   Sponsored Programs  
                                      Research Resources  
                                      Centers/Chairs of Excellence  

                                      Centers and Institutes  
									  FedEx Institute of Technology  
                                      electronic Research Administration (eRA)  
									  Office of Institutional Research  
                                  
                               
                                Support UofM    
                                  
                                      Development  
                                      Make a Gift  
                                      Alumni Association  
                                      Athletics Development  
                                  
                               
                                Libraries    
                                  
                                      University Libraries  
                                      Libraries Resources  
                                      Libraries Services  
                                      Special Collections  
                                      Ask a Librarian  
                                  
                               
                            
                         
                      
                   
                
             
             
                
                   
                      Resources for... 
                      
                          Prospective Students  
                          Current and Returning Students  
                          Parents  
                          Alumni  
                          Veterans  
                      
                       Expand Menu  
                   
				   			   
                
             
          
       
    
          
      
          
    
       
          
             
                
                   
                       
                           			University Libraries
                           	 
                          
                   
                
             
          
       
       
          
             
                
                   
                      
                          About  
                          Services  
                          Resources  
                          Instruction  
                          Special Collections  
                          Technology  
                      
                      
                         
                            About University Libraries   
                            
                               
                                  
                                   Hours  
                                   News   Events  
                                   Jobs  
                                   Staff Directory  
                                   Organization Chart  
                                   Library Faculty and Staff Portal  
                                   Alternate Use of Library Space Request  
                               
                            
                         
                      
                   
                
             
          
          
             
                
                   
                      
                          Home  
                          
                              	Libraries
                              	  
                          
                              	About University Libraries
                              	  
                         Display Policy 
                      
                   
                   
                       
                      
                     
                     		
                     
                     
                      University of Memphis Libraries Display Policy 
                     
                      This policy applies to the Ned R. McWherter Library and all branch libraries. 
                     
                      Purpose: The University of Memphis Libraries will present displays and exhibitions
                        to support its educational mission. Displays and exhibitions will highlight the diverse
                        holdings of the Libraries, connect the Libraries' resources with current or historical
                        events, and provide topical information related to events and activities in the Libraries,
                        the University, and the region.
                      
                     
                      Content: Displays and exhibitions will have a clearly identifiable educational purpose
                        and content, without advocating a specific political, religious or ideological doctrine.
                        The Preservation and Special Collections Department, the Administration Department,
                        and Government Publications will schedule and curate the majority of the displays
                        and exhibitions. Other Libraries' departments are welcome to propose and plan appropriate
                        displays in consultation with these departments and the final approval of the Dean
                        of University Libraries. Display locations:
                      
                     
                      
                        
                          Window on the fourth floor of The Ned R. McWherter Library (outside the entrance
                           to the Special Collections Department
                         
                        
                          Display cases in the Rotunda 
                        
                          Digital signage system in the Rotunda 
                        
                          Exhibitions of digital materials on the Libraries' web site 
                        
                          Designated display areas in all branch libraries 
                        
                          Additional physical and virtual spaces designated by the Preservation and Special
                           Collections and Administration Departments
                         
                        
                      
                     
                      External displays: Displays and exhibitions from organizations outside of the University
                        Libraries must support the educational mission of the University and Libraries. Written
                        proposals must be submitted to the Administration Department and evaluated by Dean
                        of University Libraries, who will make the final decisions. All inquiries should be
                        addressed to Libraries Administration (Room 204, Ned R. McWherter Library, 901-678-2201).
                      
                     
                      Reviewed August 2016 
                     
                      Approved by the University Libraries' Administrative Council: November 2013 
                     
                     
                     	
                      
                   
                
                
                   
                      
                         About University Libraries 
                         
                            
                               
                                Hours  
                                News   Events  
                                Jobs  
                                Staff Directory  
                                Organization Chart  
                                Library Faculty and Staff Portal  
                                Alternate Use of Library Space Request  
                            
                         
                      
                      
                      
                         
                            
                                Ask-a-Librarian  
                               Got a question? Got a problem? Ask Us! 
                            
                            
                                Interlibrary Loan  
                               Request books, articles, and other research materials from other libraries. 
                            
                            
                                Reserve space  
                               Group study and presentation spaces available in the library. 
                            
                            
                                My Library Account  
                               Review your library account for due dates and more. 
                            
                         
                      
                      
                      
                   
                   
                
                
             
             
          
          
       
    
    
    
      
      
       
 
    
       
          
             
                 Full sitemap   
             
             
                
                   
                      Admissions 
                      
                         
                             Prospective Students  
                             Undergraduate  
                             Graduate  
                             Law School  
                             International  
                             Parents  
                             Scholarship   Financial Aid  
                             Tuition   Fee Payment  
                             FAQs  
                             About UofM  
                         
                      
                   
                   
                      Academics 
                      
                         
                             Provost's Office  
                             Libraries  
                             Transcripts  
                             Undergraduate Catalog  
                             Graduate Catalog  
                             Academic Calendars  
                             Course Schedule  
                             Financial Aid  
                             Graduation  
                             Honors Program  
						     eCourseware  
                         
                      
                   
                   
                      Athletics 
                      
                         
                             Gotigersgo.com  
                             Ticket Information  
                             Intramural Sports  
                             Recreation Center  
                             Athletic Academic Support  
                             Former Tigers  
                             Facilities  
                             Tiger Scholarship Fund  
                             Media  
                         
                      
                   
				    
                   
                      Research 
                      
                         
                             Sponsored Programs  
                             Research Resources  
                             Centers   Institutes  
                             Chairs of Excellence  
                             FedEx Institute of Technology  
                             Libraries  
                             Grants Accounting  
                             Environmental Health  
                             Office of Institutional Research  
                         
                      
                   
                   
                      Support UofM 
                      
                         
                             Make a Gift  
                             Alumni Association  
                             Year of Service  
                         
                      
                   
                   
                      Administrative Support 
                      
                         
                             President's Office  
                             Academic Affairs  
                             Business   Finance  
                             Career Opportunities  
                             Conference   Event Services  
                             Corporate Partnerships  
  Development Office  
                             Government Relations  
                             Information Technology Services  
                             Media and Marketing  
                             Student Affairs  
                         
                      
                   
                
             
          
          
             
				    
                  
                
             
             
                   
                  
                
             
             
                
                   Follow UofM Online 
                     UofM Facebook     UofM Twitter     UofM YouTube   
                    
                   
                     UofM Instagram     UofM Pinterest     UofM LinkedIn   
                
             
              
                   
                      
                   
                
      
          
       
    
 
 
      
      
      
       
          
             
                
                   
                      
                         
                            
                               
                                 
                                 
                                  
  Print  
  Got a Question? Ask TOM  
  Copyright © 2017 University of Memphis  
  Important Notice  
                                  
                                 
                                 
                                  
                                     Last Updated: 12/8/17 
                                  
                                 
                                 
                                  
  University of Memphis  
 Memphis, TN 38152 
 Phone: 901.678.2000 
 
  
 The University of Memphis does not discriminate against students, employees, or applicants for admission or employment on the basis of race, color, religion, creed, national origin, sex, sexual orientation, gender identity/expression, disability, age, status as a protected veteran, genetic information, or any other legally protected class with respect to all employment, programs and activities sponsored by the University of Memphis. The Office for Institutional Equity has been designated to handle inquiries regarding non-discrimination policies. For more information, visit  University of Memphis Equal Opportunity and Affirmative Action .  
Title IX of the Education Amendments of 1972 protects people from discrimination based on sex in education programs or activities which receive Federal financial assistance. Title IX states: "No person in the United States shall, on the basis of sex, be excluded from participation in, be denied the benefits of, or be subjected to discrimination under any education program or activity receiving Federal financial assistance..." 20 U.S.C. § 1681 - To Learn More, visit  Title IX and Sexual Misconduct .
 
 
                                 
                                 
                                 
                               
                            
                         
                      
                   
                
             
          
       
    
   
   
   
   
   
   
 



 


