Orientation Homework Assignments - School of Law - University of Memphis    










 
 
 
     



 
    
    
    Orientation Homework Assignments - 
      	School of Law 
      	 - University of Memphis
    
    
    
    
    
    
    
    
    
    
    
    
    
    
    
    
    
    
    
    
    
    
    
    
    
   
   
   






   
   
   
    
    
 
 
   
   
   
   
 
    
   
   
    
      
      
          
     
    
       
          
             
                
				    
					     
                   
      
                
                
                    
                
                
                   
                      
                         
                            
                               
                                   Lambuth Campus  
                                   myMemphis  
                                   Webmail  
                                   Faculty   Staff  
                                   Contact  
                                   Directories  
                               
                            
                            
                               Search 
                               
							   
							      
						 Site Index 
                            
                             
                         
                      
                   
                   
                      
                         
                            
                                Academics    
                                  
                                      Academics Overview  
                                      Colleges   Schools  
                                      Undergraduate Catalog  
                                      Graduate Catalog  
                                      Honors Program  
								      UofM Global  
                                  
                               
                                Admissions    
                                  
                                      Admissions Information  
                                      Undergraduate Students  
                                      Graduate Students  
                                      Law Students  
                                      International Students  
                                  
                               
                                Athletics    
                                  
                                      Tiger Athletics  
                                      Ticket Information  
                                      Intramurals  
                                      Make A Gift  
                                      Rec Center  
                                      gotigersgo.com  
                                  
                               
                                Research    
                                  
                                      Research   Sponsored Programs  
                                      Research Resources  
                                      Centers/Chairs of Excellence  

                                      Centers and Institutes  
									  FedEx Institute of Technology  
                                      electronic Research Administration (eRA)  
									  Office of Institutional Research  
                                  
                               
                                Support UofM    
                                  
                                      Development  
                                      Make a Gift  
                                      Alumni Association  
                                      Athletics Development  
                                  
                               
                                Libraries    
                                  
                                      University Libraries  
                                      Libraries Resources  
                                      Libraries Services  
                                      Special Collections  
                                      Ask a Librarian  
                                  
                               
                            
                         
                      
                   
                
             
             
                
                   
                      Resources for... 
                      
                          Prospective Students  
                          Current and Returning Students  
                          Parents  
                          Alumni  
                          Veterans  
                      
                       Expand Menu  
                   
				   			   
                
             
          
       
    
          
      
          
    
       
          
             
                
                   
                       
                           			Cecil C. Humphreys School of Law
                           	 
                           
                   
                
             
          
       
       
          
             
                
                   
                      
                          About  
                          Admissions  
                          Programs  
                          Current Students  
                          Faculty  
                          Careers  
                          Library  
                      
                      
                         
                            Student Affairs Office   
                            
                               
                                  
                                   Academic Support  
                                         Academic Success Program  
                                         Bar Exam Information  
                                         Disability Resources for Students  
                                         Study Abroad  
                                         Student Advising  
                                     
                                  
                                   Student Support  
                                         Counseling Services  
                                         Fitness  
                                         Housing  
                                         Individual Appointment Info  
                                         Information Technology  
                                         Lactation Room  
                                         Law School ID Cards  
                                         Locker Rentals  
                                         Parking   Transportation  
                                         Print Services  
                                         TN Lawyers Assistance Program  
                                         Health Services  
                                     
                                  
                                   Student Organizations  
                                   Orientation  
                                   Commencement  
                               
                            
                         
                      
                   
                
             
          
          
             
                
                   
                      
                          Home  
                          
                              	School of Law 
                              	  
                          
                              	Student Affairs Office
                              	  
                         Orientation Homework Assignments 
                      
                   
                   
                       
                      
                     
                     		
                     
                     
                      ORIENTATION HOMEWORK ASSIGNMENTS 
                     
                      This page contains your Orientation homework assignments and links to materials you
                        will need to complete your homework assignments during Orientation. Please first review
                        the 1L Orientation Homework Assignment List below, and then locate any other materials
                        you will need to complete your assignments using the links below.
                      
                     
                      Please contact  Abby Gardner  if you have any questions.
                      
                     
                       1L Orientation Homework Assignments  
                     
                      Introduction to the Study of Law 
                     
                       Chs. 1.3 and 7.2-7.4 of Richard K. Neumann, Jr., Ellie Margolis   Kathryn M. Stanchi,
                           Legal Reasoning and Legal Writing (8th ed. 2017)  
                     
                       Ch. 1 of David S. Romantz   Kathleen Elliott Vinson, Legal Analysis: The Fundamental
                           Skill (2d ed. 2009)  
                     
                      Introduction to the Study of Law 
                     
                       Introduction to the Study of Law  Reading Assignment  
                     
                       Introduction to the Study of Law Reflection Questions  
                     
                      How to Brief Cases 
                     
                       How to Brief Cases Reading Assignment  
                     
                       People v. Rideout  
                     
                       Case Brief Format  
                     
                      Critical Reading Workshop 
                     
                       Critical Reading for Law Students  
                     
                     
                     	
                      
                   
                
                
                   
                      
                         Student Affairs Office 
                         
                            
                               
                                Academic Support  
                                      Academic Success Program  
                                      Bar Exam Information  
                                      Disability Resources for Students  
                                      Study Abroad  
                                      Student Advising  
                                  
                               
                                Student Support  
                                      Counseling Services  
                                      Fitness  
                                      Housing  
                                      Individual Appointment Info  
                                      Information Technology  
                                      Lactation Room  
                                      Law School ID Cards  
                                      Locker Rentals  
                                      Parking   Transportation  
                                      Print Services  
                                      TN Lawyers Assistance Program  
                                      Health Services  
                                  
                               
                                Student Organizations  
                                Orientation  
                                Commencement  
                            
                         
                      
                      
                      
                         
                            
                                Apply to Memphis Law  
                               Take the first step toward your legal education 
                            
                            
                                ABA Required Disclosures  
                               Information required by ABA Standard 509 Required Disclosures 
                            
                            
                                Alumni   Support  
                               Stay up to date with Memphis Law alumni 
                            
                            
                                Contact Us  
                               Questions about law school? We can help! 
                            
                         
                      
                      
                      
                   
                   
                
                
             
             
          
          
       
    
    
    
      
      
       
 
    
       
          
             
                 Full sitemap   
             
             
                
                   
                      Admissions 
                      
                         
                             Prospective Students  
                             Undergraduate  
                             Graduate  
                             Law School  
                             International  
                             Parents  
                             Scholarship   Financial Aid  
                             Tuition   Fee Payment  
                             FAQs  
                             About UofM  
                         
                      
                   
                   
                      Academics 
                      
                         
                             Provost's Office  
                             Libraries  
                             Transcripts  
                             Undergraduate Catalog  
                             Graduate Catalog  
                             Academic Calendars  
                             Course Schedule  
                             Financial Aid  
                             Graduation  
                             Honors Program  
						     eCourseware  
                         
                      
                   
                   
                      Athletics 
                      
                         
                             Gotigersgo.com  
                             Ticket Information  
                             Intramural Sports  
                             Recreation Center  
                             Athletic Academic Support  
                             Former Tigers  
                             Facilities  
                             Tiger Scholarship Fund  
                             Media  
                         
                      
                   
				    
                   
                      Research 
                      
                         
                             Sponsored Programs  
                             Research Resources  
                             Centers   Institutes  
                             Chairs of Excellence  
                             FedEx Institute of Technology  
                             Libraries  
                             Grants Accounting  
                             Environmental Health  
                             Office of Institutional Research  
                         
                      
                   
                   
                      Support UofM 
                      
                         
                             Make a Gift  
                             Alumni Association  
                             Year of Service  
                         
                      
                   
                   
                      Administrative Support 
                      
                         
                             President's Office  
                             Academic Affairs  
                             Business   Finance  
                             Career Opportunities  
                             Conference   Event Services  
                             Corporate Partnerships  
  Development Office  
                             Government Relations  
                             Information Technology Services  
                             Media and Marketing  
                             Student Affairs  
                         
                      
                   
                
             
          
          
             
				    
                  
                
             
             
                   
                  
                
             
             
                
                   Follow UofM Online 
                     UofM Facebook     UofM Twitter     UofM YouTube   
                    
                   
                     UofM Instagram     UofM Pinterest     UofM LinkedIn   
                
             
              
                   
                      
                   
                
      
          
       
    
 
 
      
      
      
       
          
             
                
                   
                      
                         
                            
                               
                                 
                                 
                                  
  Print  
  Got a Question? Ask TOM  
  Copyright © 2017 University of Memphis  
  Important Notice  
                                  
                                 
                                 
                                  
                                     Last Updated: 11/26/17 
                                  
                                 
                                 
                                  
  University of Memphis  
 Memphis, TN 38152 
 Phone: 901.678.2000 
 
  
 The University of Memphis does not discriminate against students, employees, or applicants for admission or employment on the basis of race, color, religion, creed, national origin, sex, sexual orientation, gender identity/expression, disability, age, status as a protected veteran, genetic information, or any other legally protected class with respect to all employment, programs and activities sponsored by the University of Memphis. The Office for Institutional Equity has been designated to handle inquiries regarding non-discrimination policies. For more information, visit  University of Memphis Equal Opportunity and Affirmative Action .  
Title IX of the Education Amendments of 1972 protects people from discrimination based on sex in education programs or activities which receive Federal financial assistance. Title IX states: "No person in the United States shall, on the basis of sex, be excluded from participation in, be denied the benefits of, or be subjected to discrimination under any education program or activity receiving Federal financial assistance..." 20 U.S.C. § 1681 - To Learn More, visit  Title IX and Sexual Misconduct .
 
 
                                 
                                 
                                 
                               
                            
                         
                      
                   
                
             
          
       
    
   
   
   
   
   
   
 



 


