Law Review Submissions - School of Law - University of Memphis    










 
 
 
     



 
    
    
    Law Review Submissions  - 
      	School of Law 
      	 - University of Memphis
    
    
    
    
    
    
    
    
    
    
    
    
    
    
    
    
    
    
    
    
    
    
    
    
    
   
   
   






   
   
   
    
    
 
 
   
   
   
   
 
    
   
   
    
      
      
          
     
    
       
          
             
                
				    
					     
                   
      
                
                
                    
                
                
                   
                      
                         
                            
                               
                                   Lambuth Campus  
                                   myMemphis  
                                   Webmail  
                                   Faculty   Staff  
                                   Contact  
                                   Directories  
                               
                            
                            
                               Search 
                               
							   
							      
						 Site Index 
                            
                             
                         
                      
                   
                   
                      
                         
                            
                                Academics    
                                  
                                      Academics Overview  
                                      Colleges   Schools  
                                      Undergraduate Catalog  
                                      Graduate Catalog  
                                      Honors Program  
								      UofM Global  
                                  
                               
                                Admissions    
                                  
                                      Admissions Information  
                                      Undergraduate Students  
                                      Graduate Students  
                                      Law Students  
                                      International Students  
                                  
                               
                                Athletics    
                                  
                                      Tiger Athletics  
                                      Ticket Information  
                                      Intramurals  
                                      Make A Gift  
                                      Rec Center  
                                      gotigersgo.com  
                                  
                               
                                Research    
                                  
                                      Research   Sponsored Programs  
                                      Research Resources  
                                      Centers/Chairs of Excellence  

                                      Centers and Institutes  
									  FedEx Institute of Technology  
                                      electronic Research Administration (eRA)  
									  Office of Institutional Research  
                                  
                               
                                Support UofM    
                                  
                                      Development  
                                      Make a Gift  
                                      Alumni Association  
                                      Athletics Development  
                                  
                               
                                Libraries    
                                  
                                      University Libraries  
                                      Libraries Resources  
                                      Libraries Services  
                                      Special Collections  
                                      Ask a Librarian  
                                  
                               
                            
                         
                      
                   
                
             
             
                
                   
                      Resources for... 
                      
                          Prospective Students  
                          Current and Returning Students  
                          Parents  
                          Alumni  
                          Veterans  
                      
                       Expand Menu  
                   
				   			   
                
             
          
       
    
          
      
          
    
       
          
             
                
                   
                       
                           			Cecil C. Humphreys School of Law
                           	 
                           
                   
                
             
          
       
       
          
             
                
                   
                      
                          About  
                          Admissions  
                          Programs  
                          Current Students  
                          Faculty  
                          Careers  
                          Library  
                      
                      
                         
                            Programs   
                            
                               
                                  
                                   Degree Programs  
                                         JD  
                                         JD/MBA  
                                         JD/MA in Pol. Science  
                                         JD/MPH  
                                         MPH Fast-Track  
                                         Part-time Program  
                                     
                                  
                                   Certificate Programs  
                                         Advocacy  
                                         Business Law  
                                         Health Law  
                                         Tax Law  
                                     
                                  
                                   Experiential Learning  
                                         Experiential Learning Home  
                                         Legal Clinics  
                                         Externship Program  
                                     
                                  
                                   Law Review  
                                         Law Review Home  
                                         Editorial Board  
                                         Editor-in-Chief  
                                         Joining Law Review  
                                         Virtual Tour of Law Review Suite  
                                         Symposium  
                                         Subscriptions  
                                         Archives  
                                         Current Volume  
                                         Connect with Us  
                                     
                                  
                                   Advocacy Program  
                                         Moot Court Board  
                                         Joining Moot Court Board  
                                         In-School Competitions  
                                         Travel Team Competitions  
                                         Past Champions  
                                     
                                  
                                   Inst. for Health Law   Policy  
                                         Institute Home   
                                         Advisory Committee  
                                         Symposium  
                                         Pro Bono Opportunities  
                                         Health Law Certificate  
                                         Health Law Society  
                                         MBA Health Law Section  
                                     
                                  
                                   International Law Programs  
                               
                            
                         
                      
                   
                
             
          
          
             
                
                   
                      
                          Home  
                          
                              	School of Law 
                              	  
                          
                              	Programs
                              	  
                         Law Review Submissions  
                      
                   
                   
                       
                      
                     
                     		
                     
                     
                      LAW REVIEW SUBMISSIONS 
                     
                      The University of Memphis Law Review invites unsolicited manuscripts from members
                        of legal academia, judges, and legal practitioners. We accept submissions in the form
                        of articles, essays, and symposium proposals. Book reviews are also accepted on rare
                        occasion. The University of Memphis Law Review reviews submissions on a rolling basis.
                        Submitted works are generally read and reviewed by three members of the Editorial
                        Staff. Please note that we do not accept student works at this time.
                      
                     
                      We respectfully request that contributors adhere to the following standards: 
                     
                      Electronic Submission: 
                     
                      We strongly encourage contributors to submit their manuscripts through Expresso, preferably
                        in Microsoft Word format. Articles may also be submitted exclusively to The University
                        of Memphis Law Review via email:  lawreview_articleseditor@memphis.edu  
                     
                      Alternatively, for hard copy submission, please address all manuscripts to: Senior Articles Editor The University of Memphis Law Review Cecil C. Humphreys School of Law 1 North Front Street Memphis, Tennessee 38111
                      
                     
                      Article Specifications: 
                     
                      Please adhere to the specifications regarding article format: 
                     
                      
                        
                         Format: Microsoft Word (preferred) 
                        
                         Text: Double-Spaced 
                        
                         Footnotes: Single-spaced at the bottom of each page; double-spaced between footnotes;
                           one tab between footnote number and footnote text.
                         
                        
                         Font: Times New Roman; 12 pt. (including footnotes) 
                        
                         Headings: Use traditional outline headings; I,A,1,(a),(1). 
                        
                      
                     
                      Citations: 
                     
                      The University of Memphis Law Review conforms to the formatting and notation provisions
                        set for in THE BLUEBOOK: A UNIFORM SYSTEM OF CITATION (20th ed. 2015) and the style
                        provisions of THE CHICAGO MANUAL OF STYLE (16th ed. 2010).
                      
                     
                      Expedited Review Requests: 
                     
                      Requests for expedite review should be emailed to the Senior Articles Editor at  memphislawarticles@gmail.com . An expedite request should include: author name, e-mail address, and telephone number,
                        the name of the journal(s) offering publication and the expiration date(s) of the
                        offer(s).
                      
                     
                      Please note that our journal receives and reviews thousands of submissions each year.
                        Accordingly, while every submission is given an equitable initial review, our staff
                        members are unable to personally respond to each submission. We place high importance
                        on our authors and appreciate your interest in The University of Memphis Law Review.
                      
                     
                     
                     	
                      
                   
                
                
                   
                      
                         Programs 
                         
                            
                               
                                Degree Programs  
                                      JD  
                                      JD/MBA  
                                      JD/MA in Pol. Science  
                                      JD/MPH  
                                      MPH Fast-Track  
                                      Part-time Program  
                                  
                               
                                Certificate Programs  
                                      Advocacy  
                                      Business Law  
                                      Health Law  
                                      Tax Law  
                                  
                               
                                Experiential Learning  
                                      Experiential Learning Home  
                                      Legal Clinics  
                                      Externship Program  
                                  
                               
                                Law Review  
                                      Law Review Home  
                                      Editorial Board  
                                      Editor-in-Chief  
                                      Joining Law Review  
                                      Virtual Tour of Law Review Suite  
                                      Symposium  
                                      Subscriptions  
                                      Archives  
                                      Current Volume  
                                      Connect with Us  
                                  
                               
                                Advocacy Program  
                                      Moot Court Board  
                                      Joining Moot Court Board  
                                      In-School Competitions  
                                      Travel Team Competitions  
                                      Past Champions  
                                  
                               
                                Inst. for Health Law   Policy  
                                      Institute Home   
                                      Advisory Committee  
                                      Symposium  
                                      Pro Bono Opportunities  
                                      Health Law Certificate  
                                      Health Law Society  
                                      MBA Health Law Section  
                                  
                               
                                International Law Programs  
                            
                         
                      
                      
                      
                         
                            
                                Apply to Memphis Law  
                                
                            
                            
                                News   Events  
                                
                            
                            
                                Alumni   Support  
                                
                            
                            
                                ABA Required Disclosures  
                                
                            
                         
                      
                      
                      
                   
                   
                
                
             
             
          
          
       
    
    
    
      
      
       
 
    
       
          
             
                 Full sitemap   
             
             
                
                   
                      Admissions 
                      
                         
                             Prospective Students  
                             Undergraduate  
                             Graduate  
                             Law School  
                             International  
                             Parents  
                             Scholarship   Financial Aid  
                             Tuition   Fee Payment  
                             FAQs  
                             About UofM  
                         
                      
                   
                   
                      Academics 
                      
                         
                             Provost's Office  
                             Libraries  
                             Transcripts  
                             Undergraduate Catalog  
                             Graduate Catalog  
                             Academic Calendars  
                             Course Schedule  
                             Financial Aid  
                             Graduation  
                             Honors Program  
						     eCourseware  
                         
                      
                   
                   
                      Athletics 
                      
                         
                             Gotigersgo.com  
                             Ticket Information  
                             Intramural Sports  
                             Recreation Center  
                             Athletic Academic Support  
                             Former Tigers  
                             Facilities  
                             Tiger Scholarship Fund  
                             Media  
                         
                      
                   
				    
                   
                      Research 
                      
                         
                             Sponsored Programs  
                             Research Resources  
                             Centers   Institutes  
                             Chairs of Excellence  
                             FedEx Institute of Technology  
                             Libraries  
                             Grants Accounting  
                             Environmental Health  
                             Office of Institutional Research  
                         
                      
                   
                   
                      Support UofM 
                      
                         
                             Make a Gift  
                             Alumni Association  
                             Year of Service  
                         
                      
                   
                   
                      Administrative Support 
                      
                         
                             President's Office  
                             Academic Affairs  
                             Business   Finance  
                             Career Opportunities  
                             Conference   Event Services  
                             Corporate Partnerships  
  Development Office  
                             Government Relations  
                             Information Technology Services  
                             Media and Marketing  
                             Student Affairs  
                         
                      
                   
                
             
          
          
             
				    
                  
                
             
             
                   
                  
                
             
             
                
                   Follow UofM Online 
                     UofM Facebook     UofM Twitter     UofM YouTube   
                    
                   
                     UofM Instagram     UofM Pinterest     UofM LinkedIn   
                
             
              
                   
                      
                   
                
      
          
       
    
 
 
      
      
      
       
          
             
                
                   
                      
                         
                            
                               
                                 
                                 
                                  
  Print  
  Got a Question? Ask TOM  
  Copyright © 2017 University of Memphis  
  Important Notice  
                                  
                                 
                                 
                                  
                                     Last Updated: 11/6/17 
                                  
                                 
                                 
                                  
  University of Memphis  
 Memphis, TN 38152 
 Phone: 901.678.2000 
 
  
 The University of Memphis does not discriminate against students, employees, or applicants for admission or employment on the basis of race, color, religion, creed, national origin, sex, sexual orientation, gender identity/expression, disability, age, status as a protected veteran, genetic information, or any other legally protected class with respect to all employment, programs and activities sponsored by the University of Memphis. The Office for Institutional Equity has been designated to handle inquiries regarding non-discrimination policies. For more information, visit  University of Memphis Equal Opportunity and Affirmative Action .  
Title IX of the Education Amendments of 1972 protects people from discrimination based on sex in education programs or activities which receive Federal financial assistance. Title IX states: "No person in the United States shall, on the basis of sex, be excluded from participation in, be denied the benefits of, or be subjected to discrimination under any education program or activity receiving Federal financial assistance..." 20 U.S.C. § 1681 - To Learn More, visit  Title IX and Sexual Misconduct .
 
 
                                 
                                 
                                 
                               
                            
                         
                      
                   
                
             
          
       
    
   
   
   
   
   
   
 



 


