Undergraduate Success in Cyber Security Research - Computer Science - University of Memphis    










 
 
 
     



 
    
    
    Undergraduate Success in Cyber Security Research - 
      	Computer Science
      	 - University of Memphis
    
    
    
    
    
    
    
    
    
    
    
    
    
    
    
    
    
    
    
    
    
    
    
    
    
   
   
   






   
   
   
    
    
    
    
    
    
    
    
    
    
    
 
 
   
   
   
   
 
    
   
   
    
      
      
          
     
    
       
          
             
                
				    
					     
                   
      
                
                
                    
                
                
                   
                      
                         
                            
                               
                                   Lambuth Campus  
                                   myMemphis  
                                   Webmail  
                                   Faculty   Staff  
                                   Contact  
                                   Directories  
                               
                            
                            
                               Search 
                               
							   
							      
						 Site Index 
                            
                             
                         
                      
                   
                   
                      
                         
                            
                                Academics    
                                  
                                      Academics Overview  
                                      Colleges   Schools  
                                      Undergraduate Catalog  
                                      Graduate Catalog  
                                      Honors Program  
								      UofM Global  
                                  
                               
                                Admissions    
                                  
                                      Admissions Information  
                                      Undergraduate Students  
                                      Graduate Students  
                                      Law Students  
                                      International Students  
                                  
                               
                                Athletics    
                                  
                                      Tiger Athletics  
                                      Ticket Information  
                                      Intramurals  
                                      Make A Gift  
                                      Rec Center  
                                      gotigersgo.com  
                                  
                               
                                Research    
                                  
                                      Research   Sponsored Programs  
                                      Research Resources  
                                      Centers/Chairs of Excellence  

                                      Centers and Institutes  
									  FedEx Institute of Technology  
                                      electronic Research Administration (eRA)  
									  Office of Institutional Research  
                                  
                               
                                Support UofM    
                                  
                                      Development  
                                      Make a Gift  
                                      Alumni Association  
                                      Athletics Development  
                                  
                               
                                Libraries    
                                  
                                      University Libraries  
                                      Libraries Resources  
                                      Libraries Services  
                                      Special Collections  
                                      Ask a Librarian  
                                  
                               
                            
                         
                      
                   
                
             
             
                
                   
                      Resources for... 
                      
                          Prospective Students  
                          Current and Returning Students  
                          Parents  
                          Alumni  
                          Veterans  
                      
                       Expand Menu  
                   
				   			   
                
             
          
       
    
          
      
          
    
       
          
             
                
                   
                       
                           			Department of Computer Science
                           	 
                          
                   
                
             
          
       
       
          
             
                
                   
                      
                          About  
                          News  
                          Future Students  
                          Current Students  
                          Research  
                          People  
                          Outreach  
                      
                      
                         
                            News   Events   
                            
                               
                                  
                                   Department News  
                                   Upcoming Events  
                                   Colloquium  
                                   Undergraduate Colloquium  
                                   Newsletters  
                               
                            
                         
                      
                   
                
             
          
          
             
                
                   
                      
                          Home  
                          
                              	Computer Science
                              	  
                          
                              	News   Events
                              	  
                         Undergraduate Success in Cyber Security Research 
                      
                   
                   
                       
                      
                     
                     		
                     
                     
                      Undergraduate Student Success in Cyber Security Research 
                     
                      Posted on 2016-03-29 
                     
                      The  Center for Information Assurance (CfIA)  at the University of Memphis, under the leadership of  Prof. Dipankar Dasgupta , is at the forefront of cyber security research, education, and outreach in the state
                        of Tennessee and the Mid-South region.
                      
                     
                      Among its various research projects and initiatives, the CfIA has established a successful
                        student-centered research environment involving both undergraduate and graduate students.
                        Most remarkably, this initiative has allowed for the interaction and collaboration
                        of students across different disciplines. Undergraduate students from the Engineering,
                        Communications, Business, and History departments, in addition to those from within
                        the Computer Science department, have been working side-by-side with Ph.D. students
                        and faculty. These students are involved in a number of diverse projects, including
                        cutting-edge research in authentication for educational game-based puzzle exercises
                        and research-driven training material for cybersecurity outreach activities.
                      
                     
                        
                     
                      
                        
                         (In order from left to right: Mathew Jackowski from Rhodes College, Berkeley Willis, Aaron
                           Marshall, Dr. Dasgupta, McKittrick Swindle, Robert Edstrom, Rachel Brandon)
                         
                        
                      
                     
                      Dr. Dasgupta not only leads the students on this road towards breakthroughs in academic
                        research, but also challenges them to advance their grasp on the cyber security discipline,
                        to which they so passionately dedicate themselves. Among several achievements, it
                        is worth mentioning that two graduate students (Kul Subedi and Sujit Shrestha) and
                        two undergraduate students (Robert Edstrom and Nick Gordon) won 2nd place in the prestigious
                         CANSec Cyber Defense Competition  in Little Rock, Arkansas on October 24th, 2015. This team also participated and performed
                        exceptionally well in the  CyberSEED  national cyber security competition held at the University of Connecticut on October
                        29th, 2015.
                      
                     
                      Such research and outreach activities at the center are attracting more bright minds
                        than ever before to the University of Memphis. For several years now, students who
                        acquired research experience while working at the center have been offered high-valued
                        positions and are in great demand in the job market. With its successful goal-oriented
                        structure, the Center for Information Assurance truly embodies the University of Memphis'
                        slogan of "Driven by Doing," making a difference in ways beyond comparison.
                      
                     
                     
                     	
                      
                   
                
                
                   
                      
                         News   Events 
                         
                            
                               
                                Department News  
                                Upcoming Events  
                                Colloquium  
                                Undergraduate Colloquium  
                                Newsletters  
                            
                         
                      
                      
                      
                         
                            
                                Career Opportunities  
                               Internship information and job postings for students 
                            
                            
                                Degree Programs  
                               Information on our degree and certificate programs 
                            
                            
                                Courses  
                               Recent syllabi for our courses 
                            
                            
                                Contact Us  
                               Whom to contact about what 
                            
                         
                      
                      
                      
                   
                   
                
                
             
             
          
          
       
    
    
    
      
      
       
 
    
       
          
             
                 Full sitemap   
             
             
                
                   
                      Admissions 
                      
                         
                             Prospective Students  
                             Undergraduate  
                             Graduate  
                             Law School  
                             International  
                             Parents  
                             Scholarship   Financial Aid  
                             Tuition   Fee Payment  
                             FAQs  
                             About UofM  
                         
                      
                   
                   
                      Academics 
                      
                         
                             Provost's Office  
                             Libraries  
                             Transcripts  
                             Undergraduate Catalog  
                             Graduate Catalog  
                             Academic Calendars  
                             Course Schedule  
                             Financial Aid  
                             Graduation  
                             Honors Program  
						     eCourseware  
                         
                      
                   
                   
                      Athletics 
                      
                         
                             Gotigersgo.com  
                             Ticket Information  
                             Intramural Sports  
                             Recreation Center  
                             Athletic Academic Support  
                             Former Tigers  
                             Facilities  
                             Tiger Scholarship Fund  
                             Media  
                         
                      
                   
				    
                   
                      Research 
                      
                         
                             Sponsored Programs  
                             Research Resources  
                             Centers   Institutes  
                             Chairs of Excellence  
                             FedEx Institute of Technology  
                             Libraries  
                             Grants Accounting  
                             Environmental Health  
                             Office of Institutional Research  
                         
                      
                   
                   
                      Support UofM 
                      
                         
                             Make a Gift  
                             Alumni Association  
                             Year of Service  
                         
                      
                   
                   
                      Administrative Support 
                      
                         
                             President's Office  
                             Academic Affairs  
                             Business   Finance  
                             Career Opportunities  
                             Conference   Event Services  
                             Corporate Partnerships  
  Development Office  
                             Government Relations  
                             Information Technology Services  
                             Media and Marketing  
                             Student Affairs  
                         
                      
                   
                
             
          
          
             
				    
                  
                
             
             
                   
                  
                
             
             
                
                   Follow UofM Online 
                     UofM Facebook     UofM Twitter     UofM YouTube   
                    
                   
                     UofM Instagram     UofM Pinterest     UofM LinkedIn   
                
             
              
                   
                      
                   
                
      
          
       
    
 
 
      
      
      
       
          
             
                
                   
                      
                         
                            
                               
                                 
                                 
                                  
  Print  
  Got a Question? Ask TOM  
  Copyright © 2017 University of Memphis  
  Important Notice  
                                  
                                 
                                 
                                  
                                     Last Updated: 11/21/17 
                                  
                                 
                                 
                                  
  University of Memphis  
 Memphis, TN 38152 
 Phone: 901.678.2000 
 
  
 The University of Memphis does not discriminate against students, employees, or applicants for admission or employment on the basis of race, color, religion, creed, national origin, sex, sexual orientation, gender identity/expression, disability, age, status as a protected veteran, genetic information, or any other legally protected class with respect to all employment, programs and activities sponsored by the University of Memphis. The Office for Institutional Equity has been designated to handle inquiries regarding non-discrimination policies. For more information, visit  University of Memphis Equal Opportunity and Affirmative Action .  
Title IX of the Education Amendments of 1972 protects people from discrimination based on sex in education programs or activities which receive Federal financial assistance. Title IX states: "No person in the United States shall, on the basis of sex, be excluded from participation in, be denied the benefits of, or be subjected to discrimination under any education program or activity receiving Federal financial assistance..." 20 U.S.C. § 1681 - To Learn More, visit  Title IX and Sexual Misconduct .
 
 
                                 
                                 
                                 
                               
                            
                         
                      
                   
                
             
          
       
    
   
   
   
   
   
   
 



 


