 Graduate Programs - Communication - University of Memphis    










 
 
 
     



 
    
    
     Graduate Programs - 
      	Communication
      	 - University of Memphis
    
    
    
    
    
    
    
    
    
    
    
    
    
    
    
    
    
    
    
    
    
    
    
    
    
   
   
   






   
   
   
    
    
 
 
   
   
   
   
 
    
   
   
    
      
      
          
     
    
       
          
             
                
				    
					     
                   
      
                
                
                    
                
                
                   
                      
                         
                            
                               
                                   Lambuth Campus  
                                   myMemphis  
                                   Webmail  
                                   Faculty   Staff  
                                   Contact  
                                   Directories  
                               
                            
                            
                               Search 
                               
							   
							      
						 Site Index 
                            
                             
                         
                      
                   
                   
                      
                         
                            
                                Academics    
                                  
                                      Academics Overview  
                                      Colleges   Schools  
                                      Undergraduate Catalog  
                                      Graduate Catalog  
                                      Honors Program  
								      UofM Global  
                                  
                               
                                Admissions    
                                  
                                      Admissions Information  
                                      Undergraduate Students  
                                      Graduate Students  
                                      Law Students  
                                      International Students  
                                  
                               
                                Athletics    
                                  
                                      Tiger Athletics  
                                      Ticket Information  
                                      Intramurals  
                                      Make A Gift  
                                      Rec Center  
                                      gotigersgo.com  
                                  
                               
                                Research    
                                  
                                      Research   Sponsored Programs  
                                      Research Resources  
                                      Centers/Chairs of Excellence  

                                      Centers and Institutes  
									  FedEx Institute of Technology  
                                      electronic Research Administration (eRA)  
									  Office of Institutional Research  
                                  
                               
                                Support UofM    
                                  
                                      Development  
                                      Make a Gift  
                                      Alumni Association  
                                      Athletics Development  
                                  
                               
                                Libraries    
                                  
                                      University Libraries  
                                      Libraries Resources  
                                      Libraries Services  
                                      Special Collections  
                                      Ask a Librarian  
                                  
                               
                            
                         
                      
                   
                
             
             
                
                   
                      Resources for... 
                      
                          Prospective Students  
                          Current and Returning Students  
                          Parents  
                          Alumni  
                          Veterans  
                      
                       Expand Menu  
                   
				   			   
                
             
          
       
    
          
      
          
    
       
          
             
                
                   
                       
                           			Department of Communication
                           	 
                          
                   
                
             
          
       
       
          
             
                
                   
                      
                          About  
                          Graduate  
                          Undergraduate  
                          Faculty/Staff  
                          Alumni  
                          Events  
                      
                      
                         
                            Graduate   
                            
                               
                                  
                                   Graduate Students  
                                   Admissions  
                                   Specialty Areas  
                                   PhD Program  
                                   MA Program  
                                         Overview  
                                         Film   Video Production  
                                         Communication Studies  
                                     
                                  
                                   Course Offerings  
                                   Assistantships   Awards  
                                   Facilities   Equipment  
                                   Living in Memphis  
                                   Policies   Documents  
                                   FAQS  
                               
                            
                         
                      
                   
                
             
          
          
             
                
                   
                      
                          Home  
                          
                              	Communication
                              	  
                         
                           	Graduate
                           	
                         
                      
                   
                   
                       
                      
                     
                     		
                     
                     
                        
                     
                      COMM Graduate Studies at the UofM 
                     
                      Doctoral and master's students choose the UofM because they are drawn to the strength
                        of our faculty, the eclectic, easy-going character of our city, and the flexibility
                        of our programs. UofM affords students a richly varied cohort with peers who mirror
                        the region's diversity.
                      
                     
                      With a streamlined curriculum geared to give students multiple pathways to graduation,
                        we specialize in key research areas, while training Doctoral and Master's students
                        in the scholarly, pedagogical, and creative traditions central to the general study
                        of communication. The program values interdisciplinary forms of inquiry, and our degree
                        design lets students complement their studies in the field with courses from across
                        the University's graduate curriculum.
                      
                     
                      Students enjoy access to first-rate facilities, conference travel support, cash awards
                        for excellence, and can receive renewable graduate assistantships that cover both
                        tuition and living expenses.
                      
                     
                      The best way to learn about us is to review our website and then email our Director
                        of Graduate Studie,  Dr. Tony de Velasco , to arrange a phone call, video chat, or campus visit.
                      
                     
                     
                     	
                      
                   
                
                
                   
                      
                         Graduate 
                         
                            
                               
                                Graduate Students  
                                Admissions  
                                Specialty Areas  
                                PhD Program  
                                MA Program  
                                      Overview  
                                      Film   Video Production  
                                      Communication Studies  
                                  
                               
                                Course Offerings  
                                Assistantships   Awards  
                                Facilities   Equipment  
                                Living in Memphis  
                                Policies   Documents  
                                FAQS  
                            
                         
                      
                      
                      
                         
                            
                                Student Film Showcase  
                               See sample films produced by BA and MA Film Students. 
                            
                            
                                Get Started in the COMM Major  
                               Declare your major and find your advisor. 
                            
                            
                                Apply to COMM Graduate Programs  
                               Programs in Film   Video Production and Communication. 
                            
                            
                                Contact Us  
                                
                            
                         
                      
                      
                      
                   
                   
                
                
             
             
          
          
       
    
    
    
      
      
       
 
    
       
          
             
                 Full sitemap   
             
             
                
                   
                      Admissions 
                      
                         
                             Prospective Students  
                             Undergraduate  
                             Graduate  
                             Law School  
                             International  
                             Parents  
                             Scholarship   Financial Aid  
                             Tuition   Fee Payment  
                             FAQs  
                             About UofM  
                         
                      
                   
                   
                      Academics 
                      
                         
                             Provost's Office  
                             Libraries  
                             Transcripts  
                             Undergraduate Catalog  
                             Graduate Catalog  
                             Academic Calendars  
                             Course Schedule  
                             Financial Aid  
                             Graduation  
                             Honors Program  
						     eCourseware  
                         
                      
                   
                   
                      Athletics 
                      
                         
                             Gotigersgo.com  
                             Ticket Information  
                             Intramural Sports  
                             Recreation Center  
                             Athletic Academic Support  
                             Former Tigers  
                             Facilities  
                             Tiger Scholarship Fund  
                             Media  
                         
                      
                   
				    
                   
                      Research 
                      
                         
                             Sponsored Programs  
                             Research Resources  
                             Centers   Institutes  
                             Chairs of Excellence  
                             FedEx Institute of Technology  
                             Libraries  
                             Grants Accounting  
                             Environmental Health  
                             Office of Institutional Research  
                         
                      
                   
                   
                      Support UofM 
                      
                         
                             Make a Gift  
                             Alumni Association  
                             Year of Service  
                         
                      
                   
                   
                      Administrative Support 
                      
                         
                             President's Office  
                             Academic Affairs  
                             Business   Finance  
                             Career Opportunities  
                             Conference   Event Services  
                             Corporate Partnerships  
  Development Office  
                             Government Relations  
                             Information Technology Services  
                             Media and Marketing  
                             Student Affairs  
                         
                      
                   
                
             
          
          
             
				    
                  
                
             
             
                   
                  
                
             
             
                
                   Follow UofM Online 
                     UofM Facebook     UofM Twitter     UofM YouTube   
                    
                   
                     UofM Instagram     UofM Pinterest     UofM LinkedIn   
                
             
              
                   
                      
                   
                
      
          
       
    
 
 
      
      
      
       
          
             
                
                   
                      
                         
                            
                               
                                 
                                 
                                  
  Print  
  Got a Question? Ask TOM  
  Copyright © 2017 University of Memphis  
  Important Notice  
                                  
                                 
                                 
                                  
                                     Last Updated: 11/14/17 
                                  
                                 
                                 
                                  
  University of Memphis  
 Memphis, TN 38152 
 Phone: 901.678.2000 
 
  
 The University of Memphis does not discriminate against students, employees, or applicants for admission or employment on the basis of race, color, religion, creed, national origin, sex, sexual orientation, gender identity/expression, disability, age, status as a protected veteran, genetic information, or any other legally protected class with respect to all employment, programs and activities sponsored by the University of Memphis. The Office for Institutional Equity has been designated to handle inquiries regarding non-discrimination policies. For more information, visit  University of Memphis Equal Opportunity and Affirmative Action .  
Title IX of the Education Amendments of 1972 protects people from discrimination based on sex in education programs or activities which receive Federal financial assistance. Title IX states: "No person in the United States shall, on the basis of sex, be excluded from participation in, be denied the benefits of, or be subjected to discrimination under any education program or activity receiving Federal financial assistance..." 20 U.S.C. § 1681 - To Learn More, visit  Title IX and Sexual Misconduct .
 
 
                                 
                                 
                                 
                               
                            
                         
                      
                   
                
             
          
       
    
   
   
   
   
   
   
 



 


