Hsiang-te Kung - Earth Sciences - University of Memphis    










 
 
 
     



 
    
    
    Hsiang-te Kung - 
      	Earth Sciences
      	 - University of Memphis
    
    
    
    
    
    
    
    
    
    
    
    
    
    
    
    
    
    
    
    
    
    
    
    
    
   
   
   






   
   
   
    
    
 
 
   
   
   
   
 
    
   
   
    
      
      
          
     
    
       
          
             
                
				    
					     
                   
      
                
                
                    
                
                
                   
                      
                         
                            
                               
                                   Lambuth Campus  
                                   myMemphis  
                                   Webmail  
                                   Faculty   Staff  
                                   Contact  
                                   Directories  
                               
                            
                            
                               Search 
                               
							   
							      
						 Site Index 
                            
                             
                         
                      
                   
                   
                      
                         
                            
                                Academics    
                                  
                                      Academics Overview  
                                      Colleges   Schools  
                                      Undergraduate Catalog  
                                      Graduate Catalog  
                                      Honors Program  
								      UofM Global  
                                  
                               
                                Admissions    
                                  
                                      Admissions Information  
                                      Undergraduate Students  
                                      Graduate Students  
                                      Law Students  
                                      International Students  
                                  
                               
                                Athletics    
                                  
                                      Tiger Athletics  
                                      Ticket Information  
                                      Intramurals  
                                      Make A Gift  
                                      Rec Center  
                                      gotigersgo.com  
                                  
                               
                                Research    
                                  
                                      Research   Sponsored Programs  
                                      Research Resources  
                                      Centers/Chairs of Excellence  

                                      Centers and Institutes  
									  FedEx Institute of Technology  
                                      electronic Research Administration (eRA)  
									  Office of Institutional Research  
                                  
                               
                                Support UofM    
                                  
                                      Development  
                                      Make a Gift  
                                      Alumni Association  
                                      Athletics Development  
                                  
                               
                                Libraries    
                                  
                                      University Libraries  
                                      Libraries Resources  
                                      Libraries Services  
                                      Special Collections  
                                      Ask a Librarian  
                                  
                               
                            
                         
                      
                   
                
             
             
                
                   
                      Resources for... 
                      
                          Prospective Students  
                          Current and Returning Students  
                          Parents  
                          Alumni  
                          Veterans  
                      
                       Expand Menu  
                   
				   			   
                
             
          
       
    
          
      
          
    
       
          
             
                
                   
                       
                           			Department of Earth Sciences
                           	 
                           
                   
                
             
          
       
       
          
             
                
                   
                      
                          About  
                          Programs  
                          Faculty  
                          Research  
                          Student Resources  
                      
                   
                
             
          
          
             
                
                   
                      
                          Home  
                          
                              	Earth Sciences
                              	  
                          
                              	Faculty
                              	  
                         Hsiang-te Kung 
                      
                   
                   
                       
                      
                     
                     	
                     
                     		  
                      
                        
                        
                         
                           
                           
                                                                
                              
                              
                               
                              
                              
                            
                           
                           
                            
                              
                               
                                 
                                 Dr. Hsiang-te Kung
                                 
                               
                              
                              
                               
                                 
                                 Professor of Geography, Director of Confucius Institute at the UofM (CIUM)
                                 
                               
                              
                              
                               
                                 
                                  
                                    
                                     Phone 
                                    
                                     
                                       
                                       (901) 678-4538
                                       
                                     
                                    
                                  
                                 
                                  
                                    
                                     Email 
                                    
                                     
                                       
                                       hkung@memphis.edu
                                       
                                     
                                    
                                  
                                 
                                  
                                    
                                     Fax 
                                    
                                     
                                       
                                       (901) 678-0859
                                       
                                     
                                    
                                  
                                 
                               
                              
                              
                               
                                 
                                  
                                    
                                     Office 
                                    
                                     
                                       
                                       Jones Hall 226, Memphis, TN  38152
                                       
                                     
                                    
                                  
                                 
                                  
                                    
                                     Office Hours 
                                    
                                     
                                       
                                       Call for Hours
                                       
                                     
                                    
                                  
                                 
                               
                              
                              
                               
                                 										
                                 
                                 
                                   Website  
                                                                         
                                 
                               
                              
                            
                           
                           
                         
                        			 
                        			  
                        
                        
                         Dr. Kung is a 75th-generation descendant of Confucius 
                        
                         Director of  ASIT 
                        
                          (Asian Studies and International Trade BLA Program)  
                        
                         Office: JN226/11th Floor Wilder Tower 
                        
                          Education/Degrees: 
                        
                         BA, University of Chinese Culture, Taipei, Taiwan, 1968    (Earth Science) 
                        
                         MS, University of Tennessee, Knoxville, Tennessee , 1972  (Geography and Geology) 
                        
                         PhD,University of Tennessee, Knoxville, Tennessee , 1980  (Geography and Geology) 
                        
                           
                        
                         Research Interests: 
                        
                         Water Resources Urban Hydrology 
                        
                         Urban Physical Environment Land-Surface System Soil Erosion 
                        
                         Fluvial Geomorphology Landform and Terrain Analysis Aerial Photo Interpretation 
                        
                         Asia - China Geographic Information System 
                        
                           
                        
                         Professional Positions: 
                        
                         Fall, 2001 – present Professor, Department of Earth Sciences 
                        
                         Fall, 1993 – 2001     Professor and Chairman, Department of Geography and Planning,    
                           The University of Memphis, Memphis,Tennessee 38152
                         
                        
                         Fall, 1992 – 1993     Professor and Chairman, Department of Geography and Planning, 
                           Memphis State University, Memphis,Tennessee 38152
                         
                        
                         Fall, 1999               Visiting Professor at the University of Pittsburgh, Institute
                           of Shipboard Education, Semester at Sea (SAS).
                         
                        
                         Spring, 1991           Visiting Professor at East China Normal University, Shanghai,
                           and Huazhong Normal University, Wuhan, China(Professional Development Assignment)
                         
                        
                         1987 - 1992            Associate Professor of Geography and Planning, Memphis State
                           University, Memphis, Tennessee.
                         
                        
                         Summer, 1986        Lecturer of Geography Department, East China Normal University,
                           Shanghai, China.
                         
                        
                         Summer, 1985        Invited Panel and Discussant for National Development Seminar,
                           Sponsored by the Ministry of Executive,Republic of China, 1985.
                         
                        
                         1983 - 1987            Assistant Professor of Geography and Planning, Memphis State
                           University, Memphis, Tennessee 38152
                         
                        
                         1986                      Tenure granted by the University 
                        
                         1981 - 1983            Assistant Professor of Geography Department, Memphis State
                           University, Memphis, Tennessee 38152
                         
                        
                         1974 - 1981            Environmental Planner, Knoxville/Knox County  Metropolitan
                           Planning Commission, Knoxville, Tennessee  37901
                         
                        
                         Please click here for Curriculum Vita 
                        
                        
                      
                     								
                     
                     
                     
                     
                     	
                      
                   
                
                
                   
                      
                      
                         
                            
                                Apply Now!  
                               Interested in a degree in Earth Sciences? Find out how to apply 
                            
                            
                                News and Colloquium  
                               Learn about faculty and student research, how to join Earth Sciences Club, see the
                                 department colloquium schedule, and more...
                               
                            
                            
                                Field Activities  
                               Find out about admissions, prerequisites, location and more 
                            
                            
                                Contact Us  
                               Main office location and numbers, undergraduate and graduate advising 
                            
                         
                      
                      
                      
                   
                   
                
                
             
             
          
          
       
    
    
    
      
      
       
 
    
       
          
             
                 Full sitemap   
             
             
                
                   
                      Admissions 
                      
                         
                             Prospective Students  
                             Undergraduate  
                             Graduate  
                             Law School  
                             International  
                             Parents  
                             Scholarship   Financial Aid  
                             Tuition   Fee Payment  
                             FAQs  
                             About UofM  
                         
                      
                   
                   
                      Academics 
                      
                         
                             Provost's Office  
                             Libraries  
                             Transcripts  
                             Undergraduate Catalog  
                             Graduate Catalog  
                             Academic Calendars  
                             Course Schedule  
                             Financial Aid  
                             Graduation  
                             Honors Program  
						     eCourseware  
                         
                      
                   
                   
                      Athletics 
                      
                         
                             Gotigersgo.com  
                             Ticket Information  
                             Intramural Sports  
                             Recreation Center  
                             Athletic Academic Support  
                             Former Tigers  
                             Facilities  
                             Tiger Scholarship Fund  
                             Media  
                         
                      
                   
				    
                   
                      Research 
                      
                         
                             Sponsored Programs  
                             Research Resources  
                             Centers   Institutes  
                             Chairs of Excellence  
                             FedEx Institute of Technology  
                             Libraries  
                             Grants Accounting  
                             Environmental Health  
                             Office of Institutional Research  
                         
                      
                   
                   
                      Support UofM 
                      
                         
                             Make a Gift  
                             Alumni Association  
                             Year of Service  
                         
                      
                   
                   
                      Administrative Support 
                      
                         
                             President's Office  
                             Academic Affairs  
                             Business   Finance  
                             Career Opportunities  
                             Conference   Event Services  
                             Corporate Partnerships  
  Development Office  
                             Government Relations  
                             Information Technology Services  
                             Media and Marketing  
                             Student Affairs  
                         
                      
                   
                
             
          
          
             
				    
                  
                
             
             
                   
                  
                
             
             
                
                   Follow UofM Online 
                     UofM Facebook     UofM Twitter     UofM YouTube   
                    
                   
                     UofM Instagram     UofM Pinterest     UofM LinkedIn   
                
             
              
                   
                      
                   
                
      
          
       
    
 
 
      
      
      
       
          
             
                
                   
                      
                         
                            
                               
                                 
                                 
                                  
  Print  
  Got a Question? Ask TOM  
  Copyright © 2017 University of Memphis  
  Important Notice  
                                  
                                 
                                 
                                  
                                     Last Updated: 12/11/17 
                                  
                                 
                                 
                                  
  University of Memphis  
 Memphis, TN 38152 
 Phone: 901.678.2000 
 
  
 The University of Memphis does not discriminate against students, employees, or applicants for admission or employment on the basis of race, color, religion, creed, national origin, sex, sexual orientation, gender identity/expression, disability, age, status as a protected veteran, genetic information, or any other legally protected class with respect to all employment, programs and activities sponsored by the University of Memphis. The Office for Institutional Equity has been designated to handle inquiries regarding non-discrimination policies. For more information, visit  University of Memphis Equal Opportunity and Affirmative Action .  
Title IX of the Education Amendments of 1972 protects people from discrimination based on sex in education programs or activities which receive Federal financial assistance. Title IX states: "No person in the United States shall, on the basis of sex, be excluded from participation in, be denied the benefits of, or be subjected to discrimination under any education program or activity receiving Federal financial assistance..." 20 U.S.C. § 1681 - To Learn More, visit  Title IX and Sexual Misconduct .
 
 
                                 
                                 
                                 
                               
                            
                         
                      
                   
                
             
          
       
    
   
   
   
   
   
   
 



 


