George Swihart - Earth Sciences - University of Memphis    










 
 
 
     



 
    
    
    George Swihart - 
      	Earth Sciences
      	 - University of Memphis
    
    
    
    
    
    
    
    
    
    
    
    
    
    
    
    
    
    
    
    
    
    
    
    
    
   
   
   






   
   
   
    
    
 
 
   
   
   
   
 
    
   
   
    
      
      
          
     
    
       
          
             
                
				    
					     
                   
      
                
                
                    
                
                
                   
                      
                         
                            
                               
                                   Lambuth Campus  
                                   myMemphis  
                                   Webmail  
                                   Faculty   Staff  
                                   Contact  
                                   Directories  
                               
                            
                            
                               Search 
                               
							   
							      
						 Site Index 
                            
                             
                         
                      
                   
                   
                      
                         
                            
                                Academics    
                                  
                                      Academics Overview  
                                      Colleges   Schools  
                                      Undergraduate Catalog  
                                      Graduate Catalog  
                                      Honors Program  
								      UofM Global  
                                  
                               
                                Admissions    
                                  
                                      Admissions Information  
                                      Undergraduate Students  
                                      Graduate Students  
                                      Law Students  
                                      International Students  
                                  
                               
                                Athletics    
                                  
                                      Tiger Athletics  
                                      Ticket Information  
                                      Intramurals  
                                      Make A Gift  
                                      Rec Center  
                                      gotigersgo.com  
                                  
                               
                                Research    
                                  
                                      Research   Sponsored Programs  
                                      Research Resources  
                                      Centers/Chairs of Excellence  

                                      Centers and Institutes  
									  FedEx Institute of Technology  
                                      electronic Research Administration (eRA)  
									  Office of Institutional Research  
                                  
                               
                                Support UofM    
                                  
                                      Development  
                                      Make a Gift  
                                      Alumni Association  
                                      Athletics Development  
                                  
                               
                                Libraries    
                                  
                                      University Libraries  
                                      Libraries Resources  
                                      Libraries Services  
                                      Special Collections  
                                      Ask a Librarian  
                                  
                               
                            
                         
                      
                   
                
             
             
                
                   
                      Resources for... 
                      
                          Prospective Students  
                          Current and Returning Students  
                          Parents  
                          Alumni  
                          Veterans  
                      
                       Expand Menu  
                   
				   			   
                
             
          
       
    
          
      
          
    
       
          
             
                
                   
                       
                           			Department of Earth Sciences
                           	 
                           
                   
                
             
          
       
       
          
             
                
                   
                      
                          About  
                          Programs  
                          Faculty  
                          Research  
                          Student Resources  
                      
                   
                
             
          
          
             
                
                   
                      
                          Home  
                          
                              	Earth Sciences
                              	  
                          
                              	Faculty
                              	  
                         George Swihart 
                      
                   
                   
                       
                      
                     
                     	
                     
                     		  
                      
                        
                        
                         
                           
                           
                                                                
                              
                              
                               
                              
                              
                            
                           
                           
                            
                              
                               
                                 
                                 George Swihart
                                 
                               
                              
                              
                               
                                 
                                 Emeritus Professor
                                 
                               
                              
                              
                               
                                 
                                  
                                    
                                     Phone 
                                    
                                     
                                       
                                       901.678.2177
                                       
                                     
                                    
                                  
                                 
                                  
                                    
                                     Email 
                                    
                                     
                                       
                                       gswihart@memphis.edu
                                       
                                     
                                    
                                  
                                 
                                  
                                    
                                     Fax 
                                    
                                     
                                       
                                       901.678.2178
                                       
                                     
                                    
                                  
                                 
                               
                              
                              
                               
                                 
                                  
                                    
                                     Office 
                                    
                                     
                                       
                                       JN 109 
                                       
                                     
                                    
                                  
                                 
                                  
                                    
                                     Office Hours 
                                    
                                     
                                       
                                       Call for Hours
                                       
                                     
                                    
                                  
                                 
                               
                              
                              
                               
                                 										
                                 
                                 
                                                                         
                                 
                               
                              
                            
                           
                           
                         
                        			 
                        			  
                        
                        
                         Education 
                        
                         
                           
                            BA, Colby College, 1979 
                           
                            MS, University of Iowa, 1981 
                           
                            PhD, University of Chicago, 1987 
                           
                         
                        
                         Research Interests 
                        
                         Boron isotope geochemistry of minerals, groundwater and soil. A recent interest is
                           in developing a geochemical method for sourcing archaeological artifacts composed
                           of chert.
                         
                        
                         Selected Publications 
                        
                         
                           
                            Larsen D.,  Swihart G. H . and Xiao Y. K. (2001) Hydrochemistry and isotope composition of springs in the Tecopa
                              basin, southeastern California, USA.  Chem. Geol . 179, 17-35.
                            
                           
                            Xiao Y. K.,  Swihart G. H ., Xiao Y. and Vocke R. D. (2001) A preliminary experimental study of the boron concentration
                              in vapor and the isotopic fractionation of boron between seawater and vapor during
                              evaporation of seawater.  Science in China  (Series B) 44, 540-551.
                            
                           
                             Swihart G. H . (2002, updated second printing) Instrumental techniques for boron isotope analysis.
                              In E. S. Grew and L. M. Anovitz, Eds.,  Boron: Mineralogy, Petrology, and Geochemistry in the Earth's Crust , Mineralogical Society of America, Reviews in Mineralogy, vol. 33, pp. 845-862.
                            
                           
                            Xiao Y., Li Y-S. and  Swihart G. H.  (2002) A close look at silver oxide colloid for surface-enhanced Raman scattering.
                               Talanta  58, 755-760.
                            
                           
                            Xiao Y. K., Liao B. Y., Liu W. G, Xiao Y. and  Swihart G. H . (2003) Ion exchange extraction of boron from aqueous fluids by Amberlite IRA 743
                              resin.  Chinese J. Chem . 21, 1073-1079.
                            
                           
                            Xiao Y. K., Li S. Z., Wei H. Z., Sun A. D., Liu W. G., Zhou W. J., Zhao Z. Q. and
                               Swihart G. H . (2007) Boron isotopic fractionation during seawater evaporation.  Marine Chem . 103, 382-392.
                            
                           
                         
                        
                        
                      
                     								
                     
                     
                     
                     
                     	
                      
                   
                
                
                   
                      
                      
                         
                            
                                Apply Now!  
                               Interested in a degree in Earth Sciences? Find out how to apply 
                            
                            
                                News and Colloquium  
                               Learn about faculty and student research, how to join Earth Sciences Club, see the
                                 department colloquium schedule, and more...
                               
                            
                            
                                Field Activities  
                               Find out about admissions, prerequisites, location and more 
                            
                            
                                Contact Us  
                               Main office location and numbers, undergraduate and graduate advising 
                            
                         
                      
                      
                      
                   
                   
                
                
             
             
          
          
       
    
    
    
      
      
       
 
    
       
          
             
                 Full sitemap   
             
             
                
                   
                      Admissions 
                      
                         
                             Prospective Students  
                             Undergraduate  
                             Graduate  
                             Law School  
                             International  
                             Parents  
                             Scholarship   Financial Aid  
                             Tuition   Fee Payment  
                             FAQs  
                             About UofM  
                         
                      
                   
                   
                      Academics 
                      
                         
                             Provost's Office  
                             Libraries  
                             Transcripts  
                             Undergraduate Catalog  
                             Graduate Catalog  
                             Academic Calendars  
                             Course Schedule  
                             Financial Aid  
                             Graduation  
                             Honors Program  
						     eCourseware  
                         
                      
                   
                   
                      Athletics 
                      
                         
                             Gotigersgo.com  
                             Ticket Information  
                             Intramural Sports  
                             Recreation Center  
                             Athletic Academic Support  
                             Former Tigers  
                             Facilities  
                             Tiger Scholarship Fund  
                             Media  
                         
                      
                   
				    
                   
                      Research 
                      
                         
                             Sponsored Programs  
                             Research Resources  
                             Centers   Institutes  
                             Chairs of Excellence  
                             FedEx Institute of Technology  
                             Libraries  
                             Grants Accounting  
                             Environmental Health  
                             Office of Institutional Research  
                         
                      
                   
                   
                      Support UofM 
                      
                         
                             Make a Gift  
                             Alumni Association  
                             Year of Service  
                         
                      
                   
                   
                      Administrative Support 
                      
                         
                             President's Office  
                             Academic Affairs  
                             Business   Finance  
                             Career Opportunities  
                             Conference   Event Services  
                             Corporate Partnerships  
  Development Office  
                             Government Relations  
                             Information Technology Services  
                             Media and Marketing  
                             Student Affairs  
                         
                      
                   
                
             
          
          
             
				    
                  
                
             
             
                   
                  
                
             
             
                
                   Follow UofM Online 
                     UofM Facebook     UofM Twitter     UofM YouTube   
                    
                   
                     UofM Instagram     UofM Pinterest     UofM LinkedIn   
                
             
              
                   
                      
                   
                
      
          
       
    
 
 
      
      
      
       
          
             
                
                   
                      
                         
                            
                               
                                 
                                 
                                  
  Print  
  Got a Question? Ask TOM  
  Copyright © 2017 University of Memphis  
  Important Notice  
                                  
                                 
                                 
                                  
                                     Last Updated: 11/6/17 
                                  
                                 
                                 
                                  
  University of Memphis  
 Memphis, TN 38152 
 Phone: 901.678.2000 
 
  
 The University of Memphis does not discriminate against students, employees, or applicants for admission or employment on the basis of race, color, religion, creed, national origin, sex, sexual orientation, gender identity/expression, disability, age, status as a protected veteran, genetic information, or any other legally protected class with respect to all employment, programs and activities sponsored by the University of Memphis. The Office for Institutional Equity has been designated to handle inquiries regarding non-discrimination policies. For more information, visit  University of Memphis Equal Opportunity and Affirmative Action .  
Title IX of the Education Amendments of 1972 protects people from discrimination based on sex in education programs or activities which receive Federal financial assistance. Title IX states: "No person in the United States shall, on the basis of sex, be excluded from participation in, be denied the benefits of, or be subjected to discrimination under any education program or activity receiving Federal financial assistance..." 20 U.S.C. § 1681 - To Learn More, visit  Title IX and Sexual Misconduct .
 
 
                                 
                                 
                                 
                               
                            
                         
                      
                   
                
             
          
       
    
   
   
   
   
   
   
 



 


