Soil and Sediment Studies - Earth Sciences - University of Memphis    










 
 
 
     



 
    
    
    Soil and Sediment Studies  - 
      	Earth Sciences
      	 - University of Memphis
    
    
    
    
    
    
    
    
    
    
    
    
    
    
    
    
    
    
    
    
    
    
    
    
    
   
   
   






   
   
   
    
    
 
 
   
   
   
   
 
    
   
   
    
      
      
          
     
    
       
          
             
                
				    
					     
                   
      
                
                
                    
                
                
                   
                      
                         
                            
                               
                                   Lambuth Campus  
                                   myMemphis  
                                   Webmail  
                                   Faculty   Staff  
                                   Contact  
                                   Directories  
                               
                            
                            
                               Search 
                               
							   
							      
						 Site Index 
                            
                             
                         
                      
                   
                   
                      
                         
                            
                                Academics    
                                  
                                      Academics Overview  
                                      Colleges   Schools  
                                      Undergraduate Catalog  
                                      Graduate Catalog  
                                      Honors Program  
								      UofM Global  
                                  
                               
                                Admissions    
                                  
                                      Admissions Information  
                                      Undergraduate Students  
                                      Graduate Students  
                                      Law Students  
                                      International Students  
                                  
                               
                                Athletics    
                                  
                                      Tiger Athletics  
                                      Ticket Information  
                                      Intramurals  
                                      Make A Gift  
                                      Rec Center  
                                      gotigersgo.com  
                                  
                               
                                Research    
                                  
                                      Research   Sponsored Programs  
                                      Research Resources  
                                      Centers/Chairs of Excellence  

                                      Centers and Institutes  
									  FedEx Institute of Technology  
                                      electronic Research Administration (eRA)  
									  Office of Institutional Research  
                                  
                               
                                Support UofM    
                                  
                                      Development  
                                      Make a Gift  
                                      Alumni Association  
                                      Athletics Development  
                                  
                               
                                Libraries    
                                  
                                      University Libraries  
                                      Libraries Resources  
                                      Libraries Services  
                                      Special Collections  
                                      Ask a Librarian  
                                  
                               
                            
                         
                      
                   
                
             
             
                
                   
                      Resources for... 
                      
                          Prospective Students  
                          Current and Returning Students  
                          Parents  
                          Alumni  
                          Veterans  
                      
                       Expand Menu  
                   
				   			   
                
             
          
       
    
          
      
          
    
       
          
             
                
                   
                       
                           			Department of Earth Sciences
                           	 
                           
                   
                
             
          
       
       
          
             
                
                   
                      
                          About  
                          Programs  
                          Faculty  
                          Research  
                          Student Resources  
                      
                      
                         
                            Facilities   
                            
                               
                                  
                                   Computing  
                                   Rock and Sediment Processing  
                                   Soil and Sediment Studies  
                                   Geochemical Studies  
                                   Mineralogical and Petrological Studies  
                                   Archaeology Studies  
                                   Hydrogeology Studies  
                                   Geomorphology Studies  
                                   Geophysical Studies  
                                   Research  
                                         Research in Earth Sciences  
                                         Hazards  
                                         Active Tectonic   Dynamic Geomorphology  
                                         Hydrology   Water Resources  
                                         Geoarchaeology   Quaternary Studies  
                                         Spatial   Community Analysis  
                                     
                                  
                               
                            
                         
                      
                   
                
             
          
          
             
                
                   
                      
                          Home  
                          
                              	Earth Sciences
                              	  
                          
                              	Facilities
                              	  
                         Soil and Sediment Studies  
                      
                   
                   
                       
                      
                     
                     		
                     
                     
                      Soil and Sediment Studies 
                     
                       Facilities for soil and sediment studies are available in room 114 of Johnson Hall
                        and room 129 of J.M. Smith Hall. The facilities in Johnson Hall are generally for
                        non-chemical treatment of soils and sediments; whereas room 129 is equipped with a
                        hood. Equipment include muffle furnace for loss-on-ignition analysis, drying ovens,
                        heated and cooled shaking table, ultracentrifuge, Millipore deionized water system,
                        and chemical equipment for pH, electrical conductivity, redox, and bulk geochemical
                        analysis.
                      
                     
                     
                     	
                      
                   
                
                
                   
                      
                         Facilities 
                         
                            
                               
                                Computing  
                                Rock and Sediment Processing  
                                Soil and Sediment Studies  
                                Geochemical Studies  
                                Mineralogical and Petrological Studies  
                                Archaeology Studies  
                                Hydrogeology Studies  
                                Geomorphology Studies  
                                Geophysical Studies  
                                Research  
                                      Research in Earth Sciences  
                                      Hazards  
                                      Active Tectonic   Dynamic Geomorphology  
                                      Hydrology   Water Resources  
                                      Geoarchaeology   Quaternary Studies  
                                      Spatial   Community Analysis  
                                  
                               
                            
                         
                      
                      
                      
                         
                            
                                Apply Now!  
                               Interested in a degree in Earth Sciences? Find out how to apply 
                            
                            
                                News and Colloquium  
                               Learn about faculty and student research, how to join Earth Sciences Club, see the
                                 department colloquium schedule, and more...
                               
                            
                            
                                Field Activities  
                               Find out about admissions, prerequisites, location and more 
                            
                            
                                Contact Us  
                               Main office location and numbers, undergraduate and graduate advising 
                            
                         
                      
                      
                      
                   
                   
                
                
             
             
          
          
       
    
    
    
      
      
       
 
    
       
          
             
                 Full sitemap   
             
             
                
                   
                      Admissions 
                      
                         
                             Prospective Students  
                             Undergraduate  
                             Graduate  
                             Law School  
                             International  
                             Parents  
                             Scholarship   Financial Aid  
                             Tuition   Fee Payment  
                             FAQs  
                             About UofM  
                         
                      
                   
                   
                      Academics 
                      
                         
                             Provost's Office  
                             Libraries  
                             Transcripts  
                             Undergraduate Catalog  
                             Graduate Catalog  
                             Academic Calendars  
                             Course Schedule  
                             Financial Aid  
                             Graduation  
                             Honors Program  
						     eCourseware  
                         
                      
                   
                   
                      Athletics 
                      
                         
                             Gotigersgo.com  
                             Ticket Information  
                             Intramural Sports  
                             Recreation Center  
                             Athletic Academic Support  
                             Former Tigers  
                             Facilities  
                             Tiger Scholarship Fund  
                             Media  
                         
                      
                   
				    
                   
                      Research 
                      
                         
                             Sponsored Programs  
                             Research Resources  
                             Centers   Institutes  
                             Chairs of Excellence  
                             FedEx Institute of Technology  
                             Libraries  
                             Grants Accounting  
                             Environmental Health  
                             Office of Institutional Research  
                         
                      
                   
                   
                      Support UofM 
                      
                         
                             Make a Gift  
                             Alumni Association  
                             Year of Service  
                         
                      
                   
                   
                      Administrative Support 
                      
                         
                             President's Office  
                             Academic Affairs  
                             Business   Finance  
                             Career Opportunities  
                             Conference   Event Services  
                             Corporate Partnerships  
  Development Office  
                             Government Relations  
                             Information Technology Services  
                             Media and Marketing  
                             Student Affairs  
                         
                      
                   
                
             
          
          
             
				    
                  
                
             
             
                   
                  
                
             
             
                
                   Follow UofM Online 
                     UofM Facebook     UofM Twitter     UofM YouTube   
                    
                   
                     UofM Instagram     UofM Pinterest     UofM LinkedIn   
                
             
              
                   
                      
                   
                
      
          
       
    
 
 
      
      
      
       
          
             
                
                   
                      
                         
                            
                               
                                 
                                 
                                  
  Print  
  Got a Question? Ask TOM  
  Copyright © 2017 University of Memphis  
  Important Notice  
                                  
                                 
                                 
                                  
                                     Last Updated: 11/6/17 
                                  
                                 
                                 
                                  
  University of Memphis  
 Memphis, TN 38152 
 Phone: 901.678.2000 
 
  
 The University of Memphis does not discriminate against students, employees, or applicants for admission or employment on the basis of race, color, religion, creed, national origin, sex, sexual orientation, gender identity/expression, disability, age, status as a protected veteran, genetic information, or any other legally protected class with respect to all employment, programs and activities sponsored by the University of Memphis. The Office for Institutional Equity has been designated to handle inquiries regarding non-discrimination policies. For more information, visit  University of Memphis Equal Opportunity and Affirmative Action .  
Title IX of the Education Amendments of 1972 protects people from discrimination based on sex in education programs or activities which receive Federal financial assistance. Title IX states: "No person in the United States shall, on the basis of sex, be excluded from participation in, be denied the benefits of, or be subjected to discrimination under any education program or activity receiving Federal financial assistance..." 20 U.S.C. § 1681 - To Learn More, visit  Title IX and Sexual Misconduct .
 
 
                                 
                                 
                                 
                               
                            
                         
                      
                   
                
             
          
       
    
   
   
   
   
   
   
 



 


