Academic Common Market - Undergraduate Admissions and Orientation - University of Memphis    










 
 
 
     



 
    
    
    Academic Common Market  - 
      	Undergraduate Admissions and Orientation
      	 - University of Memphis
    
    
    
    
    
    
    
    
    
    
    
    
    
    
    
    
    
    
    
    
    
    
    
    
    
   
   
   






   
   
   
    
    
 
 
   
   
   
   
 
    
   
   
    
      
      
          
     
    
       
          
             
                
				    
					     
                   
      
                
                
                    
                
                
                   
                      
                         
                            
                               
                                   Lambuth Campus  
                                   myMemphis  
                                   Webmail  
                                   Faculty   Staff  
                                   Contact  
                                   Directories  
                               
                            
                            
                               Search 
                               
							   
							      
						 Site Index 
                            
                             
                         
                      
                   
                   
                      
                         
                            
                                Academics    
                                  
                                      Academics Overview  
                                      Colleges   Schools  
                                      Undergraduate Catalog  
                                      Graduate Catalog  
                                      Honors Program  
								      UofM Global  
                                  
                               
                                Admissions    
                                  
                                      Admissions Information  
                                      Undergraduate Students  
                                      Graduate Students  
                                      Law Students  
                                      International Students  
                                  
                               
                                Athletics    
                                  
                                      Tiger Athletics  
                                      Ticket Information  
                                      Intramurals  
                                      Make A Gift  
                                      Rec Center  
                                      gotigersgo.com  
                                  
                               
                                Research    
                                  
                                      Research   Sponsored Programs  
                                      Research Resources  
                                      Centers/Chairs of Excellence  

                                      Centers and Institutes  
									  FedEx Institute of Technology  
                                      electronic Research Administration (eRA)  
									  Office of Institutional Research  
                                  
                               
                                Support UofM    
                                  
                                      Development  
                                      Make a Gift  
                                      Alumni Association  
                                      Athletics Development  
                                  
                               
                                Libraries    
                                  
                                      University Libraries  
                                      Libraries Resources  
                                      Libraries Services  
                                      Special Collections  
                                      Ask a Librarian  
                                  
                               
                            
                         
                      
                   
                
             
             
                
                   
                      Resources for... 
                      
                          Prospective Students  
                          Current and Returning Students  
                          Parents  
                          Alumni  
                          Veterans  
                      
                       Expand Menu  
                   
				   			   
                
             
          
       
    
          
      
          
    
       
          
             
                
                   
                       
                           			Undergraduate Admissions and Orientation
                           	 
                          
                   
                
             
          
       
       
          
             
                
                   
                      
                          Freshmen  
                          Transfer  
                          Readmit  
                          Graduate  
                          Law  
                          International  
                          High School  
                      
                      
                         
                            Freshmen   
                            
                               
                                   Getting Started  
                                         Why UofM?  
                                         Application Checklist  
                                         Request Information  
                                         Meet Your Counselor  
                                         Visit the Campus  
                                         Academic Programs  
                                         Undergraduate Catalog  
                                     
                                  
                                   Residency Information  
                                         Residency Policy  
                                         Residency Appeal Form  
                                         Border County Waiver  
                                         Non-Resident Tuition  
                                         EVEA  
                                     
                                  
                                   Tuition and Fees  
                                         Tuition Estimator  
                                         Fee Charts  
                                     
                                  
                                   Financing Your Education  
                                         Financial Aid  
                                         Scholarships  
                                     
                                  
                                   Apply for Admission  
                                         Admission Requirements  
                                         Comprehensive Review  
                                         Talented 10%  
                                         Application Deadline  
                                         Application Fee Waiver  
                                         Apply Now!  
                                     
                                  
                                   What to Expect  
                                         Acknowledgement  
                                         Application Review  
                                         Admission Decision  
                                     
                                  
                                    After Acceptance   
                                         Math Placement  
                                          Orientation   
                                          Advising   
                                          Registration   
                                          ID Card   
                                          Parking   
                                          Fee Payment   
                                     
                                  
                                    Non-Traditional Credit   
                                         Advanced Placement  
                                         Intl. Baccalaureate  
                                         Dual Enrollment Credit  
                                     
                                  
                               
                            
                         
                      
                   
                
             
          
          
             
                
                   
                      
                          Home  
                          
                              	Undergraduate Admissions and Orientation
                              	  
                          
                              	Freshmen
                              	  
                         Academic Common Market  
                      
                   
                   
                       
                      
                     
                     		
                     
                     
                      Academic Common Market 
 The Academic Common Market program allows students from select states to pay Tennessee resident tuition while completing their degree at the University of Memphis. 
 
 Available if home state does not offer desired degree 
 Eligibility determined in one of the 16 participating states 
 Open to graduate and undergraduate students 
 Requires completion of admissions process 
 
 Visit the  Southern Regional Education Board  to see which programs are available in which states. Colton Cockrum is the contact (901.678.4715) at the University of Memphis for this program.                      
                     
                     
                     	
                      
                   
                
                
                   
                      
                         Freshmen 
                         
                            
                                Getting Started  
                                      Why UofM?  
                                      Application Checklist  
                                      Request Information  
                                      Meet Your Counselor  
                                      Visit the Campus  
                                      Academic Programs  
                                      Undergraduate Catalog  
                                  
                               
                                Residency Information  
                                      Residency Policy  
                                      Residency Appeal Form  
                                      Border County Waiver  
                                      Non-Resident Tuition  
                                      EVEA  
                                  
                               
                                Tuition and Fees  
                                      Tuition Estimator  
                                      Fee Charts  
                                  
                               
                                Financing Your Education  
                                      Financial Aid  
                                      Scholarships  
                                  
                               
                                Apply for Admission  
                                      Admission Requirements  
                                      Comprehensive Review  
                                      Talented 10%  
                                      Application Deadline  
                                      Application Fee Waiver  
                                      Apply Now!  
                                  
                               
                                What to Expect  
                                      Acknowledgement  
                                      Application Review  
                                      Admission Decision  
                                  
                               
                                 After Acceptance   
                                      Math Placement  
                                       Orientation   
                                       Advising   
                                       Registration   
                                       ID Card   
                                       Parking   
                                       Fee Payment   
                                  
                               
                                 Non-Traditional Credit   
                                      Advanced Placement  
                                      Intl. Baccalaureate  
                                      Dual Enrollment Credit  
                                  
                               
                            
                         
                      
                      
                      
                         
                            
                                Meet Your Counselor  
                               Our team can help you navigate the college planning process. 
                            
                            
                                #MEMBOUND?  
                               Sign up as a True Blue Tiger to receive information and updates. 
                            
                            
                                Campus Visits and Events  
                               Schedule a tour and view upcoming events. 
                            
                            
                                Contact Us  
                               Question?  The Office of Undergraduate Admissions and Orientation can help! 
                            
                         
                      
                      
                      
                   
                   
                
                
             
             
          
          
       
    
    
    
      
      
       
 
    
       
          
             
                 Full sitemap   
             
             
                
                   
                      Admissions 
                      
                         
                             Prospective Students  
                             Undergraduate  
                             Graduate  
                             Law School  
                             International  
                             Parents  
                             Scholarship   Financial Aid  
                             Tuition   Fee Payment  
                             FAQs  
                             About UofM  
                         
                      
                   
                   
                      Academics 
                      
                         
                             Provost's Office  
                             Libraries  
                             Transcripts  
                             Undergraduate Catalog  
                             Graduate Catalog  
                             Academic Calendars  
                             Course Schedule  
                             Financial Aid  
                             Graduation  
                             Honors Program  
						     eCourseware  
                         
                      
                   
                   
                      Athletics 
                      
                         
                             Gotigersgo.com  
                             Ticket Information  
                             Intramural Sports  
                             Recreation Center  
                             Athletic Academic Support  
                             Former Tigers  
                             Facilities  
                             Tiger Scholarship Fund  
                             Media  
                         
                      
                   
				    
                   
                      Research 
                      
                         
                             Sponsored Programs  
                             Research Resources  
                             Centers   Institutes  
                             Chairs of Excellence  
                             FedEx Institute of Technology  
                             Libraries  
                             Grants Accounting  
                             Environmental Health  
                             Office of Institutional Research  
                         
                      
                   
                   
                      Support UofM 
                      
                         
                             Make a Gift  
                             Alumni Association  
                             Year of Service  
                         
                      
                   
                   
                      Administrative Support 
                      
                         
                             President's Office  
                             Academic Affairs  
                             Business   Finance  
                             Career Opportunities  
                             Conference   Event Services  
                             Corporate Partnerships  
  Development Office  
                             Government Relations  
                             Information Technology Services  
                             Media and Marketing  
                             Student Affairs  
                         
                      
                   
                
             
          
          
             
				    
                  
                
             
             
                   
                  
                
             
             
                
                   Follow UofM Online 
                     UofM Facebook     UofM Twitter     UofM YouTube   
                    
                   
                     UofM Instagram     UofM Pinterest     UofM LinkedIn   
                
             
              
                   
                      
                   
                
      
          
       
    
 
 
      
      
      
       
          
             
                
                   
                      
                         
                            
                               
                                 
                                 
                                  
  Print  
  Got a Question? Ask TOM  
  Copyright © 2017 University of Memphis  
  Important Notice  
                                  
                                 
                                 
                                  
                                     Last Updated: 12/6/17 
                                  
                                 
                                 
                                  
  University of Memphis  
 Memphis, TN 38152 
 Phone: 901.678.2000 
 
  
 The University of Memphis does not discriminate against students, employees, or applicants for admission or employment on the basis of race, color, religion, creed, national origin, sex, sexual orientation, gender identity/expression, disability, age, status as a protected veteran, genetic information, or any other legally protected class with respect to all employment, programs and activities sponsored by the University of Memphis. The Office for Institutional Equity has been designated to handle inquiries regarding non-discrimination policies. For more information, visit  University of Memphis Equal Opportunity and Affirmative Action .  
Title IX of the Education Amendments of 1972 protects people from discrimination based on sex in education programs or activities which receive Federal financial assistance. Title IX states: "No person in the United States shall, on the basis of sex, be excluded from participation in, be denied the benefits of, or be subjected to discrimination under any education program or activity receiving Federal financial assistance..." 20 U.S.C. § 1681 - To Learn More, visit  Title IX and Sexual Misconduct .
 
 
                                 
                                 
                                 
                               
                            
                         
                      
                   
                
             
          
       
    
   
   
   
   
   
   
 



 


