CCFA - University of Memphis - CCFA - University of Memphis  Creativity never goes out of style, Neither does intelligence, and at the College of Communication and Fine Arts, you'll be surrounded by both.  










 
 
 
     



 
    
    
    CCFA - University of Memphis - 
      	CCFA
      	 - University of Memphis
    
    
    
    
    
    
    
    
    
    
    
    
    
    
    
    
    
    
    
    
    
    
    
    
    
   
   
   






   
   
   
    
    
    
 
 
   
   
   
   
 
    
   
   
    
      
      
          
     
    
       
          
             
                
				    
					     
                   
      
                
                
                    
                
                
                   
                      
                         
                            
                               
                                   Lambuth Campus  
                                   myMemphis  
                                   Webmail  
                                   Faculty   Staff  
                                   Contact  
                                   Directories  
                               
                            
                            
                               Search 
                               
							   
							      
						 Site Index 
                            
                             
                         
                      
                   
                   
                      
                         
                            
                                Academics    
                                  
                                      Academics Overview  
                                      Colleges   Schools  
                                      Undergraduate Catalog  
                                      Graduate Catalog  
                                      Honors Program  
								      UofM Global  
                                  
                               
                                Admissions    
                                  
                                      Admissions Information  
                                      Undergraduate Students  
                                      Graduate Students  
                                      Law Students  
                                      International Students  
                                  
                               
                                Athletics    
                                  
                                      Tiger Athletics  
                                      Ticket Information  
                                      Intramurals  
                                      Make A Gift  
                                      Rec Center  
                                      gotigersgo.com  
                                  
                               
                                Research    
                                  
                                      Research   Sponsored Programs  
                                      Research Resources  
                                      Centers/Chairs of Excellence  

                                      Centers and Institutes  
									  FedEx Institute of Technology  
                                      electronic Research Administration (eRA)  
									  Office of Institutional Research  
                                  
                               
                                Support UofM    
                                  
                                      Development  
                                      Make a Gift  
                                      Alumni Association  
                                      Athletics Development  
                                  
                               
                                Libraries    
                                  
                                      University Libraries  
                                      Libraries Resources  
                                      Libraries Services  
                                      Special Collections  
                                      Ask a Librarian  
                                  
                               
                            
                         
                      
                   
                
             
             
                
                   
                      Resources for... 
                      
                          Prospective Students  
                          Current and Returning Students  
                          Parents  
                          Alumni  
                          Veterans  
                      
                       Expand Menu  
                   
				   			   
                
             
          
       
    
          
      
          
    
       
          
             
                
                   
                       
                           			College of Communication and Fine Arts
                           	 
                           
                   
                
             
          
       
       
          
             
                
                   
                      
                          About  
                          Academic Support  
                          Scholarships  
                          News/Events  
                          Alumni  
                          Faculty  
                          Resources  
                      
                   
                
             
          
          
             
                
                   
                      
                          Home  
                         
                           	CCFA
                           	
                         
                      
                   
                   
                      
                         
                              
                             
                            
                             
                            
                             
                            
                             
                            
                             
                            
                             
                            
                            
                                
                            
                         
                         
                             
                         
                      
                      
                     		
                     
                     
                      Creativity never goes out of style. 
                     
                      Neither does intelligence, and at the  College of Communication and Fine Arts,  you'll be surrounded by both. With the city of Memphis as a backdrop, we are educating
                        tomorrow's creative professionals. Music, theatre, art, dance, architecture, and communication
                        arts are more alive in Memphis than in some cities double our size. To come study
                        here, is to light a creative fire that will burn long and hard—equipping you and your
                        classmates to become leaders in creative industries.
                      
                     
                      There's magic in being around creative people. 
                     
                      In both expected and unexpected ways, you will interact with other big idea people
                        in both real-world and academic settings. Here, there is a genuine spirit of cooperation
                        in a down-to-earth environment that gives you the freedom to be you. Faculty members
                        who are gifted beyond belief in the humanities; social sciences; fine and performing
                        arts; architecture; and design and communication arts and sciences will inspire you.
                        We are driven to help you create. Be bold. Be different. To stretch your thinking
                        and yourself. To push beyond.  That's what Memphis does.  
                     
                          
                     
                     	
                      
                   
                
                
                   
                      
                      
                         
                            
                                Apply Now  
                               Explore your creativity in CCFA. 
                            
                            
                                Get Advised   
                               Your academic success begins with advising. 
                            
                            
                                Read Voices  
                               Online edition of CCFA's magazine 
                            
                            
                                Donate Now  
                               Support students and the arts with your donation 
                            
                         
                      
                      
                      
                        	
                         
                           		
                           
                           
                           
                           		
                            
                              
                               
                                 
                                  
                                     
                                    
                                  
                                 
                                  
                                    
                                  
                                 
                               
                              
                              
                               
                                 
                                  
                                    
                                     #147 
                                    
                                     U.S. News and World Report 
                                    
                                     Fine Arts - Graduate 
                                    
                                  
                                 
                                 
                               
                              
                            
                           	
                           
                         
                        
                      
                      
                         Follow Us Online 
                         
                              Twitter   
                              Facebook   
                         
                                             
                   
                   
                
                
             
             
          
          
       
    
    
    
      
      
       
 
    
       
          
             
                 Full sitemap   
             
             
                
                   
                      Admissions 
                      
                         
                             Prospective Students  
                             Undergraduate  
                             Graduate  
                             Law School  
                             International  
                             Parents  
                             Scholarship   Financial Aid  
                             Tuition   Fee Payment  
                             FAQs  
                             About UofM  
                         
                      
                   
                   
                      Academics 
                      
                         
                             Provost's Office  
                             Libraries  
                             Transcripts  
                             Undergraduate Catalog  
                             Graduate Catalog  
                             Academic Calendars  
                             Course Schedule  
                             Financial Aid  
                             Graduation  
                             Honors Program  
						     eCourseware  
                         
                      
                   
                   
                      Athletics 
                      
                         
                             Gotigersgo.com  
                             Ticket Information  
                             Intramural Sports  
                             Recreation Center  
                             Athletic Academic Support  
                             Former Tigers  
                             Facilities  
                             Tiger Scholarship Fund  
                             Media  
                         
                      
                   
				    
                   
                      Research 
                      
                         
                             Sponsored Programs  
                             Research Resources  
                             Centers   Institutes  
                             Chairs of Excellence  
                             FedEx Institute of Technology  
                             Libraries  
                             Grants Accounting  
                             Environmental Health  
                             Office of Institutional Research  
                         
                      
                   
                   
                      Support UofM 
                      
                         
                             Make a Gift  
                             Alumni Association  
                             Year of Service  
                         
                      
                   
                   
                      Administrative Support 
                      
                         
                             President's Office  
                             Academic Affairs  
                             Business   Finance  
                             Career Opportunities  
                             Conference   Event Services  
                             Corporate Partnerships  
  Development Office  
                             Government Relations  
                             Information Technology Services  
                             Media and Marketing  
                             Student Affairs  
                         
                      
                   
                
             
          
          
             
				    
                  
                
             
             
                   
                  
                
             
             
                
                   Follow UofM Online 
                     UofM Facebook     UofM Twitter     UofM YouTube   
                    
                   
                     UofM Instagram     UofM Pinterest     UofM LinkedIn   
                
             
              
                   
                      
                   
                
      
          
       
    
 
 
      
      
      
       
          
             
                
                   
                      
                         
                            
                               
                                 
                                 
                                  
  Print  
  Got a Question? Ask TOM  
  Copyright © 2017 University of Memphis  
  Important Notice  
                                  
                                 
                                 
                                  
                                     Last Updated: 11/29/17 
                                  
                                 
                                 
                                  
  University of Memphis  
 Memphis, TN 38152 
 Phone: 901.678.2000 
 
  
 The University of Memphis does not discriminate against students, employees, or applicants for admission or employment on the basis of race, color, religion, creed, national origin, sex, sexual orientation, gender identity/expression, disability, age, status as a protected veteran, genetic information, or any other legally protected class with respect to all employment, programs and activities sponsored by the University of Memphis. The Office for Institutional Equity has been designated to handle inquiries regarding non-discrimination policies. For more information, visit  University of Memphis Equal Opportunity and Affirmative Action .  
Title IX of the Education Amendments of 1972 protects people from discrimination based on sex in education programs or activities which receive Federal financial assistance. Title IX states: "No person in the United States shall, on the basis of sex, be excluded from participation in, be denied the benefits of, or be subjected to discrimination under any education program or activity receiving Federal financial assistance..." 20 U.S.C. § 1681 - To Learn More, visit  Title IX and Sexual Misconduct .
 
 
                                 
                                 
                                 
                               
                            
                         
                      
                   
                
             
          
       
    
   
   
   
   
   
   
 



 


