Netscaler Gateway   
 
 
 
 Netscaler Gateway 
 
 
 
 
 
 
 




 

 
// frame-busting script
function changePage()
{
	if( self == top ) {
  		 document.getElementsByTagName("body")[0].style.display = 'block' ;
		 document.getElementsByTagName("body")[0].style.visibility = 'visible' ;
		 ns_fillName();
	} else {
   		top.location = self.location ;
	}

}
function setFocus(obj)
{
   if (obj != null) {
      obj.focus();
   }
}			
//-->
 



 
 
 
 
 
  
 
 
 	 
		 
			 
				                               
				 
					 
					 
					 
					JavaScript is either disabled in or not supported by the Web browser.  
					To continue logon, use a Web browser that supports JavaScript or enable JavaScript in your current browser.
					 
					 
					 
				                            
				   
			 
		 
	 
 
 

 
 

 
 
