 Mediasite Login   

 
 
   
	
    Mediasite Login

 
    
 
     
    
 

 
     
         
            
    
    
     
         
     
     
         
             
                 
                 
                    Please sign in to access the requested Mediasite content.
                 
                
                 
                    
                    
                 
                 
                     
                        Username 
                     
                         
                        
                     
                 
                 
                     
                        Password 
                     
                         
                        
                     
                 

                 
                     
                        
                             
                                  
                                Remember me on this computer
                             
                        
                         
                             
                                Sign In 
                         
                     
                 
                
                 
             
         
     

             
             
         
     
 
 
