Arts and Sciences - Registrar - University of Memphis  Approvals Key College of Arts and Sciences  










 
 
 
     



 
    
    
    Arts and Sciences - 
      	Registrar
      	 - University of Memphis
    
    
    
    
    
    
    
    
    
    
    
    
    
    
    
    
    
    
    
    
    
    
    
    
    
   
   
   






   
   
   
    
    
    
    
    
    
    
    
    
    
    
    
    
    
    
    
    
 
 
   
   
   
   
 
    
   
   
    
      
      
          
     
    
       
          
             
                
				    
					     
                   
      
                
                
                    
                
                
                   
                      
                         
                            
                               
                                   Lambuth Campus  
                                   myMemphis  
                                   Webmail  
                                   Faculty   Staff  
                                   Contact  
                                   Directories  
                               
                            
                            
                               Search 
                               
							   
							      
						 Site Index 
                            
                             
                         
                      
                   
                   
                      
                         
                            
                                Academics    
                                  
                                      Academics Overview  
                                      Colleges   Schools  
                                      Undergraduate Catalog  
                                      Graduate Catalog  
                                      Honors Program  
								      UofM Global  
                                  
                               
                                Admissions    
                                  
                                      Admissions Information  
                                      Undergraduate Students  
                                      Graduate Students  
                                      Law Students  
                                      International Students  
                                  
                               
                                Athletics    
                                  
                                      Tiger Athletics  
                                      Ticket Information  
                                      Intramurals  
                                      Make A Gift  
                                      Rec Center  
                                      gotigersgo.com  
                                  
                               
                                Research    
                                  
                                      Research   Sponsored Programs  
                                      Research Resources  
                                      Centers/Chairs of Excellence  

                                      Centers and Institutes  
									  FedEx Institute of Technology  
                                      electronic Research Administration (eRA)  
									  Office of Institutional Research  
                                  
                               
                                Support UofM    
                                  
                                      Development  
                                      Make a Gift  
                                      Alumni Association  
                                      Athletics Development  
                                  
                               
                                Libraries    
                                  
                                      University Libraries  
                                      Libraries Resources  
                                      Libraries Services  
                                      Special Collections  
                                      Ask a Librarian  
                                  
                               
                            
                         
                      
                   
                
             
             
                
                   
                      Resources for... 
                      
                          Prospective Students  
                          Current and Returning Students  
                          Parents  
                          Alumni  
                          Veterans  
                      
                       Expand Menu  
                   
				   			   
                
             
          
       
    
          
      
          
    
       
          
             
                
                   
                       
                           			Registrar
                           	 
                          
                   
                
             
          
       
       
          
             
                
                   
                      
                          About  
                          Register  
                          Students  
                          Veterans  
                          Faculty   Staff  
                          Forms  
                      
                      
                         
                            Faculty   Staff   
                            
                               
                                  
                                   Faculty   Staff  
                                         Authorized Signatures  
                                         FERPA Compliance  
                                         Scheduling   Term Planning  
                                         Self Service   Online Aids  
                                     
                                  
                               
                            
                         
                      
                   
                
             
          
          
             
                
                   
                      
                          Home  
                          
                              	Registrar
                              	  
                          
                              	Faculty   Staff
                              	  
                         Arts and Sciences 
                      
                   
                   
                       
                      
                     
                     		
                     
                     
                      Arts and Sciences 
                     
                      Below are the  Approvals Key  and the current  Approvers  for this unit.
                      
                     
                      Approvals Key 
                     
                      
                        
                          OV  = Course  overloads  exceeding maximum hours allowed during a term or part of term.
                         
                        
                          25  = Undergraduate course  overloads exceeding 25 hours  during a term or part of term.
                         
                        
                          AD  =  Adds  after the last official date to add.
                         
                        
                          WD  =  Withdrawal  after the last official date to withdraw.
                         
                        
                          RG  =  Registration  after the last official date to register.
                         
                        
                          RT  =  Retroactive approval  of adds, withdrawals, and/or registrations after term is complete.
                         
                        
                      
                     
                      Undergraduate Approver(s) 
                     
                        Susan Fitzgerald    = OV / 25 / AD / WD / RG / RT
                      
                     
                        Mary L. Jones   = OV / 25 / AD / WD / RG / RT
                      
                     
                        Patsy Krech   = OV / 25 / AD / WD / RG / RT
                      
                     
                        Thomas Nenon   = OV / 25 / AD / WD / RG / RT
                      
                     
                        Sylvia Nisar   = AD / WD / RG
                      
                     
                        Abby Parrill-Baker   = OV / 25 / AD / WD / RG / RT
                      
                     
                        Deborah Tollefsen    = OV / 25 / AD / WD / RG / RT
                      
                     
                      Graduate Approver(s) 
                     
                        Susan Fitzgerald   = OV / AD / WD / RG / RT
                      
                     
                        Roger Kreuz   = OV / AD / WD / RG / RT
                      
                     
                        Thomas Nenon   = OV / AD / WD / RG / RT
                      
                     
                        Abby Parrill-Baker   = OV / AD / WD / RG / RT
                      
                     
                        Victoria Tardugno   = OV / AD / WD / RG / RT
                      
                     
                     
                     	
                      
                   
                
                
                   
                      
                         Faculty   Staff 
                         
                            
                               
                                Faculty   Staff  
                                      Authorized Signatures  
                                      FERPA Compliance  
                                      Scheduling   Term Planning  
                                      Self Service   Online Aids  
                                  
                               
                            
                         
                      
                      
                      
                         
                            
                                Calendars  
                               View Academic Year calendars; semester dates/deadlines; final exam schedules. 
                            
                            
                                Transcripts  
                               Request copies of your official transcript. 
                            
                            
                                Notice!  
                                Check for alerts and reminders. 
                            
                            
                                Contact Us   
                               Need additional assistance or information? We can help! 
                            
                         
                      
                      
                      
                   
                   
                
                
             
             
          
          
       
    
    
    
      
      
       
 
    
       
          
             
                 Full sitemap   
             
             
                
                   
                      Admissions 
                      
                         
                             Prospective Students  
                             Undergraduate  
                             Graduate  
                             Law School  
                             International  
                             Parents  
                             Scholarship   Financial Aid  
                             Tuition   Fee Payment  
                             FAQs  
                             About UofM  
                         
                      
                   
                   
                      Academics 
                      
                         
                             Provost's Office  
                             Libraries  
                             Transcripts  
                             Undergraduate Catalog  
                             Graduate Catalog  
                             Academic Calendars  
                             Course Schedule  
                             Financial Aid  
                             Graduation  
                             Honors Program  
						     eCourseware  
                         
                      
                   
                   
                      Athletics 
                      
                         
                             Gotigersgo.com  
                             Ticket Information  
                             Intramural Sports  
                             Recreation Center  
                             Athletic Academic Support  
                             Former Tigers  
                             Facilities  
                             Tiger Scholarship Fund  
                             Media  
                         
                      
                   
				    
                   
                      Research 
                      
                         
                             Sponsored Programs  
                             Research Resources  
                             Centers   Institutes  
                             Chairs of Excellence  
                             FedEx Institute of Technology  
                             Libraries  
                             Grants Accounting  
                             Environmental Health  
                             Office of Institutional Research  
                         
                      
                   
                   
                      Support UofM 
                      
                         
                             Make a Gift  
                             Alumni Association  
                             Year of Service  
                         
                      
                   
                   
                      Administrative Support 
                      
                         
                             President's Office  
                             Academic Affairs  
                             Business   Finance  
                             Career Opportunities  
                             Conference   Event Services  
                             Corporate Partnerships  
  Development Office  
                             Government Relations  
                             Information Technology Services  
                             Media and Marketing  
                             Student Affairs  
                         
                      
                   
                
             
          
          
             
				    
                  
                
             
             
                   
                  
                
             
             
                
                   Follow UofM Online 
                     UofM Facebook     UofM Twitter     UofM YouTube   
                    
                   
                     UofM Instagram     UofM Pinterest     UofM LinkedIn   
                
             
              
                   
                      
                   
                
      
          
       
    
 
 
      
      
      
       
          
             
                
                   
                      
                         
                            
                               
                                 
                                 
                                  
  Print  
  Got a Question? Ask TOM  
  Copyright © 2017 University of Memphis  
  Important Notice  
                                  
                                 
                                 
                                  
                                     Last Updated: 12/10/17 
                                  
                                 
                                 
                                  
  University of Memphis  
 Memphis, TN 38152 
 Phone: 901.678.2000 
 
  
 The University of Memphis does not discriminate against students, employees, or applicants for admission or employment on the basis of race, color, religion, creed, national origin, sex, sexual orientation, gender identity/expression, disability, age, status as a protected veteran, genetic information, or any other legally protected class with respect to all employment, programs and activities sponsored by the University of Memphis. The Office for Institutional Equity has been designated to handle inquiries regarding non-discrimination policies. For more information, visit  University of Memphis Equal Opportunity and Affirmative Action .  
Title IX of the Education Amendments of 1972 protects people from discrimination based on sex in education programs or activities which receive Federal financial assistance. Title IX states: "No person in the United States shall, on the basis of sex, be excluded from participation in, be denied the benefits of, or be subjected to discrimination under any education program or activity receiving Federal financial assistance..." 20 U.S.C. § 1681 - To Learn More, visit  Title IX and Sexual Misconduct .
 
 
                                 
                                 
                                 
                               
                            
                         
                      
                   
                
             
          
       
    
   
   
   
   
   
   
 



 


