Bursar-DAILY INVOICE REPORTING LOG University of Memphis, Bursar-DAILY INVOICE REPORTING LOG  

 
 Bursar-DAILY INVOICE REPORTING LOG 
 

 

 
 
    
         
      
         DAILY 
        INVOICE REPORTING LOG  
            
         Click 
        here for online help 
        .   
     
   
 


  
 
    
      
      
       
		 
            
               Department:    
                
               
                
           
            
               Date:   
                
               
                
           
            
             
               
                  
                    
                       Customer 
                      Code   
                   
                    
                        Bill Number   
                   
                    
                        Customer 
                      Information   
                   
                    
                       Amount   
                   
                    
                       Description   
                   
                    
                       Update   
                   
                 
                  
                    
                      
                       
                     
                   
                    
                      
                       
                     
                   
                    
                      
                       
                     
                   
                    
                      
                       
                     
                   
                    
                      
                       
                     
                   
                    
                      
                       
                     
                   
                 
                  
                    
                      
                       
                     
                   
                    
                      
                       
                     
                   
                    
                      
                       
                     
                   
                    
                      
                       
                     
                   
                    
                      
                       
                     
                   
                    
                      
                       
                     
                   
                 
                  
                    
                      
                       
                     
                   
                    
                      
                       
                     
                   
                    
                      
                       
                     
                   
                    
                      
                       
                     
                   
                    
                      
                       
                     
                   
                    
                      
                       
                     
                   
                 
                  
                    
                      
                       
                     
                   
                    
                      
                       
                     
                   
                    
                      
                       
                     
                   
                    
                      
                       
                     
                   
                    
                      
                       
                     
                   
                    
                      
                       
                     
                   
                 
                  
                    
                      
                       
                     
                   
                    
                      
                       
                     
                   
                    
                      
                       
                     
                   
                    
                      
                       
                     
                   
                    
                      
                       
                     
                   
                    
                      
                       
                     
                   
                 
                  
                    
                      
                       
                     
                   
                    
                      
                       
                     
                   
                    
                      
                       
                     
                   
                    
                      
                       
                     
                   
                    
                      
                       
                     
                   
                    
                      
                       
                     
                   
                 
                  
                    
                      
                       
                     
                   
                    
                      
                       
                     
                   
                    
                      
                       
                     
                   
                    
                      
                       
                     
                   
                    
                      
                       
                     
                   
                    
                      
                       
                     
                   
                 
                  
                    
                      
                       
                     
                   
                    
                      
                       
                     
                   
                    
                      
                       
                     
                   
                    
                      
                       
                     
                   
                    
                      
                       
                     
                   
                    
                      
                       
                     
                   
                 
                  
                    
                      
                       
                     
                   
                    
                      
                       
                     
                   
                    
                      
                       
                     
                   
                    
                      
                       
                     
                   
                    
                      
                       
                     
                   
                    
                      
                       
                     
                   
                 
                  
                    
                      
                       
                     
                   
                    
                      
                       
                     
                   
                    
                      
                       
                     
                   
                    
                      
                       
                     
                   
                    
                      
                       
                     
                   
                    
                      
                       
                     
                   
                 
                  
                    
                      
                       
                     
                   
                    
                      
                       
                     
                   
                    
                      
                       
                     
                   
                    
                      
                       
                     
                   
                    
                      
                       
                     
                   
                    
                      
                       
                     
                   
                 
                  
                    
                      
                       
                     
                   
                    
                      
                       
                     
                   
                    
                      
                       
                     
                   
                    
                      
                       
                     
                   
                    
                      
                       
                     
                   
                    
                      
                       
                     
                   
                 
                  
                    
                      
                       
                     
                   
                    
                      
                       
                     
                   
                    
                      
                       
                     
                   
                    
                      
                       
                     
                   
                    
                      
                       
                     
                   
                    
                      
                       
                     
                   
                 
                  
                    
                      
                       
                     
                   
                    
                      
                       
                     
                   
                    
                      
                       
                     
                   
                    
                      
                       
                     
                   
                    
                      
                       
                     
                   
                    
                      
                       
                     
                   
                 
                  
                    
                      
                       
                     
                   
                    
                      
                       
                     
                   
                    
                      
                       
                     
                   
                    
                      
                       
                     
                   
                    
                      
                       
                     
                   
                    
                      
                       
                     
                   
                 
                  
                    
                      
                       
                     
                   
                    
                      
                       
                     
                   
                    
                      
                       
                     
                   
                    
                      
                       
                     
                   
                    
                      
                       
                     
                   
                    
                      
                       
                     
                   
                 
                  
                    
                      
                       
                     
                   
                    
                      
                       
                     
                   
                    
                      
                       
                     
                   
                    
                      
                       
                     
                   
                    
                      
                       
                     
                   
                    
                      
                       
                     
                   
                 
                  
                    
                      
                       
                     
                   
                    
                      
                       
                     
                   
                    
                      
                       
                     
                   
                    
                      
                       
                     
                   
                    
                      
                       
                     
                   
                    
                      
                       
                     
                   
                 
                  
                    
                      
                       
                     
                   
                    
                      
                       
                     
                   
                    
                      
                       
                     
                   
                    
                      
                       
                     
                   
                    
                      
                       
                     
                   
                    
                      
                       
                     
                   
                 
                  
                    
                      
                       
                     
                   
                    
                      
                       
                     
                   
                    
                      
                       
                     
                   
                    
                      
                       
                     
                   
                    
                      
                       
                     
                   
                    
                      
                       
                     
                   
                 
                  
                    
                      
                       
                     
                   
                    
                      
                       
                     
                   
                    
                      
                       
                     
                   
                    
                      
                       
                     
                   
                    
                      
                       
                     
                   
                    
                      
                       
                     
                   
                 
                  
                     
                 
               
             
           
            
                Prepared 
              by Staff Member    
                
               
                
              
                 Date     
             
               
               
                
           
            
               Manager's Approval   
                
               
                
              
                 Date     
             
               
               
                
           
            
              A 
              Tennessee Board of Regents Institution 
              An Equal Opportunity - Affirmative Action University     
           
         
	   
     
   
 
   
  
 
 
