Request for parking in Zach Curlin Garage - 24 hr Hub Access in the University Center  
 
 
 
 Request for parking in Zach Curlin Garage - 24 hr Hub Access in the University Center 
 


 
 

 
    
       
      
         Request for parking in Zach Curlin Garage 24 hr Hub Access in the University Center 	
           Click here for online help.   
     
   
 
 * All fields are required 
 
 
	 *First Name:  
 
 
	 *Last Name:  
 
 
	 *Banner ID:  
 
 
	 *UUID/User name  (Example: ttiger3) :  @memphis.edu
 
 
	 *Parking Permit (tag) Number:  
 
 
	 
 
 
 The University of Memphis, one of the Tennessee Board of Regents institutions, is an Equal Opportunity/Affirmative Action University. 
 
 
