The University of Memphis   
 
 The University of Memphis 
 

 
 
 
   
       
        Purchasing Cardholder Enrollment Form   
              Click here for online help.   
        Return form to: Procurement and Contract Services  
        ATTN: Procurement Specialist 
        115 Administration Building, Memphis, TN 38152 
        Fax: (901) 678-2102     
   
 
   CARD TYPE: PURCHASING CARD   
 Cardholder Authorization Parameters  
 
   
     Single Spending limit:
       
         $500 
         $1,000 
         $2,000 
         $3,000 
         $4,000 
         $4,999 
       
     
     Daily Spending limit:
       
         $500 
         $1,000 
         $2,000 
         $3,000 
         $4,000 
         $5,000 
         $10,000 

       
     
     Monthly Spending limit:
       
         $2,000 
         $3,000 
         $4,000 
         $5,000 
         $10,000 
         $20,000 
         $30,000 
         $40,000 
       
     
   
 
  Per transaction:     Contact Card Reviewer regarding limit concerns   
 
 Cardholder Information 
 
   
     Name on the Card (24 characters):
        Banner ID:   
   
   
     Job Title:
       
Last Four Digits Social Security Number:
  
   
   
     Department:
        
     
     
         
           Default FOPAL: 
                       
                       
                       
                       
         
         
             
            Fund  
            Organization  
            Program  
            Activity  
         
        
   
   
     E-mail address:
 
Office Phone Extension:
 
Home Phone Number:
 
Date of Birth:
  
   
 
  
  
Administrator  
 
   
     Name of Card Administrator:
       
      Phone:
        
   
   
     Job Title:
       
      E-mail:
        
   
 
  
Reviewer 
 
   
     Name of Card Reviewer:
      	 
      Phone:
        
   
   
     Job Title:
       
      E-mail:
        
   
  
 

   
Department Head
 
 
   
     Name of Department Head:
      	 
      Phone:
      
   
   
     Job Title:
       
      E-mail:
      
   
  
 
   
Dean, Provost, or Vice President
 
 
   
     Name of Dean, Provost, or Vice President:
      	 
      Phone:
      
   
   
     Job Title:
       
      E-mail:
      
   
  
 
  By my signature, I certify that I have read, understand, and will abide by the policies, procedures, and guidelines pertaining to responsible card use and further understand that card privileges may be revoked/terminated for non-compliance.  
   
 
   
            __________________________________________ 
      Cardholder Signature  
            ____________________ 
      Date   
   
   
      
      __________________________________________ 
      Card Administrator Signature 
      
      ____________________ 
      Date  
   
   
      
      __________________________________________ 
      Card Reviewer Signature  
      
      ____________________ 
      Date  
   
 
  As the Department Head, I agree to notify  Procurement and Contract Services within seven (7) business days of the termination or  transfer of the above-named cardholder, reviewer, or administrator and to abide  by other policies and guidelines pertaining to the University of Memphis  Purchasing Card.  
 
   
     __________________________________________ 
      Department Head Signature  
     ____________________ 
      Date  
   
   
       
       As Dean, Provost, or Vice President, I agree and approve this request.  
       
       
      __________________________________________ 
      Dean, Provost, or Vice President Signature   
      
       
       
       
       
       
      ____________________ 
      Date  
   
 
 The University of Memphis is an Equal Opportunity/Affirmative Action University. 
 
 
