Request for e~Print Departmental Budget Reports Access Request for e~Print Departmental Budget Reports Access  
 
 Request for e~Print Departmental Budget Reports Access 
 
 

 
 
 
   
       
      Request for e~Print Departmental Budget Reports Access 
        General Online Help  
       Please allow a two-week minimum turnaround time after submitting form. Submit form to Scates Hall, Room 311 Fax: 678-3061 Email scanned forms to  itsas@memphis.edu   
   
 



 
   
      
         
            
             
                           
               Add  or
                           
               Remove  access for the following employee to 
               the appropriate departmental budget reports FYBR005   FYBR006:  
                
               
                        
         
         
           Name:  
                         
         
         
           Username: 
                         
         
         
           Banner UID: 
                         
         
         
           Position 
            Number:  
                         
         
         
           Job 
            Title: 
                         
         
         
           E-Class: 
                         
         
         
           Organization Code(s) : 
             
         
       
       As an employee of The University of Memphis (or acting as an agent of the University),
          I am aware that the data and materials to which I may have access are to be treated in
          a professional and confidential manner. I agree herein, as a consideration of my employment,
          that I will not disclose or cause to be disclosed any such confidential information gained
          in the course of my employment at any time.  
        I am aware that any breach of the
          confidentiality of this material or any abuse of my position, including but not limited
          to alteration of records, destruction of records or other similar acts, may result
          in disciplinary action or constitute a basis for termination of employment. 
           
           
          Employee Signature:_______________________________________Date____________  
           
        I understand that 
        the ultimate responsibility for any action taken by the above individual 
      is mine.  
         Financial Manager's Title:
           
       
         Financial
          Manager's Name:
           
          Username:
           
       
         Financial Manager's Signature:___________________________________ Date:___________ 
       Contact Person:
         
        Phone:
         
        Username  (e.g., jsmith) :
         
     
      
 
 The University of Memphis, one of the Tennessee Board of Regents institutions, is an Equal Opportunity/Affirmative Action University. 
 
 
