 Open Forum for Independent Governing Legislation   

 
 
     
	Open Forum for Independent Governing Legislation
   
    
    
      
 
 
     60f73581228d4077b896d0335cf0dacc1d 
     /Mediasite/PlayerService/PlayerService.svc/json 
      
      
     1 
    
 
  Initializing...  


  
  

 
 


