 The Inauguration of Dr. M. David Rudd    

 
	      
	The Inauguration of Dr. M. David Rudd
 
 

  
     
         
 




 
 

        	 
				  
				  
			 

             
             

             
                

	 
        Welcome Guest
      
	 
         Login 
     	
    

             
         
                
     
 

