University of Memphis | Off Campus Housing Search | Help | Frequent Questions Find Off-Campus housing and roommates near U of M. Log in as a student, guest or property manager to get started.  
 
 
 
     
 
	 

	 University of Memphis | Off Campus Housing Search | Help | Frequent Questions 
     
     

	 
		 

	 
	 
	 
	 
	 
	 

	 
	 

	 
	 
     
	 
	 
	 
	 
	 

    
	
	




 

 

	 Skip to main 


	



	 

		 
			 
	 

		  University of Memphis   Off-Campus Housing 
			 
 
			 
				 
					   Menu 
				 
			 
		 

		 
		
 
     
         
             
                 
                 
                     
                        Home
                     
                 

             
            


     
         
            Housing         

        
             
            
        
     



     
         
            Roommates
         
     

     
         
            Message Boards         
     


     
         
            Resources
         
     


 
     Help 
 

             
         
     

     
	 
			  Sign Up  
		  Log In  
		 
	 
		 Sign up to add a listing! 	 
	
 

 

		 
		
		 
			 
	 Help  /

	Frequent Questions
 
	 
         
			 Search 
			 
         
         
             
         
	 
 

 
 

 
      
      
    Help Menu
 

 

     
          Getting Started     
         
                 
             
                Students              
                 
             
                Property Manager              
                 
     
          Frequent Questions     
         
                 
             
                Student Questions              
                 
             
                Property Manager Questions              
                 
             
                General Questions              
                 
     
          Reset Your Password     
         
                 
     
          Contact Us     
         
                 
 


 
	 
		  
		Frequent Questions	 
	 

	
	
	 
	  
	 
	 Student Questions 
	 
	 
	  
	 
	 Property Manager Questions 
	 
	 
	  
	 
	 General Questions 
	 



 		 

	  

	 
		 
			 
			  									 
				  Privacy Policy  
				  Disclaimer  
                  Sitemap  
				  Contact Us  
							 
			 Copyright   2017 Off Campus Partners, LLC. All rights reserved. 
		   
         
         
     
             
 
	 



	 



	
	
		

	
	



 
 
