Immigration Executive Order &#8211; The University of Memphis President&#039;s Blog   


 

 
 
 
 


 
 
 
 

 



 Immigration Executive Order   The University of Memphis President s Blog 
 
 
 
 
 
		
		
 
 
 
 
 
 
 
 
 



 
 
  
 
 
 

 
 
 
 
			

         
 		
		



 
 
 
 

 

 


  Skip to content  




 

	
	 

		
		 

			
			 

				
						  The University of Memphis President s Blog  

					
			  

		  

		
		 

			 Primary Menu 
			 Menu 

			
			 
				 
					 
				 
					 Search for: 
					 
				 
				 
			 				 
			 

			 

			  
  Home    About the President  
  

		  

		 

		
		
			
				 

			
		
		 

		
	  

	
	 
	 

		
		 

			
			
	
	 

		
		
		 

			
			 Immigration Executive Order 
			
			 

				   Author   Jeanine Hornish Rakow     Published on    March 19, 2017  March 27, 2017     Leave a comment  
			  

			
		  

		
		 

			 Dear Campus Community: 
 There continue to be questions from students, faculty and staff regarding the latest executive order from President Trump, particularly with federal judges in Hawaii and Maryland issuing restraining orders that temporarily stay the 90-day suspension of entry by citizens of Iran, Libya, Somalia, Sudan, Syria and Yemen. 
 I want to remind our campus community that we are here to support you. If you have questions or need assistance, please do not hesitate to reach out. The following resources are available: 
 1. Center for International Education Services (901.678.2055) 
2. Student Counseling Center (901.678.2068) 
3. Office of Legal Counsel (901.678.1565) 
 We recognize that this latest executive order and related legal process may well raise questions and concerns. I will work with our Center for International Education Services and Office of Legal Counsel to arrange an open question-and-answer session in the next two weeks. Provost Weddle-West and I will be in attendance. I look forward to talking with you directly in the very near future. 
 Warm Regards, 
 M. David Rudd 
President | Distinguished University Professor 

		  

		
		 

			  Published on    March 19, 2017  March 27, 2017      Author   Jeanine Hornish Rakow   
			
		  

		
	  

	
				
	 
		 Post navigation 
		    Previous article:  U.S. News   World Report Graduate Program Rankings      Next article:  Inaugural Board of Trustees Meeting    
	 
				

 

	
		 
		 Leave a Reply   Cancel reply   			 
				  Your email address will not be published.  Required fields are marked  *    Comment       Name  *     
  Email  *     
    
 
 

	 
	 
	 Notify me of followup comments via e-mail 
	 


			 
			  
	
  


			
			
		  

		
	  


	
		
		
		 

		 Main Sidebar 

			
			  
				 
					 Search for: 
					 
				 
				 
			  		 		 Recent Posts 		 
					 
				 UofM Quality Indicator Score 
						 
					 
				 University of Memphis Research Foundation Announces Grand Opening of Student-Operated FedEx Call Center 
						 
					 
				 Pause to Grieve 
						 
					 
				 University of Memphis Magazine: Fall 2017 
						 
					 
				 Campus Update 
						 
				 
		 		  Recent Comments      Archives 		 
			  October 2017  
	  September 2017  
	  August 2017  
	  July 2017  
	  June 2017  
	  May 2017  
	  April 2017  
	  March 2017  
	  February 2017  
	  January 2017  
	  December 2016  
	  November 2016  
	  October 2016  
	  September 2016  
	  August 2016  
	  July 2016  
	  June 2016  
	  May 2016  
	  April 2016  
	  March 2016  
	  February 2016  
	  January 2016  
	  December 2015  
	  November 2015  
	  October 2015  
	  September 2015  
	  August 2015  
	  July 2015  
	  June 2015  
	  May 2015  
	  April 2015  
	  March 2015  
	  February 2015  
	  January 2015  
	  December 2014  
	  November 2014  
	  October 2014  
	  September 2014  
	  August 2014  
	  July 2014  
	  June 2014  
	  May 2014  
	  April 2014  
		 
		   Categories 		 
	  Uncategorized 
 
		 
   Meta 			 
						  Log in  
			  Entries  RSS   
			  Comments  RSS   
			  blogs.memphis.edu  
						 
 
			
		  

		
		  

	
	
	 

		
		 Footer Content 

		 
		
			
				
				
								
			
		  
	
		 

			
			
			Using  Tiny Framework     
			
			   Log in  

		  
		
		 

			
			

 

	 Social Links Menu 

	      i class= fa fa-twitter   /i    
  
  

			
		  

		
	  

	
  


        

        









		 
							 Skip to toolbar 
						 
				 
		  University of Memphis   
		  University Home 		 
		  Memphis Blogs 		 
		  Blogging Help 		   		 
		  Log In 		   
		     Search    		  			 
					 

		
 
 
 