THEC Scorecard Update &#8211; The University of Memphis President&#039;s Blog   


 

 
 
 
 


 
 
 
 

 



 THEC Scorecard Update   The University of Memphis President s Blog 
 
 
 
 
 
		
		
 
 
 
 
 
 
 
 
 



 
 
  
 
 
 

 
 
 
 
			

         
 		
		



 
 
 
 

 

 


  Skip to content  




 

	
	 

		
		 

			
			 

				
						  The University of Memphis President s Blog  

					
			  

		  

		
		 

			 Primary Menu 
			 Menu 

			
			 
				 
					 
				 
					 Search for: 
					 
				 
				 
			 				 
			 

			 

			  
  Home    About the President  
  

		  

		 

		
		
			
				 

			
		
		 

		
	  

	
	 
	 

		
		 

			
			
	
	 

		
		
		 

			
			 THEC Scorecard Update 
			
			 

				   Author   Jeanine Hornish Rakow     Published on    December 14, 2016  December 19, 2016     Leave a comment  
			  

			
		  

		
		 

			 Dear Faculty and Staff: 
 Below you will find our most recent THEC scorecard for "student access and success". We are in the second year of funding for this particular outcome, with a score of 22 out of a possible 25 points. As you can see, we received the maximum available points in four of five identified categories, with the number of veteran graduates dropping a bit this year. Through specific designation in formula funding, THEC is incentivizing our efforts with the focus populations mentioned. We have a number of strategies in place to not only increase the number of Veteran students on campus, but also facilitate improved outcomes like graduation. 
 Congratulations on a job well done! 
   
 Warm Regards, 
 M. David Rudd 
President | Distinguished University Professor 

		  

		
		 

			  Published on    December 14, 2016  December 19, 2016      Author   Jeanine Hornish Rakow   
			
		  

		
	  

	
				
	 
		 Post navigation 
		    Previous article:  UofM Global Update      Next article:  UofM Global    
	 
				

 

	
		 
		 Leave a Reply   Cancel reply   			 
				  Your email address will not be published.  Required fields are marked  *    Comment       Name  *     
  Email  *     
    
 
 

	 
	 
	 Notify me of followup comments via e-mail 
	 


			 
			  
	
  


			
			
		  

		
	  


	
		
		
		 

		 Main Sidebar 

			
			  
				 
					 Search for: 
					 
				 
				 
			  		 		 Recent Posts 		 
					 
				 UofM Quality Indicator Score 
						 
					 
				 University of Memphis Research Foundation Announces Grand Opening of Student-Operated FedEx Call Center 
						 
					 
				 Pause to Grieve 
						 
					 
				 University of Memphis Magazine: Fall 2017 
						 
					 
				 Campus Update 
						 
				 
		 		  Recent Comments      Archives 		 
			  October 2017  
	  September 2017  
	  August 2017  
	  July 2017  
	  June 2017  
	  May 2017  
	  April 2017  
	  March 2017  
	  February 2017  
	  January 2017  
	  December 2016  
	  November 2016  
	  October 2016  
	  September 2016  
	  August 2016  
	  July 2016  
	  June 2016  
	  May 2016  
	  April 2016  
	  March 2016  
	  February 2016  
	  January 2016  
	  December 2015  
	  November 2015  
	  October 2015  
	  September 2015  
	  August 2015  
	  July 2015  
	  June 2015  
	  May 2015  
	  April 2015  
	  March 2015  
	  February 2015  
	  January 2015  
	  December 2014  
	  November 2014  
	  October 2014  
	  September 2014  
	  August 2014  
	  July 2014  
	  June 2014  
	  May 2014  
	  April 2014  
		 
		   Categories 		 
	  Uncategorized 
 
		 
   Meta 			 
						  Log in  
			  Entries  RSS   
			  Comments  RSS   
			  blogs.memphis.edu  
						 
 
			
		  

		
		  

	
	
	 

		
		 Footer Content 

		 
		
			
				
				
								
			
		  
	
		 

			
			
			Using  Tiny Framework     
			
			   Log in  

		  
		
		 

			
			

 

	 Social Links Menu 

	      i class= fa fa-twitter   /i    
  
  

			
		  

		
	  

	
  


        

        









		 
							 Skip to toolbar 
						 
				 
		  University of Memphis   
		  University Home 		 
		  Memphis Blogs 		 
		  Blogging Help 		   		 
		  Log In 		   
		     Search    		  			 
					 

		
 
 
 