 LibAnswers - LibAnswers   
 
 
 
	 
	 
	   
	 
		 
	 
	
     
        LibAnswers - LibAnswers     

		
    
    
    	
		
 
 
	 Skip to Main Content 
	 
		 
	 
		 
				 
				 
					  University Libraries Home Page  
					  LibAnswers   
				 
			  
				  
					 LibAnswers 
					  
				  
			  
				 
					 
			    		 
							   Toggle menu visibility 
						 
						
			    	 
			    	
			    	 		
						  Ask Another Question  
			 
			
			
			  Ask Another Question   
				 
			 
				
				 Search 
			 
			 
		  
						 
							  Browse:  
							  All  
							
							 
				 Topics    
				    36  Access to Resources      2  Alumni      7  Articles      13  Campus Resources      12  Catalog      11  Circulation      6  Citations      3  Collections      8  Computers      5  Copying      28  Databases      2  Dissertations & Theses      2  Ebooks      2  Educational Support Program      2  Faculty      2  Genealogy      18  Government Resources      1  Group Study Rooms      7  Guests      6  Hours and Locations      5  Instructional Services      6  Interlibrary loan      3  IT Helpdesk      6  Journals      3  Laptops      13  Library Services & Policies      2  Microform      5  Newspapers      1  Nursing      1  Obituaries      1  Off Campus      1  Periodicals      1  Preservations & Special Collections      9  Printing      1  Reciprocal Borrowing      2  RefWorks      7  Research Guides      22  Research Help      5  Reserve Room      3  RODP      1  Scanners      6  Statistics      4  Tests & Testing      2  Textbooks      2  Tutoring      7  UUID & Password      13  Video Tutorials      21  Websites      4  Writing    
			 
						 
	
					 
				 
			   
			  
		    
				 
					  Topics   
					   
  Access to Resources    Alumni    Articles    Campus Resources    Catalog    Circulation    Citations    Collections    Computers    Copying    Databases    Dissertations & Theses    Ebooks    Educational Support Program    Faculty    Genealogy    Government Resources    Group Study Rooms    Guests    Hours and Locations     Instructional Services    Interlibrary loan    IT Helpdesk    Journals    Laptops    Library Services & Policies    Microform    Newspapers    Nursing    Obituaries    Off Campus    Periodicals    Preservations & Special Collections    Printing    Reciprocal Borrowing    RefWorks    Research Guides    Research Help    Reserve Room    RODP    Scanners    Statistics    Tests & Testing    Textbooks    Tutoring    UUID & Password    Video Tutorials    Websites    Writing     View All Topics     
					
				 
			  
				 
					  Library Services   
					  
			            


		  
					
				 
			    
				 
					  Search Results   
					  
					
				 
			    
				 
					  Contact Us   
					      
					
				 
			  
				 
					  Other Ways to Contact Us   
					  
			                                   
                                


		  
					
				 
			    
			  
				 
					     
					  
			      University Libraries  -  The University of Memphis  - Memphis, TN 38152 - 901-678-2205 


		  
					
				 
			  
		   
    		  Powered by   Springshare ; All rights reserved.   Report a tech support issue.     Login to LibApps    	 
	 
		 
          
 
 