Graduate Assistant Meritorious Teaching Awards - Graduate School - University of Memphis    










 
 
 
     



 
    
    
    Graduate Assistant Meritorious Teaching Awards - 
      	Graduate School 
      	 - University of Memphis
    
    
    
    
    
    
    
    
    
    
    
    
    
    
    
    
    
    
    
    
    
    
    
    
    
   
   
   






   
   
   
    
    
 
 
   
   
   
   
 
    
   
   
    
      
      
          
     
    
       
          
             
                
				    
					     
                   
      
                
                
                    
                
                
                   
                      
                         
                            
                               
                                   Lambuth Campus  
                                   myMemphis  
                                   Webmail  
                                   Faculty   Staff  
                                   Contact  
                                   Directories  
                               
                            
                            
                               Search 
                               
							   
							      
						 Site Index 
                            
                             
                         
                      
                   
                   
                      
                         
                            
                                Academics    
                                  
                                      Academics Overview  
                                      Colleges   Schools  
                                      Undergraduate Catalog  
                                      Graduate Catalog  
                                      Honors Program  
								      UofM Global  
                                  
                               
                                Admissions    
                                  
                                      Admissions Information  
                                      Undergraduate Students  
                                      Graduate Students  
                                      Law Students  
                                      International Students  
                                  
                               
                                Athletics    
                                  
                                      Tiger Athletics  
                                      Ticket Information  
                                      Intramurals  
                                      Make A Gift  
                                      Rec Center  
                                      gotigersgo.com  
                                  
                               
                                Research    
                                  
                                      Research   Sponsored Programs  
                                      Research Resources  
                                      Centers/Chairs of Excellence  

                                      Centers and Institutes  
									  FedEx Institute of Technology  
                                      electronic Research Administration (eRA)  
									  Office of Institutional Research  
                                  
                               
                                Support UofM    
                                  
                                      Development  
                                      Make a Gift  
                                      Alumni Association  
                                      Athletics Development  
                                  
                               
                                Libraries    
                                  
                                      University Libraries  
                                      Libraries Resources  
                                      Libraries Services  
                                      Special Collections  
                                      Ask a Librarian  
                                  
                               
                            
                         
                      
                   
                
             
             
                
                   
                      Resources for... 
                      
                          Prospective Students  
                          Current and Returning Students  
                          Parents  
                          Alumni  
                          Veterans  
                      
                       Expand Menu  
                   
				   			   
                
             
          
       
    
          
      
          
    
       
          
             
                
                   
                       
                           			Graduate School
                           	 
                          
                   
                
             
          
       
       
          
             
                
                   
                      
                          Future Students  
                          Current Students  
                          Degrees  
                          News   Events  
                          Resources  
                          Contact Us  
                      
                   
                
             
          
          
             
                
                   
                      
                          Home  
                          
                              	Graduate School 
                              	  
                          
                              	
                              	  
                         Graduate Assistant Meritorious Teaching Awards 
                      
                   
                   
                       
                      
                     
                     		
                     
                     
                      Graduate Assistant Meritorious Teaching Awards 
                     
                      These awards acknowledge the importance of the instructional enterprise in the transmission,
                        creation, and application of advanced knowledge by the university. Two awards are
                        made annually to outstanding graduate teaching assistants (TAs) for their skill in
                        transmitting knowledge in the classroom or laboratory.
                      
                     
                       Eligibility:  
                     
                      
                        
                         Must have had major responsibility for teaching a lecture or a laboratory course 
                        
                         Must have completed at least one full term of teaching 
                        
                         Must have the support of the department offering the course 
                        
                         Must be enrolled in classes Fall semester. 
                        
                      
                     
                       Application Process:  Candidates are nominated by faculty, students, or alumni by completing the  Nomination Form  and submitting it with all  required documentation  to the Dean of the College in which the student is teaching. Deans will determine
                        a method of selecting no more than two nominees to be forwarded to the Graduate School
                        from that college.
                      
                     
                       EXCEPTION:  The College of Arts and Sciences may forward a maximum of two nominees from each
                        of the following subdivisions: 1) natural, physical, biological, and mathematical
                        sciences, and 2) humanities and social sciences. The selected nominations from each
                        of the colleges are sent to the Teaching Awards Committee appointed by the Dean of
                        the Graduate School. The Awards Committee will review all applicants on the following
                        criteria:
                      
                     
                      
                        
                         Innovations and/or creative approaches to the teaching function 
                        
                         Impact of the TA upon student attitudes and/or learning skills 
                        
                         Assessment by faculty supervisors and/or others familiar with the TAs teaching ability 
                        
                         Evidence of the TAs potential as a scholar 
                        
                      
                     
                       Deadline:  Colleges/schools will submit nominees to the Graduate School, 201C FedEx Institute
                        of Technology Building, by  March 15, 2018.  
                     
                       No teaching award may be made to the same individual more than once in a six-year
                           period.  
                     
                      For further information, call 901.678.4212 or e-mail  jdhaliwl@memphis.edu .
                      
                     
                     
                     	
                      
                   
                
                
                   
                      
                      
                         
                            
                                Apply Now!  
                               Take the first step toward your advanced degree. 
                            
                            
                                Degree Programs  
                               Explore our graduate catalog. 
                            
                            
                                Support Graduate Education  
                               Your gift makes a difference! 
                            
                            
                                Contact Us  
                               Questions? The Grad School Staff can help! 
                            
                         
                      
                      
                      
                   
                   
                
                
             
             
          
          
       
    
    
    
      
      
       
 
    
       
          
             
                 Full sitemap   
             
             
                
                   
                      Admissions 
                      
                         
                             Prospective Students  
                             Undergraduate  
                             Graduate  
                             Law School  
                             International  
                             Parents  
                             Scholarship   Financial Aid  
                             Tuition   Fee Payment  
                             FAQs  
                             About UofM  
                         
                      
                   
                   
                      Academics 
                      
                         
                             Provost's Office  
                             Libraries  
                             Transcripts  
                             Undergraduate Catalog  
                             Graduate Catalog  
                             Academic Calendars  
                             Course Schedule  
                             Financial Aid  
                             Graduation  
                             Honors Program  
						     eCourseware  
                         
                      
                   
                   
                      Athletics 
                      
                         
                             Gotigersgo.com  
                             Ticket Information  
                             Intramural Sports  
                             Recreation Center  
                             Athletic Academic Support  
                             Former Tigers  
                             Facilities  
                             Tiger Scholarship Fund  
                             Media  
                         
                      
                   
				    
                   
                      Research 
                      
                         
                             Sponsored Programs  
                             Research Resources  
                             Centers   Institutes  
                             Chairs of Excellence  
                             FedEx Institute of Technology  
                             Libraries  
                             Grants Accounting  
                             Environmental Health  
                             Office of Institutional Research  
                         
                      
                   
                   
                      Support UofM 
                      
                         
                             Make a Gift  
                             Alumni Association  
                             Year of Service  
                         
                      
                   
                   
                      Administrative Support 
                      
                         
                             President's Office  
                             Academic Affairs  
                             Business   Finance  
                             Career Opportunities  
                             Conference   Event Services  
                             Corporate Partnerships  
  Development Office  
                             Government Relations  
                             Information Technology Services  
                             Media and Marketing  
                             Student Affairs  
                         
                      
                   
                
             
          
          
             
				    
                  
                
             
             
                   
                  
                
             
             
                
                   Follow UofM Online 
                     UofM Facebook     UofM Twitter     UofM YouTube   
                    
                   
                     UofM Instagram     UofM Pinterest     UofM LinkedIn   
                
             
              
                   
                      
                   
                
      
          
       
    
 
 
      
      
      
       
          
             
                
                   
                      
                         
                            
                               
                                 
                                 
                                  
  Print  
  Got a Question? Ask TOM  
  Copyright © 2017 University of Memphis  
  Important Notice  
                                  
                                 
                                 
                                  
                                     Last Updated: 11/3/17 
                                  
                                 
                                 
                                  
  University of Memphis  
 Memphis, TN 38152 
 Phone: 901.678.2000 
 
  
 The University of Memphis does not discriminate against students, employees, or applicants for admission or employment on the basis of race, color, religion, creed, national origin, sex, sexual orientation, gender identity/expression, disability, age, status as a protected veteran, genetic information, or any other legally protected class with respect to all employment, programs and activities sponsored by the University of Memphis. The Office for Institutional Equity has been designated to handle inquiries regarding non-discrimination policies. For more information, visit  University of Memphis Equal Opportunity and Affirmative Action .  
Title IX of the Education Amendments of 1972 protects people from discrimination based on sex in education programs or activities which receive Federal financial assistance. Title IX states: "No person in the United States shall, on the basis of sex, be excluded from participation in, be denied the benefits of, or be subjected to discrimination under any education program or activity receiving Federal financial assistance..." 20 U.S.C. § 1681 - To Learn More, visit  Title IX and Sexual Misconduct .
 
 
                                 
                                 
                                 
                               
                            
                         
                      
                   
                
             
          
       
    
   
   
   
   
   
   
 



 


