Events for December 2017 &#8211; On Legal Grounds | Memphis Law Events &amp; Announcements    
 

 
	 
	 
	 
	 
	
	 Events for December 2017   On Legal Grounds | Memphis Law Events   Announcements 
 

 
 
 
 
 
		
		
 
 
 
 
 
 
 
 
 
 
 
 
 
 
 
 
 
 
 
 
 

















 
 
  
 
 
    
  

 

 

 

	 
	
				
		 
			 
				
				 
					     
					 On Legal Grounds | Memphis Law Events   Announcements 									 
				
									 
						    
						   
						    Student Organizations 
 
	  AWA  
	  BLSA  
	  Bus.   Tax Law Society  
	  Christian Legal Society  
	  Federalist Society  
	  Health Law Society  
	  HLSA  
	  Honor Council  
	  ILS  
	  Law Review  
	  Memphis Law +1  
	  Moot Court Board  
	  OutLaw  
	  PAD  
	  PALS  
	  SELS  
	  SBA  
	  SGA  
	  Street Law  
	  TACDL  
 
 
  Law School Announcements 
 
	  Academic Affairs 
	 
		  Academic Affairs Calendar  
	 
 
	  Academic Success Program 
	 
		  Academic Success Program Calendar  
	 
 
	  Career Services Office 
	 
		  Career Services Office Calendar  
	 
 
	  Information Technology 
	 
		  Information Technology Calendar  
	 
 
	  Law Admissions, Recruiting,   Scholarships 
	 
		  Law Admissions, Recruiting, and Scholarships Calendar  
	 
 
	  Law School Registrar 
	 
		  Law School Registrar Calendar  
	 
 
	  Library 
	 
		  Library Calendar  
	 
 
	  Office of the Dean 
	 
		  Office of the Dean Calendar  
	 
 
	  Office of Diversity 
	 
		  Office of Diversity Calendar  
	 
 
	  Pro Bono Office 
	 
		  Pro Bono Office Calendar  
	 
 
	  Student Affairs 
	 
		  Student Affairs Calendar  
	 
 
 
 
  Blog Information  
  Writing Competitions  
  Events  
  
					  
								
			  
		  
		
	  
	
	 
		 			
			 
				 
 
	
	 

			  
	
	
  	
	 
		
				
			 
				
									
				 
					        

 

	 

		 

		 
			Find Events  
		 

		 
					 
				 
					 Event Views Navigation 
					 View As 
					 
													 
								List							 
													 
								Month							 
													 
								Day							 
											 
				 
				 
			  
		
					 
				 
											 
							 Events In 
							  						 
											 
							 Search 
							 						 
										 
						 
					 
					 
				 
				 
			  
		
	 
	 

  

 

	 
		  Events for December 2017    Law Admissions, Recruiting, and Scholarships 
	
	 
	   No matching events listed under Law Admissions, Recruiting, and Scholarships. Please try viewing the full calendar for a complete list of events.   
	 
		 

		 
		

 Calendar Month Navigation 

 
	 
		     November  	 
	 
	 
			 
	 
  


	 
	 
	
	 
	

	 
		 
		 
							 Sunday 
							 Monday 
							 Tuesday 
							 Wednesday 
							 Thursday 
							 Friday 
							 Saturday 
					 
		 
		 
		 
						
			
			 
				
 
 

			26	
 

 

 
			 
						
			
			 
				
 
 

			27	
 

 

 
			 
						
			
			 
				
 
 

			28	
 

 

 
			 
						
			
			 
				
 
 

			29	
 

 

 
			 
						
			
			 
				
 
 

			30	
 

 

 
			 
						
			
			 
				
 
 

			1	
 

 

 
			 
						
			
			 
				
 
 

			2	
 

 

 
			 
								 
		 
			
			
			 
				
 
 

			3	
 

 

 
			 
						
			
			 
				
 
 

			4	
 

 

 
			 
						
			
			 
				
 
 

			5	
 

 

 
			 
						
			
			 
				
 
 

			6	
 

 

 
			 
						
			
			 
				
 
 

			7	
 

 

 
			 
						
			
			 
				
 
 

			8	
 

 

 
			 
						
			
			 
				
 
 

			9	
 

 

 
			 
								 
		 
			
			
			 
				
 
 

			10	
 

 

 
			 
						
			
			 
				
 
 

			11	
 

 

 
			 
						
			
			 
				
 
 

			12	
 

 

 
			 
						
			
			 
				
 
 

			13	
 

 

 
			 
						
			
			 
				
 
 

			14	
 

 

 
			 
						
			
			 
				
 
 

			15	
 

 

 
			 
						
			
			 
				
 
 

			16	
 

 

 
			 
								 
		 
			
			
			 
				
 
 

			17	
 

 

 
			 
						
			
			 
				
 
 

			18	
 

 

 
			 
						
			
			 
				
 
 

			19	
 

 

 
			 
						
			
			 
				
 
 

			20	
 

 

 
			 
						
			
			 
				
 
 

			21	
 

 

 
			 
						
			
			 
				
 
 

			22	
 

 

 
			 
						
			
			 
				
 
 

			23	
 

 

 
			 
								 
		 
			
			
			 
				
 
 

			24	
 

 

 
			 
						
			
			 
				
 
 

			25	
 

 

 
			 
						
			
			 
				
 
 

			26	
 

 

 
			 
						
			
			 
				
 
 

			27	
 

 

 
			 
						
			
			 
				
 
 

			28	
 

 

 
			 
						
			
			 
				
 
 

			29	
 

 

 
			 
						
			
			 
				
 
 

			30	
 

 

 
			 
								 
		 
			
			
			 
				
 
 

			31	
 

 

 
			 
						
			
			 
				
 
 

			1	
 

 

 
			 
						
			
			 
				
 
 

			2	
 

 

 
			 
						
			
			 
				
 
 

			3	
 

 

 
			 
						
			
			 
				
 
 

			4	
 

 

 
			 
						
			
			 
				
 
 

			5	
 

 

 
			 
						
			
			 
				
 
 

			6	
 

 

 
			 
					 
		 
	  

	 
		 

		 
				

 Calendar Month Navigation 

 
	 
		     November  	 
	 
	 
			 
	 
  

		
	 
	 
	 + Export Events 
	



	




  
        Calendar powered by  The Events Calendar  
 
					  
				  
				
			 
			
						
				
	  
	
  


	 
		
		    
		
		 
			
						 
				 Follow: 
							 
						
						
						
			   Law School Website                     		 		 Recent Posts 		 
					 
				 1L Minority Clerkship Program   Reception (Chattanooga) 
						 
					 
				 New resources! 
						 
					 
				 Community Legal Center Volunteer Opportunity 
						 
					 
				 Law School Bookstore 2 Day Sale   Dec. 6th and 7th! 
						 
					 
				 St. Jude Memphis Marathon/Downtown Street Closures 
						 
				 
		 		  Archives 		 
			  December 2017  
	  November 2017  
	  October 2017  
	  September 2017  
	  August 2017  
	  July 2017  
	  June 2017  
	  May 2017  
	  April 2017  
	  March 2017  
	  February 2017  
	  January 2017  
	  December 2016  
	  November 2016  
	  October 2016  
	  September 2016  
	  August 2016  
	  July 2016  
	  June 2016  
	  May 2016  
	  April 2016  
	  March 2016  
	  February 2016  
	  January 2016  
	  December 2015  
	  November 2015  
	  October 2015  
	  September 2015  
	  August 2015  
	  July 2015  
	  June 2015  
	  May 2015  
	  April 2015  
	  March 2015  
	  February 2015  
	  January 2015  
	  December 2014  
	  November 2014  
	  October 2014  
	  September 2014  
	  August 2014  
		 
		   Categories 		 
	  Academic Affairs 
 
	  Academic Success Program 
 
	  AWA 
 
	  BLSA 
 
	  Career Services Office 
 
	  Christian Legal Society 
 
	  Experiential Learning 
 
	  Federal Bar Association 
 
	  Federalist Society 
 
	  Health Law Society 
 
	  HLSA 
 
	  Honor Council 
 
	  ILS 
 
	  Information Technology 
 
	  Law Admissions, Recruiting,   Scholarships 
 
	  Law Review 
 
	  Law School Announcements 
 
	  Law School Registrar 
 
	  Library 
 
	  Memphis Law +1 
 
	  Mock Trial 
 
	  Moot Court Board 
 
	  National Lawyer s Guild 
 
	  Office of Diversity 
 
	  Office of the Dean 
 
	  OutLaw 
 
	  Outside Organizations 
 
	  PAD 
 
	  PALS 
 
	  Pro Bono Office 
 
	  SBA 
 
	  Sports   Entertainment Law Society 
 
	  Street Law 
 
	  Student Affairs 
 
	  Student Organizations 
 
	  Tennessee Association of Criminal Defense Lawyers 
 
	  Writing Center 
 
	  Writing Competitions 
 
		 
 			
		  
		
	  

	
 
	
	    
	
	 
		
				 
			 More 
		 
				
				
		  Search   
	 
		 
	 
    Login 					 
					 
										 
					 
					 
					  Username:  
					  
					  Password:  
					  
										  
					  Remember me  
															   
					 
					 
					 
					 
					 
					 
					 
					 
					 
					 
											  Don't have an account?  
										  Lost your password?  
					 
					
					 
					
										 
				
					 
					  Choose username:  
					  
					  Your Email:  
					  
										   
					 
					 
					 
					 
					 
					 
					 
					 
					   Have an account?   
					 
										
					 
			
					 
					  Enter your username or email:  
					  
										   
					 
					 
					 
					 
					 
					 
					 
					 
					   Back to login   
					 
					
					 
					
										  
					   
					 
					   Subscribe 	
	
 
	 
		 
		 
		 		
		
	 
		
		 
					  

		
 
		 Email Address *  
	 
  
 
		 First Name 
	 
  
 
		 Last Name 
	 
  
 
		 Middle Name 
	 
  			 
				* = required field			  
			
		 
			 
		  
	
	
				
	  
	  
  
	    Blog Feedback                     		
	  
	
  	

				  
			  			
		  
	  

	 
		
				
				
				
		 
			 
				
				    
				
				 
					
					 
						
												
						 
															 On Legal Grounds | Memphis Law Events   Announcements   2017. All Rights Reserved. 
													  
						
												 
							 Powered by  WordPress . Theme by  Alx . 
						  
												
					 
					
					 	
											 
				
				  
				
			  
		  
		
	  

  

 		
		












 
 
 