 :: Master Calendar ::   
 
 
 
 
 
 
      
	:: Master Calendar ::
   
    
    
	 
    


    
    

    
    
    
    
    
    
    
    
    
    
    
     
    
    
    
    
    

    
    

    
    
    
    
    
    
    
    
    
    
    
    
    
    
    
    
    
    
    
 
 
 
    
     
 




 
 
        
             
            




 
     
           
     
 



           
        
        
             
                 
                 
	EMS Master Calendar
 
             
        
        
             
                  
                
          
        
             
             
            
             
                     
               
            
     
          
          
         
             
                 It looks like you have enabled Internet Explorer Compatibility View.
Master Calendar works best if you turn this off. 
                 Dismiss 
             
            
             
             
                 

                     
                          
                         
                                
                             
                                Back to Calendar
                             
                         
                     

                     Search Results 

                     
                         
                             From: 
                             
                                 
                             
                         
                         
                             To: 
                             
                                 
                             
                         
                         
                             
                                 
                                     
                                          
                                           
                                         GO 
                                     
                                 
                             
                         
                     

                     
                          
                             
                             Use Selected Filters 

                             
                             Use Exact Match 
                            
                             
                                  General events 
                             
                             
                                  Special dates 
                             
                         
                     

                     
                         Your search for: '  ' returned (  ) result(s) 
                         
                             
                                 
                                    
                                       Export 
                                 
                             
                         

                         
                              
                                 
                                     
                                         
                                              
                                             Event Date 
                                            
                                         
                                         
                                              
                                             Title 
                                         
                                         
                                              
                                              
	Location
  
                                         
                                         
                                              
                                             Calendar 
                                          
                                            
                                     
                                     
                                          
                                     
                                     
                                         Load More Results 
                                     
                                 
                             
                         

                        
                        
                              
                                 
                                     
                                        
                                         
                                              
                                             Event Date 
                                            
                                         
                                         
                                              
                                             Title 
                                         
                                         
                                              
                                              
	Notes
  
                                         
                                         
                                              
                                             Calendar 
                                          
                                     
                                     
                                          
                                     
                                 
                             
                         
                         

                     
                 
             


             

                 
                     
                          
                     
                 

                
                 
                     
                         
                             
	                             
                         
                     
                 
                 

                 
                 
                     
                         
	Featured Events
 
                          
                     
                
                     
                         
                             
                                  
                                      
                                     
                                     
                                          
                                         
                                              
                                         
                                        
                                         
                                              
                                              
                                              
                                         
                                         
                                            more
                                         
                                     
                                     
                                            
                                            
                                     
                                 
                             
                             

                                 
                                      
                                      
                                 

                                 
                                      
                                 
                                
                                 
                                      
                                      
                                 

                             
                         
                     
                 
                 

                 
                 
                 
                     
                         
                            Events
                         
                         
                             
                                 
                                     
                                          
                                          
                                          
                                     
                                 
                                 
                                     
                                           Day 
                                           Week 
                                           Month 
                                     
                                 
                             
                         
                     
                 
                 

                 
                  
                     
                         
                               List 
                               Calendar 
                               Add Event 


                             
                                  
                                 
                                     Display as 
                                    
                                     
                                     
                                 
                             

                         
                     
                 
                 
                
                 
                 
                      
                 
                 

                 
                 
                     
                         
                              
                               
                             GO 
                         
                     
                 
                 


                 
                 
                       Select Calendar(s) 
                 
                 

                
                 
                 
                     
                            
                         
                            Back to events
                         
                     
                 
                  


                


                 
                
                     
                          
                     
                 
                 

                  
                
                      
                         
                             
                                 
                                      
                                     Event Date 
                                            
                                 
                                 
                                      
                                     Title 
                                 
                                 
                                      
                                      
	Location
  
                                 
                                 
                                      
                                     Calendar 
                                  
                                    
                             
                             
                                  
                             
                         
                     
                 
                 

                 
                  
                 
                     
                         X 

                         
                              
                              
                         
                         
                              
                              
                         
                         
                            
                              
                              
                             
                                 
                                     
                                 
                                 
                                     
                                 
                             
                              
                         
                          
                         more 
                          
                     
                 
                 
             


             
            
 
     
         
             
                 
                      
                      
                 
                
                
 
     

          
         
              guest 
              

              
             
                  
                 
                     
                         
                             
                                 User Id 
                                 
                                 
                                      
                                 
                             
                         
                         
                             
                                 Password 
                                 
                                    
                             
                         
                         
                             
                                 Time zone 
                                  
                                 
                                      
                                 
                             
                         
                         
                             Email me my password 
                               Login 
                               Cancel 
                            
                         
                     
                 
                 
                     
                         
                             
                                 Email 
                                 
                                    
                             
                         
                           Email Me 
                           Cancel 
                     
                 
             
         
        
     
  
                
             
         
     
     
         
     
     
         
             
                 
                      
                       
                     GO 
                 
             
         
     
     
         
                Notifications/iCal Feeds  
                      
         
     
     
         
             
                 Calendars   
             

             
                 
                      
                      
                 
             

             
                            
             
         
     
     
         
             
                Filters   
         
         
             
                 
                     
                         
	Event Types
  
                     
                     
                 
             
             
                 
                     
                         
	Locations
  
                     
                     
                 
             
             
                 
                     
                         
	Rooms
  
                     
                     
                 
             
             
                 
                     
                         
	Departments
  
                     
                     
                 
             
         
     
 


             
         

         
             
                 Footer 
             
         

     

     
     
     
     

     
     
         
            Announcements 
         
             x  
         
         
     

     
          
     
     

     
     
         
             
             
            Apply 
       
     
     
    
     
     
    
    

     


             
                 
                 
                  | 
                  RSS Feeds 
                  
             
             
                
             
             
                 
                 Loading 
            
          

         
             
                 Help Text  
           
             
                  
                     Edit 
                 
                  
             
         
    


 

 
 
 