Barbara Kritchevsky - School of Law - University of Memphis    










 
 
 
     



 
    
    
    Barbara Kritchevsky - 
      	School of Law 
      	 - University of Memphis
    
    
    
    
    
    
    
    
    
    
    
    
    
    
    
    
    
    
    
    
    
    
    
    
    
   
   
   






   
   
   
    
    
 
 
   
   
   
   
 
    
   
   
    
      
      
          
     
    
       
          
             
                
				    
					     
                   
      
                
                
                    
                
                
                   
                      
                         
                            
                               
                                   Lambuth Campus  
                                   myMemphis  
                                   Webmail  
                                   Faculty   Staff  
                                   Contact  
                                   Directories  
                               
                            
                            
                               Search 
                               
							   
							      
						 Site Index 
                            
                             
                         
                      
                   
                   
                      
                         
                            
                                Academics    
                                  
                                      Academics Overview  
                                      Colleges   Schools  
                                      Undergraduate Catalog  
                                      Graduate Catalog  
                                      Honors Program  
								      UofM Global  
                                  
                               
                                Admissions    
                                  
                                      Admissions Information  
                                      Undergraduate Students  
                                      Graduate Students  
                                      Law Students  
                                      International Students  
                                  
                               
                                Athletics    
                                  
                                      Tiger Athletics  
                                      Ticket Information  
                                      Intramurals  
                                      Make A Gift  
                                      Rec Center  
                                      gotigersgo.com  
                                  
                               
                                Research    
                                  
                                      Research   Sponsored Programs  
                                      Research Resources  
                                      Centers/Chairs of Excellence  

                                      Centers and Institutes  
									  FedEx Institute of Technology  
                                      electronic Research Administration (eRA)  
									  Office of Institutional Research  
                                  
                               
                                Support UofM    
                                  
                                      Development  
                                      Make a Gift  
                                      Alumni Association  
                                      Athletics Development  
                                  
                               
                                Libraries    
                                  
                                      University Libraries  
                                      Libraries Resources  
                                      Libraries Services  
                                      Special Collections  
                                      Ask a Librarian  
                                  
                               
                            
                         
                      
                   
                
             
             
                
                   
                      Resources for... 
                      
                          Prospective Students  
                          Current and Returning Students  
                          Parents  
                          Alumni  
                          Veterans  
                      
                       Expand Menu  
                   
				   			   
                
             
          
       
    
          
      
          
    
       
          
             
                
                   
                       
                           			Cecil C. Humphreys School of Law
                           	 
                           
                   
                
             
          
       
       
          
             
                
                   
                      
                          About  
                          Admissions  
                          Programs  
                          Current Students  
                          Faculty  
                          Careers  
                          Library  
                      
                      
                         
                            Faculty   Staff   
                            
                               
                                  
                                   Full-Time Faculty  
                                   Adjunct Faculty  
                                   Emeritus Faculty  
                                   Administration   Staff  
                                   Law School/Faculty News  
                               
                            
                         
                      
                   
                
             
          
          
             
                
                   
                      
                          Home  
                          
                              	School of Law 
                              	  
                          
                              	Faculty
                              	  
                         Barbara Kritchevsky 
                      
                   
                   
                       
                      
                     
                     	
                     
                     		  
                      
                        
                        
                         
                           
                           
                                                                
                              
                              
                               
                              
                              
                            
                           
                           
                            
                              
                               
                                 
                                 Barbara Kritchevsky
                                 
                               
                              
                              
                               
                                 
                                 Director of Advocacy and Cecil C. Humphreys Professor of Law
                                 
                               
                              
                              
                               
                                 
                                  
                                    
                                     Phone 
                                    
                                     
                                       
                                       (901) 678-3239
                                       
                                     
                                    
                                  
                                 
                                  
                                    
                                     Email 
                                    
                                     
                                       
                                       bkrtchvs@memphis.edu
                                       
                                     
                                    
                                  
                                 
                                  
                                    
                                     Fax 
                                    
                                     
                                       
                                       
                                       
                                     
                                    
                                  
                                 
                               
                              
                              
                               
                                 
                                  
                                    
                                     Office 
                                    
                                     
                                       
                                       Law School, Office 377
                                       
                                     
                                    
                                  
                                 
                                  
                                    
                                     Office Hours 
                                    
                                     
                                       
                                       
                                       
                                     
                                    
                                  
                                 
                               
                              
                              
                               
                                 										
                                 
                                 
                                                                         
                                 
                               
                              
                            
                           
                           
                         
                        			 
                        			  
                        
                        
                          Education  
                        
                         B.A. (summa cum laude), 1977, Middlebury College; J.D. (cum laude), 1980, Harvard
                           University.
                         
                        
                         Admitted 
                        
                         Pennsylvania; Sixth Circuit Court of Appeals 
                        
                         Experience 
                        
                         Associate, 1980-83, Drinker, Biddle   Reath, Philadelphia, PA., Litigation; joined
                           The University of Memphis School of Law faculty in 1983. Associate Dean 2001-2009.
                           Director of Advocacy since 8/2009.
                         
                        
                          Teaching Interests  
                        
                         Administrative Law, Appellate Advocacy, Brief Writing, Civil Rights, Constitutional
                           Law, Criminal Law, Federal Courts, Legal Argument and Appellate Practice, Torts.
                         
                        
                         Publications 
                        
                         Author of article on negligence per se in The Wisconsin Law Review (2009), articles
                           on Section 1983 litigation in the UCLA Law Review (1988), Toledo Law Review (1991),
                           George Washington Law Review (1992), Villanova Law Review (1996), the Urban Lawyer
                           (1999   2005), Rutgers Law Journal (2004), and Cardozo Law Review (2004). Author of
                           articles on state constitutional law, criminal law, moot court, and constitutional
                           law in The University of Memphis Law Review. Coach: 2008 ABA National Appellate Advocacy
                           Competition national finalists and best oral advocate and 2010 regional champions;
                           1996, 1994, and 1993 Wagner Moot Court national champions, 2003 and 1992 semifinalists;
                           2006 National Moot Court national finalists, 1999 and 1993 national quarter-finalists,
                           and 2008-09 regional finalists. Officer or Executive Committee Member, Civil Rights
                           Section, Association of American Law Schools (since 1/2002).
                         
                        
                        
                      
                     								
                     
                     
                     
                     
                     	
                      
                   
                
                
                   
                      
                         Faculty   Staff 
                         
                            
                               
                                Full-Time Faculty  
                                Adjunct Faculty  
                                Emeritus Faculty  
                                Administration   Staff  
                                Law School/Faculty News  
                            
                         
                      
                      
                      
                         
                            
                                Apply to Memphis Law  
                                
                            
                            
                                News   Events  
                                
                            
                            
                                Alumni   Support  
                                
                            
                            
                                ABA Required Disclosures  
                                
                            
                         
                      
                      
                      
                   
                   
                
                
             
             
          
          
       
    
    
    
      
      
       
 
    
       
          
             
                 Full sitemap   
             
             
                
                   
                      Admissions 
                      
                         
                             Prospective Students  
                             Undergraduate  
                             Graduate  
                             Law School  
                             International  
                             Parents  
                             Scholarship   Financial Aid  
                             Tuition   Fee Payment  
                             FAQs  
                             About UofM  
                         
                      
                   
                   
                      Academics 
                      
                         
                             Provost's Office  
                             Libraries  
                             Transcripts  
                             Undergraduate Catalog  
                             Graduate Catalog  
                             Academic Calendars  
                             Course Schedule  
                             Financial Aid  
                             Graduation  
                             Honors Program  
						     eCourseware  
                         
                      
                   
                   
                      Athletics 
                      
                         
                             Gotigersgo.com  
                             Ticket Information  
                             Intramural Sports  
                             Recreation Center  
                             Athletic Academic Support  
                             Former Tigers  
                             Facilities  
                             Tiger Scholarship Fund  
                             Media  
                         
                      
                   
				    
                   
                      Research 
                      
                         
                             Sponsored Programs  
                             Research Resources  
                             Centers   Institutes  
                             Chairs of Excellence  
                             FedEx Institute of Technology  
                             Libraries  
                             Grants Accounting  
                             Environmental Health  
                             Office of Institutional Research  
                         
                      
                   
                   
                      Support UofM 
                      
                         
                             Make a Gift  
                             Alumni Association  
                             Year of Service  
                         
                      
                   
                   
                      Administrative Support 
                      
                         
                             President's Office  
                             Academic Affairs  
                             Business   Finance  
                             Career Opportunities  
                             Conference   Event Services  
                             Corporate Partnerships  
  Development Office  
                             Government Relations  
                             Information Technology Services  
                             Media and Marketing  
                             Student Affairs  
                         
                      
                   
                
             
          
          
             
				    
                  
                
             
             
                   
                  
                
             
             
                
                   Follow UofM Online 
                     UofM Facebook     UofM Twitter     UofM YouTube   
                    
                   
                     UofM Instagram     UofM Pinterest     UofM LinkedIn   
                
             
              
                   
                      
                   
                
      
          
       
    
 
 
      
      
      
       
          
             
                
                   
                      
                         
                            
                               
                                 
                                 
                                  
  Print  
  Got a Question? Ask TOM  
  Copyright © 2017 University of Memphis  
  Important Notice  
                                  
                                 
                                 
                                  
                                     Last Updated: 11/6/17 
                                  
                                 
                                 
                                  
  University of Memphis  
 Memphis, TN 38152 
 Phone: 901.678.2000 
 
  
 The University of Memphis does not discriminate against students, employees, or applicants for admission or employment on the basis of race, color, religion, creed, national origin, sex, sexual orientation, gender identity/expression, disability, age, status as a protected veteran, genetic information, or any other legally protected class with respect to all employment, programs and activities sponsored by the University of Memphis. The Office for Institutional Equity has been designated to handle inquiries regarding non-discrimination policies. For more information, visit  University of Memphis Equal Opportunity and Affirmative Action .  
Title IX of the Education Amendments of 1972 protects people from discrimination based on sex in education programs or activities which receive Federal financial assistance. Title IX states: "No person in the United States shall, on the basis of sex, be excluded from participation in, be denied the benefits of, or be subjected to discrimination under any education program or activity receiving Federal financial assistance..." 20 U.S.C. § 1681 - To Learn More, visit  Title IX and Sexual Misconduct .
 
 
                                 
                                 
                                 
                               
                            
                         
                      
                   
                
             
          
       
    
   
   
   
   
   
   
 



 


