Withdrawal Process - CAS - University of Memphis    










 
 
 
     



 
    
    
    Withdrawal Process - 
      	CAS
      	 - University of Memphis
    
    
    
    
    
    
    
    
    
    
    
    
    
    
    
    
    
    
    
    
    
    
    
    
    
   
   
   






   
   
   
    
    
 
 
   
   
   
   
 
    
   
   
    
      
      
          
     
    
       
          
             
                
				    
					     
                   
      
                
                
                    
                
                
                   
                      
                         
                            
                               
                                   Lambuth Campus  
                                   myMemphis  
                                   Webmail  
                                   Faculty   Staff  
                                   Contact  
                                   Directories  
                               
                            
                            
                               Search 
                               
							   
							      
						 Site Index 
                            
                             
                         
                      
                   
                   
                      
                         
                            
                                Academics    
                                  
                                      Academics Overview  
                                      Colleges   Schools  
                                      Undergraduate Catalog  
                                      Graduate Catalog  
                                      Honors Program  
								      UofM Global  
                                  
                               
                                Admissions    
                                  
                                      Admissions Information  
                                      Undergraduate Students  
                                      Graduate Students  
                                      Law Students  
                                      International Students  
                                  
                               
                                Athletics    
                                  
                                      Tiger Athletics  
                                      Ticket Information  
                                      Intramurals  
                                      Make A Gift  
                                      Rec Center  
                                      gotigersgo.com  
                                  
                               
                                Research    
                                  
                                      Research   Sponsored Programs  
                                      Research Resources  
                                      Centers/Chairs of Excellence  

                                      Centers and Institutes  
									  FedEx Institute of Technology  
                                      electronic Research Administration (eRA)  
									  Office of Institutional Research  
                                  
                               
                                Support UofM    
                                  
                                      Development  
                                      Make a Gift  
                                      Alumni Association  
                                      Athletics Development  
                                  
                               
                                Libraries    
                                  
                                      University Libraries  
                                      Libraries Resources  
                                      Libraries Services  
                                      Special Collections  
                                      Ask a Librarian  
                                  
                               
                            
                         
                      
                   
                
             
             
                
                   
                      Resources for... 
                      
                          Prospective Students  
                          Current and Returning Students  
                          Parents  
                          Alumni  
                          Veterans  
                      
                       Expand Menu  
                   
				   			   
                
             
          
       
    
          
      
          
    
       
          
             
                
                   
                       
                           			College of Arts   Sciences
                           	 
                          
                   
                
             
          
       
       
          
             
                
                   
                      
                          About  
                          Areas of Study  
                          Research  
                          Scholarships  
                          Students  
                          Resources  
                          News  
                      
                      
                         
                            Advising Links   
                            
                               
                                  
                                   Advising Center Staff   Contact  
                                   Guide for Advisors  
                                   Newsletter for Advisors  
                                   Departments  
                                   Finding Your Advisor  
                                   First Year Students  
                                   Graduation/Degree Certification  
                                   Major and Minor Information  
                                   Major Four Year Plans  
                                   Meeting with your Advisor  
                                   Pre-Professional Advising  
                                   Upper Division Humanities  
                                   Upper Division Social Science  
                                   Withdrawal  
                               
                            
                         
                      
                   
                
             
          
          
             
                
                   
                      
                          Home  
                          
                              	CAS
                              	  
                          
                              	Advising
                              	  
                         Withdrawal Process 
                      
                   
                   
                       
                      
                     
                     		
                     
                     
                      Withdrawal Process 
                     
                      Students should be aware of the deadline to drop each course they are taking by referring
                        to the Registrar's semester calendar.
                      
                     
                      The drop deadline is designed to give students the opportunity to drop a class for
                        personal or academic reasons, and such decisions should be made after discussing the
                        impact on their financial aid or scholarships with those offices.
                      
                     
                      If the drop deadline has passed, the policy for late or retroactive withdrawals is
                        as follows: "Withdrawal is not permitted after the date specified in the University
                        Calendar for that term. Exceptions are made to the policy only in case of such extreme
                        circumstances as serious illness, relocation because of employment, etc."
                      
                     
                        Undergraduate Catalog, University of Memphis  
                     
                      Students with majors in the College of Arts and Sciences whose reasons for withdrawal
                        meet the Guidelines of "extreme circumstances" must submit a Withdrawal Petition to
                        Scates 107, with the information requested from each instructor and with appropriate
                        written documentation.
                      
                     
                      Until your petition is officially approved and the appropriate Schedule Adjustment
                        Form has been processed in Wilder Tower Room 003, you are still enrolled in your class(es).
                      
                     
                       Withdrawal Guidelines  
                     
                       Withdrawal Petition  
                     
                      Your petition to withdraw from one or all classes after the deadline date established
                        for the term will be considered only for legitimate reasons. In order for a petition
                        to be considered, you must have a reason that can be documented in writing.
                      
                     
                      Until your petition is officially approved and the appropriate Schedule Adjustment
                        Form has been processed in Wilder Tower Room 003, you are still enrolled in your class(es).
                      
                     
                     
                     	
                      
                   
                
                
                   
                      
                         Advising Links 
                         
                            
                               
                                Advising Center Staff   Contact  
                                Guide for Advisors  
                                Newsletter for Advisors  
                                Departments  
                                Finding Your Advisor  
                                First Year Students  
                                Graduation/Degree Certification  
                                Major and Minor Information  
                                Major Four Year Plans  
                                Meeting with your Advisor  
                                Pre-Professional Advising  
                                Upper Division Humanities  
                                Upper Division Social Science  
                                Withdrawal  
                            
                         
                      
                      
                      
                         
                            
                                Apply now for an Undergraduate Degree  
                               Pursue your dream, broaden your career choices and gain the confidence you need to
                                 succeed
                               
                            
                            
                                Offering Master's and Doctoral Degrees  
                               Enhance your knowledge, skills and experience 
                            
                            
                                Community Engagement  
                               Teaching and serving the Memphis and Mid-South community through programs and events 
                            
                            
                                Contact Us  
                               Dean's Office Contacts, Advising, Department Chairs... 
                            
                         
                      
                      
                      
                   
                   
                
                
             
             
          
          
       
    
    
    
      
      
       
 
    
       
          
             
                 Full sitemap   
             
             
                
                   
                      Admissions 
                      
                         
                             Prospective Students  
                             Undergraduate  
                             Graduate  
                             Law School  
                             International  
                             Parents  
                             Scholarship   Financial Aid  
                             Tuition   Fee Payment  
                             FAQs  
                             About UofM  
                         
                      
                   
                   
                      Academics 
                      
                         
                             Provost's Office  
                             Libraries  
                             Transcripts  
                             Undergraduate Catalog  
                             Graduate Catalog  
                             Academic Calendars  
                             Course Schedule  
                             Financial Aid  
                             Graduation  
                             Honors Program  
						     eCourseware  
                         
                      
                   
                   
                      Athletics 
                      
                         
                             Gotigersgo.com  
                             Ticket Information  
                             Intramural Sports  
                             Recreation Center  
                             Athletic Academic Support  
                             Former Tigers  
                             Facilities  
                             Tiger Scholarship Fund  
                             Media  
                         
                      
                   
				    
                   
                      Research 
                      
                         
                             Sponsored Programs  
                             Research Resources  
                             Centers   Institutes  
                             Chairs of Excellence  
                             FedEx Institute of Technology  
                             Libraries  
                             Grants Accounting  
                             Environmental Health  
                             Office of Institutional Research  
                         
                      
                   
                   
                      Support UofM 
                      
                         
                             Make a Gift  
                             Alumni Association  
                             Year of Service  
                         
                      
                   
                   
                      Administrative Support 
                      
                         
                             President's Office  
                             Academic Affairs  
                             Business   Finance  
                             Career Opportunities  
                             Conference   Event Services  
                             Corporate Partnerships  
  Development Office  
                             Government Relations  
                             Information Technology Services  
                             Media and Marketing  
                             Student Affairs  
                         
                      
                   
                
             
          
          
             
				    
                  
                
             
             
                   
                  
                
             
             
                
                   Follow UofM Online 
                     UofM Facebook     UofM Twitter     UofM YouTube   
                    
                   
                     UofM Instagram     UofM Pinterest     UofM LinkedIn   
                
             
              
                   
                      
                   
                
      
          
       
    
 
 
      
      
      
       
          
             
                
                   
                      
                         
                            
                               
                                 
                                 
                                  
  Print  
  Got a Question? Ask TOM  
  Copyright © 2017 University of Memphis  
  Important Notice  
                                  
                                 
                                 
                                  
                                     Last Updated: 11/22/17 
                                  
                                 
                                 
                                  
  University of Memphis  
 Memphis, TN 38152 
 Phone: 901.678.2000 
 
  
 The University of Memphis does not discriminate against students, employees, or applicants for admission or employment on the basis of race, color, religion, creed, national origin, sex, sexual orientation, gender identity/expression, disability, age, status as a protected veteran, genetic information, or any other legally protected class with respect to all employment, programs and activities sponsored by the University of Memphis. The Office for Institutional Equity has been designated to handle inquiries regarding non-discrimination policies. For more information, visit  University of Memphis Equal Opportunity and Affirmative Action .  
Title IX of the Education Amendments of 1972 protects people from discrimination based on sex in education programs or activities which receive Federal financial assistance. Title IX states: "No person in the United States shall, on the basis of sex, be excluded from participation in, be denied the benefits of, or be subjected to discrimination under any education program or activity receiving Federal financial assistance..." 20 U.S.C. § 1681 - To Learn More, visit  Title IX and Sexual Misconduct .
 
 
                                 
                                 
                                 
                               
                            
                         
                      
                   
                
             
          
       
    
   
   
   
   
   
   
 



 


