Melvin Beck - Biological Sciences - University of Memphis    










 
 
 
     



 
    
    
    Melvin Beck - 
      	Biological Sciences
      	 - University of Memphis
    
    
    
    
    
    
    
    
    
    
    
    
    
    
    
    
    
    
    
    
    
    
    
    
    
   
   
   






   
   
   
    
    
 
 
   
   
   
   
 
    
   
   
    
      
      
          
     
    
       
          
             
                
				    
					     
                   
      
                
                
                    
                
                
                   
                      
                         
                            
                               
                                   Lambuth Campus  
                                   myMemphis  
                                   Webmail  
                                   Faculty   Staff  
                                   Contact  
                                   Directories  
                               
                            
                            
                               Search 
                               
							   
							      
						 Site Index 
                            
                             
                         
                      
                   
                   
                      
                         
                            
                                Academics    
                                  
                                      Academics Overview  
                                      Colleges   Schools  
                                      Undergraduate Catalog  
                                      Graduate Catalog  
                                      Honors Program  
								      UofM Global  
                                  
                               
                                Admissions    
                                  
                                      Admissions Information  
                                      Undergraduate Students  
                                      Graduate Students  
                                      Law Students  
                                      International Students  
                                  
                               
                                Athletics    
                                  
                                      Tiger Athletics  
                                      Ticket Information  
                                      Intramurals  
                                      Make A Gift  
                                      Rec Center  
                                      gotigersgo.com  
                                  
                               
                                Research    
                                  
                                      Research   Sponsored Programs  
                                      Research Resources  
                                      Centers/Chairs of Excellence  

                                      Centers and Institutes  
									  FedEx Institute of Technology  
                                      electronic Research Administration (eRA)  
									  Office of Institutional Research  
                                  
                               
                                Support UofM    
                                  
                                      Development  
                                      Make a Gift  
                                      Alumni Association  
                                      Athletics Development  
                                  
                               
                                Libraries    
                                  
                                      University Libraries  
                                      Libraries Resources  
                                      Libraries Services  
                                      Special Collections  
                                      Ask a Librarian  
                                  
                               
                            
                         
                      
                   
                
             
             
                
                   
                      Resources for... 
                      
                          Prospective Students  
                          Current and Returning Students  
                          Parents  
                          Alumni  
                          Veterans  
                      
                       Expand Menu  
                   
				   			   
                
             
          
       
    
          
      
          
    
       
          
             
                
                   
                       
                           			Department of Biological Sciences
                           	 
                           
                   
                
             
          
       
       
          
             
                
                   
                      
                          Undergraduate  
                          Graduate  
                          Centers  
                          People  
                          Research  
                          Events  
                          Scholarships  
                      
                   
                
             
          
          
             
                
                   
                      
                          Home  
                          
                              	Biological Sciences
                              	  
                          
                              	People
                              	  
                         Melvin Beck 
                      
                   
                   
                       
                      
                     
                     	
                     
                     		  
                      
                        
                        
                         
                           
                           
                                                                
                              
                              
                               
                              
                              
                            
                           
                           
                            
                              
                               
                                 
                                 Melvin Beck
                                 
                               
                              
                              
                               
                                 
                                 Professor
                                 
                               
                              
                              
                               
                                 
                                  
                                    
                                     Phone 
                                    
                                     
                                       
                                       901.678.2970
                                       
                                     
                                    
                                  
                                 
                                  
                                    
                                     Email 
                                    
                                     
                                       
                                        mbeck@memphis.edu 
                                        
                                    
                                  
                                 
                                  
                                    
                                     Fax 
                                    
                                     
                                       
                                       901.678.4457
                                       
                                     
                                    
                                  
                                 
                               
                              
                              
                               
                                 
                                  
                                    
                                     Office 
                                    
                                     
                                       
                                       Life Sciences 317
                                       
                                     
                                    
                                  
                                 
                                  
                                    
                                     Office Hours 
                                    
                                     
                                       
                                       By Appointment
                                       
                                     
                                    
                                  
                                 
                               
                              
                              
                               
                                 										
                                 
                                 
                                                                         
                                 
                               
                              
                            
                           
                           
                         
                        			 
                        			  
                        
                        
                         About Dr. Beck 
                        
                         I joined the faculty at The University of Memphis (then Memphis State University)
                           after receiving my Ph.D. from the University of Arkansas in 1974. I have served as
                           Coordinator of Graduate Studies for the department and was also the departmental Chair.
                           I currently teach courses in General Biology (BIOL 1120), Genetics (BIOL 3072), and
                           Human Genetics (BIOL 4071/6071). I have won numerous teaching awards to include the
                           University Distinguished Teaching Award, Thomas W. Briggs Foundation Excellence in
                           Teaching Award, and W. Russell Smith Award for Teaching Excellence. Additionally,
                           I have received the University Distinguished Advising Award. Most of my efforts are
                           now devoted to the improvement of undergraduate science education in the department,
                           especially in introductory biology. My research has addressed two major areas: 1)
                           chromosomal mutations and their effects upon animals, and 2) genetic variation in
                           animal populations. Karyotypic analyses have utilized nondifferentially stained and
                           banded metaphase chromosomes. Genetic variation in populations has employed various
                           electrophoretic techniques that allow estimation of the extent of polymorphism and
                           heterozygosity within and among animal populations.
                         
                        
                         Research Interests 
                        
                         • Cytogenetics • Chromosomal aberrations in animals • Population genetics
                         
                        
                         Education 
                        
                         B.S. Biology, Arkansas Polytechnic College; Ph.D. Zoology (Genetics), University of
                           Arkansas
                         
                        
                         Selected Publications 
                        
                         • Baud, D. R. and M. L. Beck. 2005. Interactive effects of UV-B and copper on spring
                           peeper tadpoles (Pseudacris crucifer). Southeastern Nat. 4:15-22.
                         
                        
                         • Kollars, P. G., M. L. Beck, S. G. Mech, P. K. Kennedy, and M. L. Kennedy. 2004.
                           Temporal and spatial genetic variability in white-tailed deer (Odocoileus virginianus).
                           Genetica 121:269-276.
                         
                        
                         • McNally, L.R., M. L. Beck, and C.J. Biggers. 2000. Karyotypic analysis of the cotton
                           boll weevil, Anthonomus grandis Boheman. Genetica 109:219-225.
                         
                        
                         • Elrod, D.A., M. L. Beck and M.L. Kennedy. 1996. Chromosomal variation in the southern
                           short tailed shrew (Blarina carolinensis). Genetica 98:199-203.
                         
                        
                        
                      
                     								
                     
                     
                     
                     
                     	
                      
                   
                
                
                   
                      
                      
                         
                            
                                Biology@Memphis Newsletter  
                               Read about graduate and undergraduate student news; awards, grants and scholarships;
                                 publications, and more...
                               
                            
                            
                                Administration  
                               Budgets, accounting, facilities management, committees, meetings, and group email
                                 accounts
                               
                            
                            
                                Facilities  
                               Not your ordinary classrooms... 
                            
                            
                                Contact Us  
                               Main office contacts, faculty and staff administration 
                            
                         
                      
                      
                      
                   
                   
                
                
             
             
          
          
       
    
    
    
      
      
       
 
    
       
          
             
                 Full sitemap   
             
             
                
                   
                      Admissions 
                      
                         
                             Prospective Students  
                             Undergraduate  
                             Graduate  
                             Law School  
                             International  
                             Parents  
                             Scholarship   Financial Aid  
                             Tuition   Fee Payment  
                             FAQs  
                             About UofM  
                         
                      
                   
                   
                      Academics 
                      
                         
                             Provost's Office  
                             Libraries  
                             Transcripts  
                             Undergraduate Catalog  
                             Graduate Catalog  
                             Academic Calendars  
                             Course Schedule  
                             Financial Aid  
                             Graduation  
                             Honors Program  
						     eCourseware  
                         
                      
                   
                   
                      Athletics 
                      
                         
                             Gotigersgo.com  
                             Ticket Information  
                             Intramural Sports  
                             Recreation Center  
                             Athletic Academic Support  
                             Former Tigers  
                             Facilities  
                             Tiger Scholarship Fund  
                             Media  
                         
                      
                   
				    
                   
                      Research 
                      
                         
                             Sponsored Programs  
                             Research Resources  
                             Centers   Institutes  
                             Chairs of Excellence  
                             FedEx Institute of Technology  
                             Libraries  
                             Grants Accounting  
                             Environmental Health  
                             Office of Institutional Research  
                         
                      
                   
                   
                      Support UofM 
                      
                         
                             Make a Gift  
                             Alumni Association  
                             Year of Service  
                         
                      
                   
                   
                      Administrative Support 
                      
                         
                             President's Office  
                             Academic Affairs  
                             Business   Finance  
                             Career Opportunities  
                             Conference   Event Services  
                             Corporate Partnerships  
  Development Office  
                             Government Relations  
                             Information Technology Services  
                             Media and Marketing  
                             Student Affairs  
                         
                      
                   
                
             
          
          
             
				    
                  
                
             
             
                   
                  
                
             
             
                
                   Follow UofM Online 
                     UofM Facebook     UofM Twitter     UofM YouTube   
                    
                   
                     UofM Instagram     UofM Pinterest     UofM LinkedIn   
                
             
              
                   
                      
                   
                
      
          
       
    
 
 
      
      
      
       
          
             
                
                   
                      
                         
                            
                               
                                 
                                 
                                  
  Print  
  Got a Question? Ask TOM  
  Copyright © 2017 University of Memphis  
  Important Notice  
                                  
                                 
                                 
                                  
                                     Last Updated: 11/28/17 
                                  
                                 
                                 
                                  
  University of Memphis  
 Memphis, TN 38152 
 Phone: 901.678.2000 
 
  
 The University of Memphis does not discriminate against students, employees, or applicants for admission or employment on the basis of race, color, religion, creed, national origin, sex, sexual orientation, gender identity/expression, disability, age, status as a protected veteran, genetic information, or any other legally protected class with respect to all employment, programs and activities sponsored by the University of Memphis. The Office for Institutional Equity has been designated to handle inquiries regarding non-discrimination policies. For more information, visit  University of Memphis Equal Opportunity and Affirmative Action .  
Title IX of the Education Amendments of 1972 protects people from discrimination based on sex in education programs or activities which receive Federal financial assistance. Title IX states: "No person in the United States shall, on the basis of sex, be excluded from participation in, be denied the benefits of, or be subjected to discrimination under any education program or activity receiving Federal financial assistance..." 20 U.S.C. § 1681 - To Learn More, visit  Title IX and Sexual Misconduct .
 
 
                                 
                                 
                                 
                               
                            
                         
                      
                   
                
             
          
       
    
   
   
   
   
   
   
 



 


