African American Literature - Department of English - University of Memphis    










 
 
 
     



 
    
    
    African American Literature  - 
      	Department of English
      	 - University of Memphis
    
    
    
    
    
    
    
    
    
    
    
    
    
    
    
    
    
    
    
    
    
    
    
    
    
   
   
   






   
   
   
    
    
 
 
   
   
   
   
 
    
   
   
    
      
      
          
     
    
       
          
             
                
				    
					     
                   
      
                
                
                    
                
                
                   
                      
                         
                            
                               
                                   Lambuth Campus  
                                   myMemphis  
                                   Webmail  
                                   Faculty   Staff  
                                   Contact  
                                   Directories  
                               
                            
                            
                               Search 
                               
							   
							      
						 Site Index 
                            
                             
                         
                      
                   
                   
                      
                         
                            
                                Academics    
                                  
                                      Academics Overview  
                                      Colleges   Schools  
                                      Undergraduate Catalog  
                                      Graduate Catalog  
                                      Honors Program  
								      UofM Global  
                                  
                               
                                Admissions    
                                  
                                      Admissions Information  
                                      Undergraduate Students  
                                      Graduate Students  
                                      Law Students  
                                      International Students  
                                  
                               
                                Athletics    
                                  
                                      Tiger Athletics  
                                      Ticket Information  
                                      Intramurals  
                                      Make A Gift  
                                      Rec Center  
                                      gotigersgo.com  
                                  
                               
                                Research    
                                  
                                      Research   Sponsored Programs  
                                      Research Resources  
                                      Centers/Chairs of Excellence  

                                      Centers and Institutes  
									  FedEx Institute of Technology  
                                      electronic Research Administration (eRA)  
									  Office of Institutional Research  
                                  
                               
                                Support UofM    
                                  
                                      Development  
                                      Make a Gift  
                                      Alumni Association  
                                      Athletics Development  
                                  
                               
                                Libraries    
                                  
                                      University Libraries  
                                      Libraries Resources  
                                      Libraries Services  
                                      Special Collections  
                                      Ask a Librarian  
                                  
                               
                            
                         
                      
                   
                
             
             
                
                   
                      Resources for... 
                      
                          Prospective Students  
                          Current and Returning Students  
                          Parents  
                          Alumni  
                          Veterans  
                      
                       Expand Menu  
                   
				   			   
                
             
          
       
    
          
      
          
    
       
          
             
                
                   
                       
                           			Department of English
                           	 
                           
                   
                
             
          
       
       
          
             
                
                   
                      
                          About  
                          Undergraduate  
                          Graduate  
                          People  
                          Community  
                          News/Events  
                      
                      
                         
                            Undergraduates   
                            
                               
                                  
                                   Concentrations  
                                        
                                         African American Literature  
                                        
                                         Creative Writing  
                                        
                                         ESL  
                                        
                                         Language and Linguistics  
                                        
                                         Literature  
                                        
                                         Professional Writing  
                                     
                                  
                                   Advising  
                                   Online Degree Programs  
                                   Honors Program  
                                   First Year Writing Program  
                                   Scholarships  
                                   Undergraduate Internship Opportunities  
                                   Forms  
                                         Professional Writing Internship Information  
                                         Undergraduate Independent Study Form  
                                     
                                  
                                   2016-2018 Two Year Course Template  
                                   2018-2020 Two Year Course Template  
                                   Undergraduate Catalog  
                                   English Course Descriptions  
                               
                            
                         
                      
                   
                
             
          
          
             
                
                   
                      
                          Home  
                          
                              	Department of English
                              	  
                          
                              	Undergraduates
                              	  
                         African American Literature  
                      
                   
                   
                       
                      
                     
                     		
                     
                     
                      African American Literature 
                     
                      The African American Literature Concentration is designed to familiarize students
                        with the varied chronological development of African American Literature, 1750 to
                        the present. The course offerings offer a full range of approaches, from the study
                        of historical periods and genres to the most recent developments in literary criticism
                        and theory.
                      
                     
                      In addition to the English Major requirements and electives, African American Literature
                        students must complete four of the courses on the following list:
                      
                     
                      
                        
                         ENGL 3325 Survey of African American Lit through the Harlem Renaissance 
                        
                         ENGL 3326 Survey of African American Lit since the Harlem Renaissance 
                        
                         ENGL 4372 Major African American Authors through the Harlem Renaissance 
                        
                         ENGL 4373 Major African American Authors since the Harlem Renaissance 
                        
                         ENGL 4374 African American Literary Movements 
                        
                      
                     
                      See the  Undergraduate Catalog  for a complete list of all degree requirements.
                      
                     
                     
                     	
                      
                   
                
                
                   
                      
                         Undergraduates 
                         
                            
                               
                                Concentrations  
                                     
                                      African American Literature  
                                     
                                      Creative Writing  
                                     
                                      ESL  
                                     
                                      Language and Linguistics  
                                     
                                      Literature  
                                     
                                      Professional Writing  
                                  
                               
                                Advising  
                                Online Degree Programs  
                                Honors Program  
                                First Year Writing Program  
                                Scholarships  
                                Undergraduate Internship Opportunities  
                                Forms  
                                      Professional Writing Internship Information  
                                      Undergraduate Independent Study Form  
                                  
                               
                                2016-2018 Two Year Course Template  
                                2018-2020 Two Year Course Template  
                                Undergraduate Catalog  
                                English Course Descriptions  
                            
                         
                      
                      
                      
                         
                            
                                Apply Now  
                                
                            
                            
                                Alumni and Friends  
                                
                            
                            
                                Course Offerings  
                                
                            
                            
                                Contact Us  
                                
                            
                         
                      
                      
                      
                   
                   
                
                
             
             
          
          
       
    
    
    
      
      
       
 
    
       
          
             
                 Full sitemap   
             
             
                
                   
                      Admissions 
                      
                         
                             Prospective Students  
                             Undergraduate  
                             Graduate  
                             Law School  
                             International  
                             Parents  
                             Scholarship   Financial Aid  
                             Tuition   Fee Payment  
                             FAQs  
                             About UofM  
                         
                      
                   
                   
                      Academics 
                      
                         
                             Provost's Office  
                             Libraries  
                             Transcripts  
                             Undergraduate Catalog  
                             Graduate Catalog  
                             Academic Calendars  
                             Course Schedule  
                             Financial Aid  
                             Graduation  
                             Honors Program  
						     eCourseware  
                         
                      
                   
                   
                      Athletics 
                      
                         
                             Gotigersgo.com  
                             Ticket Information  
                             Intramural Sports  
                             Recreation Center  
                             Athletic Academic Support  
                             Former Tigers  
                             Facilities  
                             Tiger Scholarship Fund  
                             Media  
                         
                      
                   
				    
                   
                      Research 
                      
                         
                             Sponsored Programs  
                             Research Resources  
                             Centers   Institutes  
                             Chairs of Excellence  
                             FedEx Institute of Technology  
                             Libraries  
                             Grants Accounting  
                             Environmental Health  
                             Office of Institutional Research  
                         
                      
                   
                   
                      Support UofM 
                      
                         
                             Make a Gift  
                             Alumni Association  
                             Year of Service  
                         
                      
                   
                   
                      Administrative Support 
                      
                         
                             President's Office  
                             Academic Affairs  
                             Business   Finance  
                             Career Opportunities  
                             Conference   Event Services  
                             Corporate Partnerships  
  Development Office  
                             Government Relations  
                             Information Technology Services  
                             Media and Marketing  
                             Student Affairs  
                         
                      
                   
                
             
          
          
             
				    
                  
                
             
             
                   
                  
                
             
             
                
                   Follow UofM Online 
                     UofM Facebook     UofM Twitter     UofM YouTube   
                    
                   
                     UofM Instagram     UofM Pinterest     UofM LinkedIn   
                
             
              
                   
                      
                   
                
      
          
       
    
 
 
      
      
      
       
          
             
                
                   
                      
                         
                            
                               
                                 
                                 
                                  
  Print  
  Got a Question? Ask TOM  
  Copyright © 2017 University of Memphis  
  Important Notice  
                                  
                                 
                                 
                                  
                                     Last Updated: 12/4/17 
                                  
                                 
                                 
                                  
  University of Memphis  
 Memphis, TN 38152 
 Phone: 901.678.2000 
 
  
 The University of Memphis does not discriminate against students, employees, or applicants for admission or employment on the basis of race, color, religion, creed, national origin, sex, sexual orientation, gender identity/expression, disability, age, status as a protected veteran, genetic information, or any other legally protected class with respect to all employment, programs and activities sponsored by the University of Memphis. The Office for Institutional Equity has been designated to handle inquiries regarding non-discrimination policies. For more information, visit  University of Memphis Equal Opportunity and Affirmative Action .  
Title IX of the Education Amendments of 1972 protects people from discrimination based on sex in education programs or activities which receive Federal financial assistance. Title IX states: "No person in the United States shall, on the basis of sex, be excluded from participation in, be denied the benefits of, or be subjected to discrimination under any education program or activity receiving Federal financial assistance..." 20 U.S.C. § 1681 - To Learn More, visit  Title IX and Sexual Misconduct .
 
 
                                 
                                 
                                 
                               
                            
                         
                      
                   
                
             
          
       
    
   
   
   
   
   
   
 



 


