Events - Kemmons Wilson School of Hospitality &amp; Resort Management - University of Memphis    










 
 
 
     



 
    
    
    Events - 
      	Kemmons Wilson School of Hospitality   Resort Management
      	 - University of Memphis
    
    
    
    
    
    
    
    
    
    
    
    
    
    
    
    
    
    
    
    
    
    
    
    
    
   
   
   






   
   
   
    
    
 
 
   
   
   
   
 
    
   
   
    
      
      
          
     
    
       
          
             
                
				    
					     
                   
      
                
                
                    
                
                
                   
                      
                         
                            
                               
                                   Lambuth Campus  
                                   myMemphis  
                                   Webmail  
                                   Faculty   Staff  
                                   Contact  
                                   Directories  
                               
                            
                            
                               Search 
                               
							   
							      
						 Site Index 
                            
                             
                         
                      
                   
                   
                      
                         
                            
                                Academics    
                                  
                                      Academics Overview  
                                      Colleges   Schools  
                                      Undergraduate Catalog  
                                      Graduate Catalog  
                                      Honors Program  
								      UofM Global  
                                  
                               
                                Admissions    
                                  
                                      Admissions Information  
                                      Undergraduate Students  
                                      Graduate Students  
                                      Law Students  
                                      International Students  
                                  
                               
                                Athletics    
                                  
                                      Tiger Athletics  
                                      Ticket Information  
                                      Intramurals  
                                      Make A Gift  
                                      Rec Center  
                                      gotigersgo.com  
                                  
                               
                                Research    
                                  
                                      Research   Sponsored Programs  
                                      Research Resources  
                                      Centers/Chairs of Excellence  

                                      Centers and Institutes  
									  FedEx Institute of Technology  
                                      electronic Research Administration (eRA)  
									  Office of Institutional Research  
                                  
                               
                                Support UofM    
                                  
                                      Development  
                                      Make a Gift  
                                      Alumni Association  
                                      Athletics Development  
                                  
                               
                                Libraries    
                                  
                                      University Libraries  
                                      Libraries Resources  
                                      Libraries Services  
                                      Special Collections  
                                      Ask a Librarian  
                                  
                               
                            
                         
                      
                   
                
             
             
                
                   
                      Resources for... 
                      
                          Prospective Students  
                          Current and Returning Students  
                          Parents  
                          Alumni  
                          Veterans  
                      
                       Expand Menu  
                   
				   			   
                
             
          
       
    
          
      
          
    
       
          
             
                
                   
                       
                           			Kemmons Wilson School of Hospitality   Resort Management 
                           	 
                          
                   
                
             
          
       
       
          
             
                
                   
                      
                          Hospitality  
                          Sport   Leisure  
                          Students  
                          Careers  
                          Faculty  
                          Contact Us  
                      
                      
                         
                            Careers   
                            
                               
                                  
                                   Hospitality and Resort Management  
                                         Careers  
                                         Success Stories  
                                         Current Opportunities  
                                     
                                  
                                   Sport and Leisure Management  
                                         Careers  
                                         Internships  
                                         Success Stories  
                                     
                                  
                                   Employers  
                                   Events  
                               
                            
                         
                      
                   
                
             
          
          
             
                
                   
                      
                          Home  
                          
                              	Kemmons Wilson School of Hospitality   Resort Management
                              	  
                          
                              	Careers
                              	  
                         Events 
                      
                   
                   
                       
                      
                     
                     		
                     
                     
                      Upcoming Events 
                     
                      
                        
                         
                           
                            
                              
                               
                                 
                                  WED SEPT. 13
                                  
                                 
                               
                              
                                 
                              
                                University of Memphis Fall 2017 Career Fair  10:00 am to 2:00 pm, in University Center ballroom
                               
                              
                            
                           
                            
                              
                                 
                              
                                 
                              
                                 
                              
                            
                           
                            
                              
                               
                                 
                                  THUR-FRI SEPT. 14-15 
                                  
                                 
                               
                              
                                 
                              
                               
                                 
                                    Peabody Hotel Executive Job Shadowing  
                                 
                                  *selected students only 
                                 
                               
                              
                            
                           
                            
                              
                                 
                              
                                 
                              
                                 
                              
                            
                           
                            
                              
                               
                                 
                                  TUES SEPT. 19
                                  
                                 
                               
                              
                               
                                 
                                    
                                 
                               
                              
                               
                                 
                                   Discover Your Major Day  
                                 
                                  University Center Ballroom 
                                 
                               
                              
                            
                           
                            
                              
                                 
                              
                                 
                              
                                 
                              
                            
                           
                            
                              
                               
                                 
                                  THUR SEPT. 28 
                                  
                                 
                               
                              
                                 
                              
                               
                                 
                                    Peabody Hotel Executive Networking Event  
                                 
                                  *selected HPRM classes 
                                 
                               
                              
                            
                           
                            
                              
                                 
                              
                                 
                              
                                 
                              
                            
                           
                            
                              
                               
                                 
                                  TUES OCT. 24 
                                  
                                 
                               
                              
                                 
                              
                               
                                 
                                    Marriott International Recruiter Visit  
                                 
                                  11:20 am Guest Speaker in HPRM 4331 
                                 
                                  2:30 pm Information Table 
                                 
                                  Kemmons Wilson School 
                                 
                               
                              
                            
                           
                            
                              
                                 
                              
                                 
                              
                                 
                              
                            
                           
                            
                              
                               
                                 
                                  WED NOV. 15 
                                  
                                 
                               
                              
                                 
                              
                                 KWS Career Fair  Career Fair - 10:00 am to 2:00 pm, in University Center ballroom
                               
                              
                            
                           
                            
                              
                                 
                              
                                 
                              
                                 
                              
                            
                           
                         
                        
                      
                     
                     
                     	
                      
                   
                
                
                   
                      
                         Careers 
                         
                            
                               
                                Hospitality and Resort Management  
                                      Careers  
                                      Success Stories  
                                      Current Opportunities  
                                  
                               
                                Sport and Leisure Management  
                                      Careers  
                                      Internships  
                                      Success Stories  
                                  
                               
                                Employers  
                                Events  
                            
                         
                      
                      
                      
                         
                            
                                Apply to the KWS Program  
                               Choose the degree program that's right for you 
                            
                            
                                Academic Advising  
                               Schedule an appointment with your advisor 
                            
                            
                                Research Highlights  
                               KWS faculty are leaders in their fields of study 
                            
                            
                                Contact Us  
                               Questions? Our team can help. 
                            
                         
                      
                      
                      
                   
                   
                
                
             
             
          
          
       
    
    
    
      
      
       
 
    
       
          
             
                 Full sitemap   
             
             
                
                   
                      Admissions 
                      
                         
                             Prospective Students  
                             Undergraduate  
                             Graduate  
                             Law School  
                             International  
                             Parents  
                             Scholarship   Financial Aid  
                             Tuition   Fee Payment  
                             FAQs  
                             About UofM  
                         
                      
                   
                   
                      Academics 
                      
                         
                             Provost's Office  
                             Libraries  
                             Transcripts  
                             Undergraduate Catalog  
                             Graduate Catalog  
                             Academic Calendars  
                             Course Schedule  
                             Financial Aid  
                             Graduation  
                             Honors Program  
						     eCourseware  
                         
                      
                   
                   
                      Athletics 
                      
                         
                             Gotigersgo.com  
                             Ticket Information  
                             Intramural Sports  
                             Recreation Center  
                             Athletic Academic Support  
                             Former Tigers  
                             Facilities  
                             Tiger Scholarship Fund  
                             Media  
                         
                      
                   
				    
                   
                      Research 
                      
                         
                             Sponsored Programs  
                             Research Resources  
                             Centers   Institutes  
                             Chairs of Excellence  
                             FedEx Institute of Technology  
                             Libraries  
                             Grants Accounting  
                             Environmental Health  
                             Office of Institutional Research  
                         
                      
                   
                   
                      Support UofM 
                      
                         
                             Make a Gift  
                             Alumni Association  
                             Year of Service  
                         
                      
                   
                   
                      Administrative Support 
                      
                         
                             President's Office  
                             Academic Affairs  
                             Business   Finance  
                             Career Opportunities  
                             Conference   Event Services  
                             Corporate Partnerships  
  Development Office  
                             Government Relations  
                             Information Technology Services  
                             Media and Marketing  
                             Student Affairs  
                         
                      
                   
                
             
          
          
             
				    
                  
                
             
             
                   
                  
                
             
             
                
                   Follow UofM Online 
                     UofM Facebook     UofM Twitter     UofM YouTube   
                    
                   
                     UofM Instagram     UofM Pinterest     UofM LinkedIn   
                
             
              
                   
                      
                   
                
      
          
       
    
 
 
      
      
      
       
          
             
                
                   
                      
                         
                            
                               
                                 
                                 
                                  
  Print  
  Got a Question? Ask TOM  
  Copyright © 2017 University of Memphis  
  Important Notice  
                                  
                                 
                                 
                                  
                                     Last Updated: 11/21/17 
                                  
                                 
                                 
                                  
  University of Memphis  
 Memphis, TN 38152 
 Phone: 901.678.2000 
 
  
 The University of Memphis does not discriminate against students, employees, or applicants for admission or employment on the basis of race, color, religion, creed, national origin, sex, sexual orientation, gender identity/expression, disability, age, status as a protected veteran, genetic information, or any other legally protected class with respect to all employment, programs and activities sponsored by the University of Memphis. The Office for Institutional Equity has been designated to handle inquiries regarding non-discrimination policies. For more information, visit  University of Memphis Equal Opportunity and Affirmative Action .  
Title IX of the Education Amendments of 1972 protects people from discrimination based on sex in education programs or activities which receive Federal financial assistance. Title IX states: "No person in the United States shall, on the basis of sex, be excluded from participation in, be denied the benefits of, or be subjected to discrimination under any education program or activity receiving Federal financial assistance..." 20 U.S.C. § 1681 - To Learn More, visit  Title IX and Sexual Misconduct .
 
 
                                 
                                 
                                 
                               
                            
                         
                      
                   
                
             
          
       
    
   
   
   
   
   
   
 



 


