Graduate Students and Teaching Assistants - WLL - University of Memphis    










 
 
 
     



 
    
    
    Graduate Students and Teaching Assistants  - 
      	WLL
      	 - University of Memphis
    
    
    
    
    
    
    
    
    
    
    
    
    
    
    
    
    
    
    
    
    
    
    
    
    
   
   
   






   
   
   
    
    
 
 
   
   
   
   
 
    
   
   
    
      
      
          
     
    
       
          
             
                
				    
					     
                   
      
                
                
                    
                
                
                   
                      
                         
                            
                               
                                   Lambuth Campus  
                                   myMemphis  
                                   Webmail  
                                   Faculty   Staff  
                                   Contact  
                                   Directories  
                               
                            
                            
                               Search 
                               
							   
							      
						 Site Index 
                            
                             
                         
                      
                   
                   
                      
                         
                            
                                Academics    
                                  
                                      Academics Overview  
                                      Colleges   Schools  
                                      Undergraduate Catalog  
                                      Graduate Catalog  
                                      Honors Program  
								      UofM Global  
                                  
                               
                                Admissions    
                                  
                                      Admissions Information  
                                      Undergraduate Students  
                                      Graduate Students  
                                      Law Students  
                                      International Students  
                                  
                               
                                Athletics    
                                  
                                      Tiger Athletics  
                                      Ticket Information  
                                      Intramurals  
                                      Make A Gift  
                                      Rec Center  
                                      gotigersgo.com  
                                  
                               
                                Research    
                                  
                                      Research   Sponsored Programs  
                                      Research Resources  
                                      Centers/Chairs of Excellence  

                                      Centers and Institutes  
									  FedEx Institute of Technology  
                                      electronic Research Administration (eRA)  
									  Office of Institutional Research  
                                  
                               
                                Support UofM    
                                  
                                      Development  
                                      Make a Gift  
                                      Alumni Association  
                                      Athletics Development  
                                  
                               
                                Libraries    
                                  
                                      University Libraries  
                                      Libraries Resources  
                                      Libraries Services  
                                      Special Collections  
                                      Ask a Librarian  
                                  
                               
                            
                         
                      
                   
                
             
             
                
                   
                      Resources for... 
                      
                          Prospective Students  
                          Current and Returning Students  
                          Parents  
                          Alumni  
                          Veterans  
                      
                       Expand Menu  
                   
				   			   
                
             
          
       
    
          
      
          
    
       
          
             
                
                   
                       
                           			Department of World Languages and Literatures
                           	 
                          
                   
                
             
          
       
       
          
             
                
                   
                      
                          About  
                          Programs  
                          Languages  
                          People  
                          Study Abroad  
                          Scholarships  
                      
                      
                         
                            About the Spanish Program   
                            
                               
                                  
                                   About  
                                   Why Study Spanish  
                                   Undergraduate Degree   
                                         Major  
                                         Minor  
                                     
                                  
                                   Graduate Program   
                                        
                                         About the Masters  
                                        
                                         Overview/Objectives  
                                        
                                         Courses  
                                        
                                         For Graduate and Teaching Assistants  
                                        
                                         Reading List  
                                     
                                  
                                   Study Abroad  
                                   Success Stories  
                                   Tutoring  
                                   Faculty  
                                   Contact  
                                   Useful Links  
                                   Department of World Languages and Literatures  
                               
                            
                         
                      
                   
                
             
          
          
             
                
                   
                      
                          Home  
                          
                              	WLL
                              	  
                          
                              	Spanish
                              	  
                         Graduate Students and Teaching Assistants  
                      
                   
                   
                       
                      
                     
                     		
                     
                     
                       Additional Information for Graduate Students and Teaching Assistants  
                     
                      1. Graduate Teaching Assistantships 
                     
                      Teaching Assistantships carry a stipend of $7,000 per academic year and covers the
                        cost of tuition for the entire program.  This award is offered on a competitive basis.  Students
                        interested in obtaining a teaching assistantship must be officially admitted into
                        the MA program in Romance Languages.  Part-time students or students who have a full-time
                        job or any other activities that may interfere with their academic responsibilities
                        are not eligible for these assistantships.  There is no stipend for the summer. Graduate
                        students who obtain a graduate assistantship are usually supported for two academic
                        years provided their academic and teaching performance are satisfactory. GA’s may
                        also request to teach courses in the summer provided their academic and teaching performance
                        are satisfactory. Summer courses cannot be assigned or guaranteed in advance since
                        they are offered according to enrollment figures. In previous years our graduate assistants
                        have generally been assigned courses, especially in the second summer session. This
                        additional source of income may increase significantly the total amount of the stipend.
                      
                     
                      In addition to satisfying all the previous requirements set by the Graduate School
                        and the Department, students interested in obtaining a teaching assistantship should
                        submit a letter of intent, addressed to Dr. Will Thompson, Chairman, Department of
                        Foreign Languages and Literatures with a copy to Dr. Fernando Burgos, Coordinator
                        of Graduate Studies. Prospective candidates will be interviewed by the Spanish faculty
                        to determine their command of the language. Candidates are also interviewed by the
                        Chairman of the Department. 
                      
                     
                      2. Duties and Responsibilities of Teaching Assistants 
                     
                      Each semester TA's must register for a minimum of nine (9) credit hours of graduate
                        work chosen from courses taught in the Department of Foreign Languages unless an exception
                        is approved by the coordinator. All courses must be approved by the Coordinator of
                        Graduate Studies. The maximum number of hours is 12.  However, students must be careful
                        in deciding to take 12 hours.  A student who decides to take 12 hours is expected
                        to keep this number of hours for the semester rather than dropping a course at the
                        beginning of the semester.
                      
                     
                      Graduate Assistants are not permitted to teach during their first and second semester
                        unless they have eighteen (18) credit hours of graduate work in Spanish, teaching
                        experience in the field, and the approval of the graduate coordinator. Graduate Assistants
                        will receive training in the teaching of lower-division courses. The training requires
                        a total of 20 hours per week for two semesters. As part of this training, they will
                        be required to visit classes taught by the faculty, and make an oral and written report
                        to the Supervisor of Graduate Assistants as well as to the Coordinator of Graduate
                        Studies. [Please refer to specific guidelines regarding class visitation]. TA's will
                        also assist Spanish faculty with the teaching of upper-division courses for six hours
                        per week. TA’s may also be required to perform other functions such as assisting instructors
                        in the teaching of lower-division courses.  All of the aforementioned activities constitute
                        a significant part of the graduate assistant training. Starting with their third semester
                        TA's will teach two courses per semester. At this point graduate assistants become
                        instructors of record and the total number of hours related to teaching is 20 per
                        week, which includes actual teaching of 2 courses, class preparation, office hours,
                        participation in online and on-campus workshops, and meetings with the TA supervisor.
                      
                     
                      TA's will be monitored every semester by the TA Supervisor. This supervision will
                        include weekly meetings, seminars and class visitations. The TA Supervisor and the
                        Coordinator of Graduate Studies will also determine the teaching schedule of each
                        TA.
                      
                     
                      All TA's who are assigned to teach courses or to assist in the teaching of courses
                        are required to hold office hours (three [3] hours per week) and to post them at the
                        appropriate place.  Non-native English speakers must pass the SPEAK test or score 26 (or higher) on the
                        speaking portion of the TOEFL iBT before they can be appointed as teaching assistants.
                        For further information you can visit  memphis.edu/iei/speaktest/ .
                      
                     
                       3. Visitation guidelines for in-training graduate assistants  
                     
                      Graduate Assistants (GA’s) who are in the in-training teaching observation period
                        must perform a series of visitations during the semester to satisfy the requirements
                        of their position. The following guidelines may be adjusted and/or changed, in which
                        case you will be informed by the supervisor.
                      
                     
                      By week 4 of the semester the GA who is not teaching will submit to the Spanish Language
                        Supervisor the appropriate number of Class Visitation Reports, proving that he or
                        she has successfully visited 14 classes. Nine of these visits will be of Spanish faculty
                        or instructors. Five (5) of the 14 visits will be of faculty or instructors in a Foreign
                        Language other than Spanish. No particular instructor in any language shall be visited
                        more than once during this period.
                      
                     
                      From week 5 to week 8 of the semester the GA who is not teaching will submit to the
                        Spanish Language Coordinator  11 new Class Visitation Reports, proving that he or
                        she has successfully visited 11 classes. No particular instructor shall be visited
                        more than once during this period.
                      
                     
                      In week 9 of the semester, the GA will perform a teaching demonstration, in consultation
                        with the Supervisor. During such event, he or she will teach a class following a plan.
                        The GA’s teaching performance will be used to consider if he or she is prepared to
                        teach without direct supervision.
                      
                     
                      Although these are the minimum requirements, it is encouraged that GA’s visit as many
                        other classes as possible.
                      
                     
                      These regulations apply to all GA’s who are not teaching a class even if such visits
                        have already been performed during a previous semester. Failure to comply with the
                        reports by the required dates will be considered as evidence of non-compliance with
                        their responsibilities as Graduate Assistants.
                      
                     
                      Assisting instructors in the teaching of lower-division courses during the first two
                        semesters is also a significant aspect of the GA training.  All graduate assistants
                        are required to have the 20 hours of training per week, which will include aspects
                        such as class observation, participation in workshops, preparation of mini-classes
                        and full classes, assisting faculty in the teaching of upper-division courses, and
                        assisting instructors in the teaching of lower-division courses.    
                     
                      4. Reappointment of Teaching Assistants 
                     
                      Graduate Teaching Assistantships are normally granted for four semesters. Appointments
                        beyond the fourth semester are contingent upon the number of positions and funds available
                        in the Department of Foreign Languages. In order to be reappointed, a graduate teaching
                        assistant must:
                      
                     
                      
                        
                         Show good academic performance. A minimum 3.0 GPA each semester must be maintained
                           in order to retain your assistantship.
                         
                        
                         Demonstrate a pedagogical competency meeting the requirements of the TA Supervisor.
                           During their first and second semesters, TA's must comply with the required class
                           visitation as stated in the specific guidelines, submit an oral and written report
                           to the TA Supervisor and Graduate Coordinator, participation in online and campus
                           workshops, and assist in the teaching of lower- and upper-division courses.
                         
                        
                      
                     
                      c.   Give evidence of an improved proficiency in Spanish. 
                     
                      5. Reading List 
                     
                      In addition to the course work, candidates are provided with a reading list, which
                        is found at the end of this document. This particular reading list serves as a guide
                        and a general orientation only.  However, the emphasis is on the actual reading list
                        discussed in each class.
                      
                     
                      6. Language Proficiency 
                     
                      All graduate students must demonstrate proficiency in Spanish. Deficiencies must be
                        corrected. Lack of proficiency in Spanish can and will be used as a basis for termination
                        of the student’s graduate assistantship.
                      
                     
                      7. Reading Knowledge of a Second Language 
                     
                      All candidates shall acquire a reading knowledge of a foreign language other than
                        that of the concentration. (See #4 under the section "Program Requirements" in this
                        document). In the case of international students, English will not be accepted to
                        satisfy this requirement.
                      
                     
                      8. Independent Studies 
                     
                      An independent study is a planned activity, under the direct supervision of faculty,
                        involving a project not covered in any other format in the Department. Independent
                        studies must not be taken in lieu of other courses being offered.  Independent study
                        courses should only be approved in extraordinary situations.   Furthermore, independent
                        study courses depend on the willingness and/or availability of faculty members.
                      
                     
                      9. Minimum Coursework Requirements for the MA Program in Spanish 
                     
                      3 courses in Peninsular literature  3 courses in Latin American literature  1 course in Spanish Linguistics  1 course Optional (any one of the above)
                      
                     
                      Each of these courses carries 3 credit hours. They must be taken in the Department
                        of Foreign Languages (unless an exception was approved by the graduate coordinator)
                        and they must be at the 7000-level. This is minimum coursework without which the student
                        is not eligible to take the comprehensive exams.
                      
                     
                      There are also additional requirements for eligibility. The listing above corresponds
                        to what is usually referred to as a combination of:  3-3-2  4-3-1  3-4-1
                      
                     
                      This minimum coursework gives you 24 hours of graduate work. The rest of the courses
                        to reach the minimum of 33 may be (these are only suggestions):
                      
                     
                      1.         SPAN 6563 - Spanish Lit Genres (3), unless this course was taken at the
                        undergraduate level (4563)  2.         PORT 6024 Introduction to Brazilian Short Stories (3), unless this course
                        was taken at the undergraduate level (4024)  3.         Additional 7000-level courses in SPAN Linguistics  4.         Additional 7000-level courses in Spanish literature or Spanish –American
                        literature  In regard to 4000/6000 level courses. Students who have already taken a combination
                        4000/6000 level as an undergraduate student or whose topic is determined to have already
                        been covered as an undergraduate student (although the title may be different) WILL
                        NOT be able to count these courses (if taken at the 6000 level) for graduation. 
                      
                     
                      10. Comprehensive Examinations 
                     
                      Before being recommended for graduation, every candidate for the Master’s degree is
                        required to pass a final written and oral comprehensive examination. Eligibility to
                        take the comprehensive exams includes the following:  1.         The student must have already completed a minimum of thirty-three (33)
                        semester hours of graduate work including the minimum required coursework: 3-3-2/
                        4-3-1 / 3-4/1 which is a combination of Spanish Literature, Spanish American Literature
                        and Linguistic courses. All of these courses must be taken in the Department of Foreign
                        Languages and Literatures (unless permissions was granted by the graduate coordinator)
                        and must be at the 7000-level.  2.         At least twenty-three (23) hours must be taken in 7000-level courses (eight
                        [8] courses in all). Only three courses at the 6000 level will count toward the degree.  3.         The reading knowledge requirement must be satisfied prior to the comprehensive
                        exams. A reading knowledge of a foreign language other than that of the concentration
                        is required of all students in order to graduate. This is explained under the Program
                        Requirements.  4.         The student must have at least a 3.0 average in all graduate work.
                      
                     
                      It is the student's responsibility to confer with the Coordinator one semester prior
                        to the examination date regarding the time and place of this examination. At that
                        time, the candidates should also arrange individual meetings with the professors of
                        Peninsular literature, Latin American Literature and Linguistics to discuss material
                        to be included in the comprehensive exams.
                      
                     
                      The comprehensive written and oral examinations will be conducted in Spanish. All
                        exams are proctored by a faculty member or by personnel designated by the Coordinator.
                        After the written exam candidates are required to take an oral examination which may
                        include questions related to the written part (further analysis, clarification of
                        points, etc.) as well as questions related to the reading list and/or content of the
                        courses or any other material indicated by each member of the examining committee
                        which may not have been included in the written exam.
                      
                     
                      In order to obtain a passing grade on the comprehensives, the candidate must pass
                        the areas covered by these exams with a grade of B or better (80-100). A student who
                        does not perform satisfactorily on the first comprehensive examination will be given
                        an opportunity to retake the areas that he/she has failed when the exams are offered
                        again. The Spanish faculty will recommend relevant coursework which the student may
                        elect to take in preparation for retaking the exam. If the student's performance is
                        unsatisfactory on the second examination, he/she will be dropped from the program.
                      
                     
                      The oral and written comprehensive exams are mandatory for all the students in the
                        program.
                      
                     
                      After the administration of both the written and oral exams, the chair of the examining
                        committee will ask each faculty member participating in these exams to sign the Comprehensive
                        Examination Results Form which will be submitted to the Graduate School within a week.
                        This form will indicate if the student passed or failed the comprehensive exams. 
                      
                     
                      11. PROCEDURES FOR COMPREHENSIVE EXAMS 
                     
                      1.         All students will take the exams during the same period of time.  2.         Exams will be administered by a faculty member or designated personnel.  3.         Written and oral exams are always in Spanish.  4.         Students must finish the exam within the allotted time. Missing any of
                        these exams --including the oral-- will subject the student to a failing grade.  5.         The student can use a dictionary (Spanish-Spanish or Spanish-English).
                        Notes, books or any other materials are not permitted and their usage will subject
                        the student to a failing grade.  6.         Students who decide to postpone the date of the comprehensive exams should
                        inform the Graduate Coordinator the semester they are completing their coursework.
                        When the student decides to postpone the exam date, he/she will need to arrange with
                        the Coordinator to schedule a new date. The new scheduled date will fall within the
                        policy according to which comprehensive exams are given twice a year. Therefore, the
                        student needs to be very careful when postponing these exams because he/she will have
                        to wait an entire academic semester or more to retake them.  7.         Eligibility to take the comprehensive exams includes: a) 33 hours in the
                        field; b) passing the Reading Knowledge requirement.  8.         The written and oral comprehensive exams may include the following sections
                        in the areas of Spanish and Spanish American literature. These are only guidelines.
                        It is mandatory to consult with each faculty member who is participating in the exam.
                        The comprehensive exam in Linguistics, for instance, may have a totally different
                        format.  a.         Questions requiring that the student identify literary works from the
                        reading list and/or from the course work. The student should always consult with the
                        corresponding faculty member to agree on a final reading list in each particular area.  b.         Questions that require specific knowledge regarding the content of the
                        courses.  c.         Questions that require analysis and interpretation of literary works.
                        This would usually be an essay intended to demonstrate the student's ability to analyze
                        literary works at a level corresponding to the critical thinking required of graduate
                        students. 
                      
                     
                      Each section must be allotted a certain percentage. The following percentages are
                        recommended:
                      
                     
                      Part a: 20-30% 
                     
                      Part b: 20-30% 
                     
                      Part c: 40-60% 
                     
                      12. Additional Information regarding the Comprehensive Exams 
                     
                      The student will have three written and oral exams 1) Spanish Literature; 2) Spanish
                        American Literature; and 3) Linguistics.* 
                      
                     
                      The student will have a written and an oral exam in each of these subjects that they
                        will take the same day. For the written exam the student has a maximum of two and
                        a half hours, but it may only be two hours.
                      
                     
                       Illustration  
                     
                      
                        
                         
                           
                            
                              
                               
                                 
                                  TUESDAY 
                                 
                               
                              
                               
                                 
                                  WEDNESDAY 
                                 
                               
                              
                               
                                 
                                  THURSDAY 
                                 
                               
                              
                            
                           
                            
                              
                               
                                 
                                  Spanish American 
                                 
                               
                              
                               
                                 
                                  Spanish 
                                 
                               
                              
                               
                                 
                                  Linguistics 
                                 
                               
                              
                            
                           
                         
                        
                      
                     
                      Written Exam  1:00 pm - 3:30 pm 1:00 -3:30 1:00-3:30pm**  Break  3:30 pm -4:30 pm 3:30 -4:30pm 3:30-4:30 pm  Oral Exam  4:30 pm- 6:00 pm 4:30-6:00 pm 4:30-6:00 pm 
                      
                     
                      Each of these written exams may have questions from all of the different professors
                        and their specified area, or only some of them. In any case, you should be well prepared
                        and know all of the material covered by each of the professors. In the oral exams
                        from each subject- except Linguistics- a minimum of two professors will participate,
                        but all of the professors of the subject may be there even if they have not participated
                        in any of the questions for the written exams.  In the oral exams of each subject
                        there may be questions or comments about the questions from the written exam, or questions
                        from professors who did not participate in the written exam.  **Depending on the courses that the student has taken in Linguistics, the exam duration
                        time may vary from one hour to one and a half hours to two hours to two and a half
                        hours at the maximum.
                      
                     
                      The content of the exams may refer to any of the following situations: 
                     
                      a) The material of the course or courses from the professor with whom the student
                        took the class  b) New readings or materials- essays, for example- that the professor determines
                        relevant in relation to a specific class  c) A combination of the course material with the new lectures  or materials that
                        the professor determines relevant in relation to a specific class  The student must have an interview with each professor who will test the student
                        to determine which of the situations mentioned will correspond to the student. This
                        may be different with each professor that may participate. The responsibility of scheduling
                        the interview relies on the student and is not the responsibility of the professor.
                      
                     
                      13. Graduation 
                     
                       In order to graduate, students are required to submit to the Graduate School the
                        following:
                      
                     
                      
                        
                         Intent to Graduate Card 
                        
                         Master’s Degree Candidacy Form 
                        
                      
                     
                      Students are responsible for submitting both forms and making sure to comply with
                        the deadlines. The Coordinator of the program and/or faculty members are not responsible
                        for informing the students about the deadlines or for filling out these forms. In
                        the case of the Master’s Candidacy Form, students need to secure each of the required
                        approvals and signatures requested on the form.
                      
                     
                      14. Time Limitation 
                     
                      All requirements for the degree must be completed in six calendar years. Courses more
                        than six years old will not be allowed as credit toward the Master's degree. There
                        are no exceptions to this policy. However, students may request the option of validating
                        old courses as described in the catalog under the section "Course Validations." It
                        should be noted that even though validation of old courses is provided as an option,
                        this procedure is very restricted and subject to several regulations. 
                      
                     
                      15. Grade Point Average (GPA) 
                     
                      Graduate students must maintain a 3.00 GPA (the equivalent of a "B"). A grade below
                        "C" will not apply toward any graduate degree, but will be computed in the GPA. No
                        more than seven (7) hours of "C" will be applied towards meeting degree requirements.
                        Grades of “D” and “F” will not apply toward any graduate degree, but will be computed
                        in the GPA. Grades earned at another university will not be computed in the cumulative
                        GPA. A graduate student whose cumulative grade point average drops below 3.00 will
                        be placed on probation. A second consecutive semester on probation can result in suspension.
                      
                     
                      16. Academic Misconduct 
                     
                      Graduate students at The University of Memphis are expected to observe the regulations
                        and policies that govern the behavior of students as members of this academic community.
                        These regulations and policies are published and available online. In particular,
                        graduate students should become familiar with the University's policies on plagiarism
                        in its various forms. Furthermore, term papers may not be used to meet the requirements
                        of more than one course unless approved in advance by both instructors. 
                      
                     
                      17. Invitation to evaluate the MA program 
                     
                       Graduate students have the opportunity to evaluate each course every semester by
                        means of the standard student evaluation (SETE). Additionally, all graduate students
                        who have passed their comprehensive exams are invited to submit an evaluation of the
                        program, which should be addressed to the Coordinator of Graduate Studies.
                      
                     
                      18. Current Graduate Course Offerings 
                     
                      Please refer to the corresponding schedule of classes. 
                     
                      19. Spanish Graduate Faculty (you can also visit our   Faculty Website   )    
                     
                       Pilar Alcalde, Associate Professor of Spanish. Ph.D. University of Southern California.  Area of Research: Golden Age   Vania Barraza, Associate Professor. Ph.D. University of Arizona.  Area of Research: Spanish American Literature   Fernando Burgos, Professor of Spanish. Ph.D. University of Florida.  Area of Research: Nineteenth-   Twentieth-Century Spanish American narrative   Inmaculada Gomez Soler, Assistant Professor. Ph.D. University of North Carolina, Chapel
                           Hill.   Area of Research: Linguistics
                      
                     
                       Yuki Matsuda, Associate Professor of Japanese and Linguistics. Ph.D. University of
                           Southern California.  Area of Research: Linguistics
                      
                     
                       Fatima Nogueira, Associate Professor. Ph.D. Vanderbilt University.  Area of Research: Latin American Literature. Spanish and Portuguese languages
                      
                     
                       Iván Ortega Santos, Associate Professor. Ph.D. University of Maryland.  Area of Research: Linguistics
                      
                     
                       Diana Ruggiero, Assistant Professor.  Ph.D.  Ohio State University.  Area of Research: Spanish for Professional Purposes   Francisco Vivar, Professor. Ph.D. University of California, Los Angeles.   Area of Research: Golden Age prose and drama. Colonial Spanish American literature
                      
                     
                       Lan Zhang, Associate Professor of Chinese and Linguistics. Ph.D. University of South
                           Carolina.  Area of Research: Linguistics
                      
                     
                      Contact information 
                     
                      Fernando Burgos, Professor of Spanish. Ph.D. Coordinator of Graduate Studies, 901.678.3158,
                          fburgos@memphis.edu   
                     
                     
                     	
                      
                   
                
                
                   
                      
                         About the Spanish Program 
                         
                            
                               
                                About  
                                Why Study Spanish  
                                Undergraduate Degree   
                                      Major  
                                      Minor  
                                  
                               
                                Graduate Program   
                                     
                                      About the Masters  
                                     
                                      Overview/Objectives  
                                     
                                      Courses  
                                     
                                      For Graduate and Teaching Assistants  
                                     
                                      Reading List  
                                  
                               
                                Study Abroad  
                                Success Stories  
                                Tutoring  
                                Faculty  
                                Contact  
                                Useful Links  
                                Department of World Languages and Literatures  
                            
                         
                      
                      
                      
                         
                            
                                Events  
                               Including Language Fair, Film Festivals, Lectures, and other activities 
                            
                            
                                Student Help  
                               Language Media Center, Language Tables, Placement Testing and Tutoring 
                            
                            
                                Newsletter  
                               Get the News from World Languages and Literatures 
                            
                            
                                Contact Us!  
                               Email, location and hours for the main office. 
                            
                         
                      
                      
                      
                   
                   
                
                
             
             
          
          
       
    
    
    
      
      
       
 
    
       
          
             
                 Full sitemap   
             
             
                
                   
                      Admissions 
                      
                         
                             Prospective Students  
                             Undergraduate  
                             Graduate  
                             Law School  
                             International  
                             Parents  
                             Scholarship   Financial Aid  
                             Tuition   Fee Payment  
                             FAQs  
                             About UofM  
                         
                      
                   
                   
                      Academics 
                      
                         
                             Provost's Office  
                             Libraries  
                             Transcripts  
                             Undergraduate Catalog  
                             Graduate Catalog  
                             Academic Calendars  
                             Course Schedule  
                             Financial Aid  
                             Graduation  
                             Honors Program  
						     eCourseware  
                         
                      
                   
                   
                      Athletics 
                      
                         
                             Gotigersgo.com  
                             Ticket Information  
                             Intramural Sports  
                             Recreation Center  
                             Athletic Academic Support  
                             Former Tigers  
                             Facilities  
                             Tiger Scholarship Fund  
                             Media  
                         
                      
                   
				    
                   
                      Research 
                      
                         
                             Sponsored Programs  
                             Research Resources  
                             Centers   Institutes  
                             Chairs of Excellence  
                             FedEx Institute of Technology  
                             Libraries  
                             Grants Accounting  
                             Environmental Health  
                             Office of Institutional Research  
                         
                      
                   
                   
                      Support UofM 
                      
                         
                             Make a Gift  
                             Alumni Association  
                             Year of Service  
                         
                      
                   
                   
                      Administrative Support 
                      
                         
                             President's Office  
                             Academic Affairs  
                             Business   Finance  
                             Career Opportunities  
                             Conference   Event Services  
                             Corporate Partnerships  
  Development Office  
                             Government Relations  
                             Information Technology Services  
                             Media and Marketing  
                             Student Affairs  
                         
                      
                   
                
             
          
          
             
				    
                  
                
             
             
                   
                  
                
             
             
                
                   Follow UofM Online 
                     UofM Facebook     UofM Twitter     UofM YouTube   
                    
                   
                     UofM Instagram     UofM Pinterest     UofM LinkedIn   
                
             
              
                   
                      
                   
                
      
          
       
    
 
 
      
      
      
       
          
             
                
                   
                      
                         
                            
                               
                                 
                                 
                                  
  Print  
  Got a Question? Ask TOM  
  Copyright © 2017 University of Memphis  
  Important Notice  
                                  
                                 
                                 
                                  
                                     Last Updated: 11/30/17 
                                  
                                 
                                 
                                  
  University of Memphis  
 Memphis, TN 38152 
 Phone: 901.678.2000 
 
  
 The University of Memphis does not discriminate against students, employees, or applicants for admission or employment on the basis of race, color, religion, creed, national origin, sex, sexual orientation, gender identity/expression, disability, age, status as a protected veteran, genetic information, or any other legally protected class with respect to all employment, programs and activities sponsored by the University of Memphis. The Office for Institutional Equity has been designated to handle inquiries regarding non-discrimination policies. For more information, visit  University of Memphis Equal Opportunity and Affirmative Action .  
Title IX of the Education Amendments of 1972 protects people from discrimination based on sex in education programs or activities which receive Federal financial assistance. Title IX states: "No person in the United States shall, on the basis of sex, be excluded from participation in, be denied the benefits of, or be subjected to discrimination under any education program or activity receiving Federal financial assistance..." 20 U.S.C. § 1681 - To Learn More, visit  Title IX and Sexual Misconduct .
 
 
                                 
                                 
                                 
                               
                            
                         
                      
                   
                
             
          
       
    
   
   
   
   
   
   
 



 


