home   
 
 
                                                                        
                                                                        
                         
   
                                                                        
                                                                        
                         
   
                                                                        
                                                                        
                         
   
   home 
 
   
                                                                        
            
                                        
   
  
                                            
                                           
                                                              
    DR. DENNIS LAUMANN    
                      
                                                                        
            
   Professor of African History 
and Director of Undergraduate Studies  
in   the   Department      of  History     at 
The   University      of  Memphis            
                                                                        
            
  
                                                
                                             
                                                                        
            
    History
Department                      profile   
                                              
                Posts at  Africa is a country    
               
                                                                        
            
   Articles in  People's World       
                    
                 
                               
                          
        
    
                                             
                                            
                                                                        
            
    CONTACT INFORMATION   
                      
                                             email:      dlaumann@memphis.edu    
                      
                                             office     phone:    901-678-3392              
                                             fax:    901-678-2720                 
                                             office:     Mitchell     Hall   139          
                                             Department       of  History     phone:    901-678-2515   
       
                                             POSTAL     ADDRESS               
                                             3705    Alumni    Drive     
                                           Department of History   
                                             The   University      of  Memphis            
                                             Memphis     TN  38152-3450                
                                             USA                                              
       
  
                                           
                                                 
                                                                         
                                      
                                      
  DR. LAUMANN'S COURSES   
                                                              
  Fall 2016  
Hist 1110, World Civilizations I                        
   
    Spring 2016  
                Hist 4285/6285, Afro-Cuban History and Culture (Study Abroad
  Program) 
  Hist 1110, World Civilizations I                        
                                             
                                                                        
          
       
                                                              
  
                                           
                                            
                                                                  
        
                                                                         
                                      
                                      
   THE UNIVERSITY OF MEMPHIS   
                      
                                                                        
            
  African and African American Studies
                     Program   
                                      
                                                                         
                                      
  Department of History    
         
                           
           search   The University of Memphis    Libraries here   
                              
                                      
                                                                         
                                      
        
                                      
                                      
                                                                         
                                                 
     
                        
    
                                             
                                            
                                            
                                                                        
            
  
                                                                        
            
  
                                                                        
            
                                      
        
                                                                         
                                      
                                            
  AFRICA LINKS  
                                      
                                                                         
        
                                                         
         
                                                                     
                
   
                                            
                                             
                                            
                                      
                                                                         
                                            
  
                                            
                                                                        
            
   
                                                                         
                                      
   GHANA LINKS   
                                                                         
  
                                                                         
          
                                      
                                                                         
  
                                      
                                       Graphic   Online   
                                      
                                                                         
                                      
                                      
             
                                                                         
       
                                     
                                      
                                                                         
  
                                      
                                                                         
                                      
             
                                                                        
            
   
                                      CUBA LINKS  
                                                   
                              
  
                                      
                                                                         
            
                                                            
  
                                      
                                                                         
        
                                AfroCubaWeb       
         
                                      
                                                          
                                                       
  
                                                                         
                                      
  MARXISM LINKS  
                                                         
        
                     
                                                                         
                  
                              
                                                       
                                                                 
 
                                                                         
         
                                        
                                      
                                                                         
  
                                      
                                                                         
        
                                                                        
            
  
                                                                         
                                      
  MARXIST BOOKS LINKS  
                                      
                                                                         
  
                                      
                                                                         
                                                       
   
       
          
                            
                                                                        
            
                                            
  LIFESTYLE AND ENVIRONMENT LINKS  
                                      
                                                                         
        
                                             
  
                             
                                            
                                                                         
         
  
                             
                             
                                                    
                                      Last updated 29 August
2016                                            
        
                                      
                                                                         
                     
                             
                                           
 
                                                              

                                             
  
 
 
   
 
 
