UofM Login Service   
 
  	 
		 
    		 
		 
		 
    		 UofM Login Service 
    		 
                 
  	 
  	 

 
 

 
    

         

	  
	  

	 
	 


       
		 
          

           

	      
                
	      

           
             

                                                                         
                  Login to eCourseware
                 
              
               
                 UUID 
                 
               

               
                 Password 
                 
               

               
                 Login 
               
             
           
           
             
                    Forgot your username?  
                    Reset your password?  
                    Initialize your account?  
                    Need help?  
             
           

            

		 
			By using this service, you acknowledge that you have read and agree to the terms and conditions of the Acceptable Use of Information Technology Resources Policy ( UM1535 )
		   

            

         

      

   

	 
    			 Need help?  Contact the ITS Service Desk: (901) 678-8888 
	 

	 
 
