Finding your group email address in Wiggio | Resource Center   
 
 
 
 
   
 
 
 
 
 
 
 
 
 
 
 
 
 
 Finding your group email address in Wiggio | Resource Center 








 

 
 
 
 
 

 

 

 








 
 
 
   
     Skip to main content 
   
     
   
  
	      
       Select your language 
  
      
   العربية  English  Português  Español  Français  
 
 
 
 
 
 
 
 
 
 
   
      	
     
       
         
                       
								 
				     				 
											
				                 

                                        Resource Center  
                  
                  
                 
							 
          
		  			    
       Main menu 
  
     Home    Accessibility    Capture    ePortfolio    Integrations    Learning Environment   
    		  
         
       
     

  	 
	 


    
    
    
     
       

         
           

             
               

                
                 

                  
                   
                     

                      
                       You are here    Home    »    Integrations    »    Wiggio    »    Creating and using groups in Wiggio   
                      
                      
                      
                      
                       
                           
  
   
   

    
               

                   
                          Finding your group email address in Wiggio                       
        
        
       
          
     
           Printer-friendly version       Every group has a specialized group email address following the form [groupname]@wiggiomail.com. When you send an email to the group email address, all group members receive it unless they have disabled their alerts. The email message will also post to each group member's feed. 
 Find your group email address 
  Click on the group you want to find the group email address for from the Groups area. 
	 Select  View Group Mailing List   from the More Actions drop-down list. The group email address displays in the  Group Mailing List  field. 
      Audience:    Learner      

    
           

                   ‹ Adding a subgroup to a conversation in Wiggio 
        
                   up 
        
                   Finding your group password in Wiggio › 
        
       
    
   
     

    
    
   
 

                          

                      
                     
                   

                 

                
               
             

                  
        Wiggio  
  
      Wiggio basics    Creating and using groups in Wiggio    Creating a group in Wiggio    Adding members to a group in Wiggio    Creating a subgroup in Wiggio     Adding a subgroup to a conversation in Wiggio    Finding your group email address in Wiggio    Finding your group password in Wiggio    Finding your group administrator in Wiggio    Sharing a group in Wiggio    Joining a group in Wiggio    Leaving a group in Wiggio    Updating group email notification settings in Wiggio      Managing groups in Wiggio     Adding resources to Wiggio    Creating and using folders in Wiggio    Using virtual meetings in Wiggio    Using polls in Wiggio    Using to-do lists in Wiggio    Managing events in Wiggio    Importing and exporting calendars in Wiggio    
                  
           
         

       
     

    
    
           
         
                       
           
         
       
	 
		 
		 
			 
				 
					 Links 
					 	
						   Printer-friendly version   
						  							
						  							
					 
				 
				 
					 Contact Us 
					 Want to reach a member of the Client Enablement team?  Contact us via the Brightspace Community site, email or Twitter. 
					  Brightspace Community      Community Email      @BrightspaceHelp  
				 
			 
			  The D2L family of companies includes D2L Corporation, D2L Ltd, D2L Australia Pty Ltd, D2L Europe Ltd, D2L Asia Pte Ltd and D2L Brasil Solu  es de Tecnologia para Educa  o Ltda.    1999-2015 D2L Corporation. |   Privacy Statement   |   Community Rules   |   About    Brightspace, D2L, and other marks ("D2L marks") are trademarks of D2L Corporation, registered in the U.S. and other countries.  Please visit  www.d2l.com/trademarks  for a list of other D2L marks.
			 
			 			
		 
	 
	 
    
   
 
   
 
