Find Technology - umTech - Information Technology Services - University of Memphis    










 
 
 
     



 
    
    
    Find Technology - 
      	umTech - Information Technology Services 
      	 - University of Memphis
    
    
    
    
    
    
    
    
    
    
    
    
    
    
    
    
    
    
    
    
    
    
    
    
    
   
   
   






   
   
   
    
    
    
    
    
    
    
    
    
    
    
    
    
    
    
    
    
 
 
   
   
   
   
 
    
   
   
    
      
      
          
     
    
       
          
             
                
				    
					     
                   
      
                
                
                    
                
                
                   
                      
                         
                            
                               
                                   Lambuth Campus  
                                   myMemphis  
                                   Webmail  
                                   Faculty   Staff  
                                   Contact  
                                   Directories  
                               
                            
                            
                               Search 
                               
							   
							      
						 Site Index 
                            
                             
                         
                      
                   
                   
                      
                         
                            
                                Academics    
                                  
                                      Academics Overview  
                                      Colleges   Schools  
                                      Undergraduate Catalog  
                                      Graduate Catalog  
                                      Honors Program  
								      UofM Global  
                                  
                               
                                Admissions    
                                  
                                      Admissions Information  
                                      Undergraduate Students  
                                      Graduate Students  
                                      Law Students  
                                      International Students  
                                  
                               
                                Athletics    
                                  
                                      Tiger Athletics  
                                      Ticket Information  
                                      Intramurals  
                                      Make A Gift  
                                      Rec Center  
                                      gotigersgo.com  
                                  
                               
                                Research    
                                  
                                      Research   Sponsored Programs  
                                      Research Resources  
                                      Centers/Chairs of Excellence  

                                      Centers and Institutes  
									  FedEx Institute of Technology  
                                      electronic Research Administration (eRA)  
									  Office of Institutional Research  
                                  
                               
                                Support UofM    
                                  
                                      Development  
                                      Make a Gift  
                                      Alumni Association  
                                      Athletics Development  
                                  
                               
                                Libraries    
                                  
                                      University Libraries  
                                      Libraries Resources  
                                      Libraries Services  
                                      Special Collections  
                                      Ask a Librarian  
                                  
                               
                            
                         
                      
                   
                
             
             
                
                   
                      Resources for... 
                      
                          Prospective Students  
                          Current and Returning Students  
                          Parents  
                          Alumni  
                          Veterans  
                      
                       Expand Menu  
                   
				   			   
                
             
          
       
    
          
      
          
    
       
          
             
                
                   
                       
                           			umTech - Information Technology Services 
                           	 
                          
                   
                
             
          
       
       
          
             
                
                   
                      
                          Service  
                          Support  
                          Teaching  
                          Smart Tech  
                          Students  
                          Solutions  
                      
                      
                         
                            Smart Tech Services   
                            
                               
                                  
                                   Mission, Vision and Values  
                                   Discover Opportunities  
                                   Find Technology  
                                   Streaming Events  
                                   Smart Tech Contact  
                               
                            
                         
                      
                   
                
             
          
          
             
                
                   
                      
                          Home  
                          
                              	umTech - Information Technology Services 
                              	  
                          
                              	Smart Tech Services
                              	  
                         Find Technology 
                      
                   
                   
                       
                      
                     
                     		
                     
                     
                      Locating Computer Labs   Smart Classrooms on Campus 
                     
                       Computer Labs and Smart Classrooms are an integral part to student success at the
                           University of Memphis. Each Lab and Classroom is funded by the   Technology Access Fee.  
                     
                       Search the Technology Resource Locator (TRL) . All Lab and Smart Classroom information, including a number of workstations and
                        operating system, can be found on TRL.
                      
                     
                        Computer Labs   - ITS maintains 2 extended-hours labs
                      
                     
                      
                        
                          Technology Hub  in the University Center (Room 265) has 70+ Dell computers and 10+ imacs. Collaboration
                           space is available for group study, as well as technology enhanced work rooms for
                           student use. A valid student ID and enrollment in the current term is necessary for
                           reservation.
                         
                        
                          Learning commons  in Mcwherter Library has more than 100 Dell computers on three levels.
                         
                        
                         TigerLAN software is available in these labs. 
                        
                      
                     
                        
                     
                        Smart Classrooms   - ITS supports more than 360 Smart Classrooms on and off campus.
                      
                     
                                 What is in a smart classroom?  
                     
                      
                        
                         
                           
                            
                              
                               Each smart classroom is equipped with a computer, a laptop, input, and an audio system.
                                 Instructions for all classrooms can be found by visiting the Technology Resource Locator.
                               
                              
                               TigerLAN software is available in these smart classrooms. 
                              
                            
                           
                         
                        
                      
                     
                                 Clickers in the classroom  
                     
                      
                        
                         
                           
                            
                              
                               Every University of Memphis smart classroom is capable of supporting our standard
                                 classroom response systems, or  REEF Polling .
                                 
                                    
                                 
                               
                              
                            
                           
                         
                        
                      
                     
                      Additional Resources 
                     
                      
                        
                          Order Supplies for TigerLAN Computer Labs  
                        
                      
                     
                      
                        
                          Alarm Codes - Computer Labs and Smart Classrooms  
                        
                      
                     
                     
                     	
                      
                   
                
                
                   
                      
                         Smart Tech Services 
                         
                            
                               
                                Mission, Vision and Values  
                                Discover Opportunities  
                                Find Technology  
                                Streaming Events  
                                Smart Tech Contact  
                            
                         
                      
                      
                      
                         
                            
                                Enter a Service Request  
                               Need Help with Technology? Request technical support via umHelpdesk, or search AskTom,
                                 a collection of questions and answers to technical problems.
                               
                            
                            
                                ITS Service Catalog  
                               Browse a collection of ITS services offered, learn how to access them and what Information
                                 is needed to fulfill service requests. 
                               
                            
                            
                                Preparing for Banner 9  
                               The UofM is upgrading to Banner 9. Keep up with the latest developments. 
                            
                            
                                Contact Us  
                               Contact the ITS Service Desk at 901.678.8888. (Available 24 hours a day, excluding
                                 posted holidays) Chat Live Monday - Friday 8:00 am - 7:00 pm CDT
                               
                            
                         
                      
                      
                      
                   
                   
                
                
             
             
          
          
       
    
    
    
      
      
       
 
    
       
          
             
                 Full sitemap   
             
             
                
                   
                      Admissions 
                      
                         
                             Prospective Students  
                             Undergraduate  
                             Graduate  
                             Law School  
                             International  
                             Parents  
                             Scholarship   Financial Aid  
                             Tuition   Fee Payment  
                             FAQs  
                             About UofM  
                         
                      
                   
                   
                      Academics 
                      
                         
                             Provost's Office  
                             Libraries  
                             Transcripts  
                             Undergraduate Catalog  
                             Graduate Catalog  
                             Academic Calendars  
                             Course Schedule  
                             Financial Aid  
                             Graduation  
                             Honors Program  
						     eCourseware  
                         
                      
                   
                   
                      Athletics 
                      
                         
                             Gotigersgo.com  
                             Ticket Information  
                             Intramural Sports  
                             Recreation Center  
                             Athletic Academic Support  
                             Former Tigers  
                             Facilities  
                             Tiger Scholarship Fund  
                             Media  
                         
                      
                   
				    
                   
                      Research 
                      
                         
                             Sponsored Programs  
                             Research Resources  
                             Centers   Institutes  
                             Chairs of Excellence  
                             FedEx Institute of Technology  
                             Libraries  
                             Grants Accounting  
                             Environmental Health  
                             Office of Institutional Research  
                         
                      
                   
                   
                      Support UofM 
                      
                         
                             Make a Gift  
                             Alumni Association  
                             Year of Service  
                         
                      
                   
                   
                      Administrative Support 
                      
                         
                             President's Office  
                             Academic Affairs  
                             Business   Finance  
                             Career Opportunities  
                             Conference   Event Services  
                             Corporate Partnerships  
  Development Office  
                             Government Relations  
                             Information Technology Services  
                             Media and Marketing  
                             Student Affairs  
                         
                      
                   
                
             
          
          
             
				    
                  
                
             
             
                   
                  
                
             
             
                
                   Follow UofM Online 
                     UofM Facebook     UofM Twitter     UofM YouTube   
                    
                   
                     UofM Instagram     UofM Pinterest     UofM LinkedIn   
                
             
              
                   
                      
                   
                
      
          
       
    
 
 
      
      
      
       
          
             
                
                   
                      
                         
                            
                               
                                 
                                 
                                  
  Print  
  Got a Question? Ask TOM  
  Copyright © 2017 University of Memphis  
  Important Notice  
                                  
                                 
                                 
                                  
                                     Last Updated: 12/8/17 
                                  
                                 
                                 
                                  
  University of Memphis  
 Memphis, TN 38152 
 Phone: 901.678.2000 
 
  
 The University of Memphis does not discriminate against students, employees, or applicants for admission or employment on the basis of race, color, religion, creed, national origin, sex, sexual orientation, gender identity/expression, disability, age, status as a protected veteran, genetic information, or any other legally protected class with respect to all employment, programs and activities sponsored by the University of Memphis. The Office for Institutional Equity has been designated to handle inquiries regarding non-discrimination policies. For more information, visit  University of Memphis Equal Opportunity and Affirmative Action .  
Title IX of the Education Amendments of 1972 protects people from discrimination based on sex in education programs or activities which receive Federal financial assistance. Title IX states: "No person in the United States shall, on the basis of sex, be excluded from participation in, be denied the benefits of, or be subjected to discrimination under any education program or activity receiving Federal financial assistance..." 20 U.S.C. § 1681 - To Learn More, visit  Title IX and Sexual Misconduct .
 
 
                                 
                                 
                                 
                               
                            
                         
                      
                   
                
             
          
       
    
   
   
   
   
   
   
 



 


