Fee Payment Methods - Bursar's Office - University of Memphis    










 
 
 
     



 
    
    
    Fee Payment Methods - 
      	Bursar's Office
      	 - University of Memphis
    
    
    
    
    
    
    
    
    
    
    
    
    
    
    
    
    
    
    
    
    
    
    
    
    
   
   
   






   
   
   
    
    
 
 
   
   
   
   
 
    
   
   
    
      
      
          
     
    
       
          
             
                
				    
					     
                   
      
                
                
                    
                
                
                   
                      
                         
                            
                               
                                   Lambuth Campus  
                                   myMemphis  
                                   Webmail  
                                   Faculty   Staff  
                                   Contact  
                                   Directories  
                               
                            
                            
                               Search 
                               
							   
							      
						 Site Index 
                            
                             
                         
                      
                   
                   
                      
                         
                            
                                Academics    
                                  
                                      Academics Overview  
                                      Colleges   Schools  
                                      Undergraduate Catalog  
                                      Graduate Catalog  
                                      Honors Program  
								      UofM Global  
                                  
                               
                                Admissions    
                                  
                                      Admissions Information  
                                      Undergraduate Students  
                                      Graduate Students  
                                      Law Students  
                                      International Students  
                                  
                               
                                Athletics    
                                  
                                      Tiger Athletics  
                                      Ticket Information  
                                      Intramurals  
                                      Make A Gift  
                                      Rec Center  
                                      gotigersgo.com  
                                  
                               
                                Research    
                                  
                                      Research   Sponsored Programs  
                                      Research Resources  
                                      Centers/Chairs of Excellence  

                                      Centers and Institutes  
									  FedEx Institute of Technology  
                                      electronic Research Administration (eRA)  
									  Office of Institutional Research  
                                  
                               
                                Support UofM    
                                  
                                      Development  
                                      Make a Gift  
                                      Alumni Association  
                                      Athletics Development  
                                  
                               
                                Libraries    
                                  
                                      University Libraries  
                                      Libraries Resources  
                                      Libraries Services  
                                      Special Collections  
                                      Ask a Librarian  
                                  
                               
                            
                         
                      
                   
                
             
             
                
                   
                      Resources for... 
                      
                          Prospective Students  
                          Current and Returning Students  
                          Parents  
                          Alumni  
                          Veterans  
                      
                       Expand Menu  
                   
				   			   
                
             
          
       
    
          
      
          
    
       
          
             
                
                   
                       
                           			Bursar's Office
                           	 
                          
                   
                
             
          
       
       
          
             
                
                   
                      
                          Staff Directory  
                          Fees  
                          Calendars  
                          Students  
                          Parents  
                          Campus Card  
                          Bursar Areas  
                      
                      
                         
                            Fees   
                            
                               
                                  
                                   Fee Charts  
                                   Fee Payment Policies  
                                   Deadlines, Refunds   Important Dates  
                                   Fee Payment Methods  
                                   Installment Payment Plan  
                                   Explanation of Fees  
                                   Financial Assistance/ Sponsorships General Info  
                                   Fee Discounts   Waivers  
                                   Fee Adjustment (Refund) Policy  
                                   Third Party/Direct Billing  
                               
                            
                         
                      
                   
                
             
          
          
             
                
                   
                      
                          Home  
                          
                              	Bursar's Office
                              	  
                          
                              	Fees
                              	  
                         Fee Payment Methods 
                      
                   
                   
                       
                      
                     		
                     
                     
                      Fee Payment Methods 
                     
                       Financial Assistance/Sponsorships General Information  
                     
                       Fee Discounts/Waivers  
                     
                      Payment by Credit Card or ACH (Electronic Check) through  TigerXpress  
                     
                               Note:  Credit card payments are final.
                      
                     
                      Payment by Check 
                     
                      The University of Memphis processes paper checks electronically. When you provide
                        a check as payment (in-person, by mail, or through our drop box) you authorize us
                        to use information from your check to make a one-time electronic funds transfer from
                        your account. In certain circumstances, such as for technical or processing reasons,
                        we may process your check as a check transaction. For your reconciliation purposes,
                        these checks will appear on your monthly bank statement as an Electronic Debit.
                      
                     
                      Check payments by mail 
                     
                      Please allow 5-7 days for processing any checks mailed to the Bursar's Office. Registration
                        fee payments must be received by the Bursar's Office  by the appropriate fee payment deadline , regardless of postmark date. Checks should be mailed to the following address:
                      
                     
                      The University of Memphis P.O. Box 1000, Dept. 313 Memphis, TN 38148-0313
                      
                     
                       Note:  Payments sent through an overnight service should be mailed to the Bursar's Office
                        at the following address:
                      
                     
                      The University of Memphis Bursar's Office 115 Wilder Tower Memphis, TN 38152-3520
                      
                     
                       Note:  If a check/draft or credit card used to satisfy enrollment fees is returned dishonored
                        by your financial institution, you will be assessed a $100 Late Payment Fee in addition
                        to the  Returned Check Service Charge  and your registration is subject to cancellation.
                      
                     
                     	
                      
                   
                
                
                   
                      
                         Fees 
                         
                            
                               
                                Fee Charts  
                                Fee Payment Policies  
                                Deadlines, Refunds   Important Dates  
                                Fee Payment Methods  
                                Installment Payment Plan  
                                Explanation of Fees  
                                Financial Assistance/ Sponsorships General Info  
                                Fee Discounts   Waivers  
                                Fee Adjustment (Refund) Policy  
                                Third Party/Direct Billing  
                            
                         
                      
                      
                      
                         
                            
                                TigerXpress  
                               View your statements and pay fees online in TigerXpress. 
                            
                            
                                Tuition Estimator  
                               How much will your courses cost? Get an estimate online! 
                            
                            
                                Forms  
                               All of B F's forms in one place 
                            
                            
                                Business   Finance  
                               The Division of Business   Finance at the U of M 
                            
                         
                      
                      
                      
                   
                   
                
                
             
             
          
          
       
    
    
    
      
      
       
 
    
       
          
             
                 Full sitemap   
             
             
                
                   
                      Admissions 
                      
                         
                             Prospective Students  
                             Undergraduate  
                             Graduate  
                             Law School  
                             International  
                             Parents  
                             Scholarship   Financial Aid  
                             Tuition   Fee Payment  
                             FAQs  
                             About UofM  
                         
                      
                   
                   
                      Academics 
                      
                         
                             Provost's Office  
                             Libraries  
                             Transcripts  
                             Undergraduate Catalog  
                             Graduate Catalog  
                             Academic Calendars  
                             Course Schedule  
                             Financial Aid  
                             Graduation  
                             Honors Program  
						     eCourseware  
                         
                      
                   
                   
                      Athletics 
                      
                         
                             Gotigersgo.com  
                             Ticket Information  
                             Intramural Sports  
                             Recreation Center  
                             Athletic Academic Support  
                             Former Tigers  
                             Facilities  
                             Tiger Scholarship Fund  
                             Media  
                         
                      
                   
				    
                   
                      Research 
                      
                         
                             Sponsored Programs  
                             Research Resources  
                             Centers   Institutes  
                             Chairs of Excellence  
                             FedEx Institute of Technology  
                             Libraries  
                             Grants Accounting  
                             Environmental Health  
                             Office of Institutional Research  
                         
                      
                   
                   
                      Support UofM 
                      
                         
                             Make a Gift  
                             Alumni Association  
                             Year of Service  
                         
                      
                   
                   
                      Administrative Support 
                      
                         
                             President's Office  
                             Academic Affairs  
                             Business   Finance  
                             Career Opportunities  
                             Conference   Event Services  
                             Corporate Partnerships  
  Development Office  
                             Government Relations  
                             Information Technology Services  
                             Media and Marketing  
                             Student Affairs  
                         
                      
                   
                
             
          
          
             
				    
                  
                
             
             
                   
                  
                
             
             
                
                   Follow UofM Online 
                     UofM Facebook     UofM Twitter     UofM YouTube   
                    
                   
                     UofM Instagram     UofM Pinterest     UofM LinkedIn   
                
             
              
                   
                      
                   
                
      
          
       
    
 
 
      
      
      
       
          
             
                
                   
                      
                         
                            
                               
                                 
                                 
                                  
  Print  
  Got a Question? Ask TOM  
  Copyright © 2017 University of Memphis  
  Important Notice  
                                  
                                 
                                 
                                  
                                     Last Updated: 11/3/17 
                                  
                                 
                                 
                                  
  University of Memphis  
 Memphis, TN 38152 
 Phone: 901.678.2000 
 
  
 The University of Memphis does not discriminate against students, employees, or applicants for admission or employment on the basis of race, color, religion, creed, national origin, sex, sexual orientation, gender identity/expression, disability, age, status as a protected veteran, genetic information, or any other legally protected class with respect to all employment, programs and activities sponsored by the University of Memphis. The Office for Institutional Equity has been designated to handle inquiries regarding non-discrimination policies. For more information, visit  University of Memphis Equal Opportunity and Affirmative Action .  
Title IX of the Education Amendments of 1972 protects people from discrimination based on sex in education programs or activities which receive Federal financial assistance. Title IX states: "No person in the United States shall, on the basis of sex, be excluded from participation in, be denied the benefits of, or be subjected to discrimination under any education program or activity receiving Federal financial assistance..." 20 U.S.C. § 1681 - To Learn More, visit  Title IX and Sexual Misconduct .
 
 
                                 
                                 
                                 
                               
                            
                         
                      
                   
                
             
          
       
    
   
   
   
   
   
   
 



 


