University of Memphis | Off Campus Housing Search | Registration | Guests Find Off-Campus housing and roommates near U of M. Log in as a student, guest or property manager to get started.  
 
 
 
     
 
	 

	 University of Memphis | Off Campus Housing Search | Registration | Guests 
     
     

	 
		 

	 
	 
	 
	 
	 
	 

	 
	 

	 
	 
     
	 
	 
	 
	 

    
	
	




 

 

	 Skip to main 


	



	 

		 
			 
	 

		  University of Memphis   Off-Campus Housing 
			 
 
			 
				 
					   Menu 
				 
			 
		 

		 
		
 
     
         
             
                 
                 
                     
                        Home
                     
                 

             
            


     
         
            Housing         

        
             
            
        
     



     
         
            Roommates
         
     

     
         
            Message Boards         
     


     
         
            Resources
         
     


 
     Help 
 

             
         
     

     
	 
			  Sign Up  
		  Log In  
		 
 

 

		 
		
		 
			
  

 
	 
		 Guest Registration 
		 
            Already have an account?
             Log in here 
         
	 
 

 You must enable cookies to use this site. For help, read our guide on  How to Enable Third-party Cookies  . If cookies are enabled and you are still unable to log in, please try our  alternate url  or contact us. 



 
    
    
    
     
         Account Information 
         
             
                 
         
            First name
         
         
        
     
             
             
                 
         
            Last name
         
         
        
     
             
         
         
             
                 
         
            Username
         
          Username must be at least 3 characters. 
        
     
             
             
                 
         
            Password
         
         
        
     
             
         
         
             
                 
         
            Email
         
         
        
     
             
             
                 
         
            Phone Number
         
         
        
     
             
         
         
             
                 
            Guest Type
         
                 
                     
      Please Select  Incoming Undergrad Student  Incoming Grad Student  Incoming Faculty/Staff  Moving to City  Current City Resident  Alumni  Parent  Other  
     
                 
                
             
             
                 
         
            Please Specify
         
         
        
     
             
         
         
             
                 
            How did you hear about this site?
         
                 
                     
      Please Select  University Web Site  Off-Campus Housing Office  University Housing Office  Student  Faculty Member  Property Manager  Newspaper Advertisement  Internet Search Engine  Facebook  Other  
     
                 
                
             
             
                 
         
            Please Specify
         
         
        
     
             
         
     

     
         Housing Options 
         
             
                 
            Approximate Move-In Date
         
                 
                     
      Select a date  Not Applicable  January  February  March  April  May  June  July  August  September  October  November  December  Unknown  
     
                 
                
             
             
                 
            Move-In Year
         
                 
                     
      2017  2018  2019  
     
                 
                
             
         
     

     
         Options 
         
             
                 
            Would you like to receive e-mails regarding new updates or info about the site?
         
             
             
                   
            Yes
           
            No
          
                
             
         
                 
             
                 
            Would you like to receive special offers from our marketing partners?
         
             
             
                   
            Yes
           
            No
          
                
             
         
             

     
         Terms of Service 
         
             
             
                I agree to the
                 Terms of Use 
                for the University of Memphis Off-Campus Housing Service. I understand that if I do not agree to these terms
                of use, I should discontinue my registration and refrain from using
                the University of Memphis Off-Campus Housing Service.
             
            
         
     

     
     
         
            Are you human
         
          Please type  I am human  without quotes 
        
     
       

  


		 

	  

	 
		 
			 
			  									 
				  Privacy Policy  
				  Disclaimer  
                  Sitemap  
				  Contact Us  
							 
			 Copyright   2017 Off Campus Partners, LLC. All rights reserved. 
		   
         
         
     
             
 
	 



	 



	
	
		

	
	



 
 
