Data Storage Guidelines - ITS - University of Memphis    










 
 
 
     



 
    
    
    Data Storage Guidelines - 
      	ITS
      	 - University of Memphis
    
    
    
    
    
    
    
    
    
    
    
    
    
    
    
    
    
    
    
    
    
    
    
    
    
   
   
   






   
   
   
    
    
    
    
    
    
    
    
    
    
    
 
 
   
   
   
   
 
    
   
   
    
      
      
          
     
    
       
          
             
                
				    
					     
                   
      
                
                
                    
                
                
                   
                      
                         
                            
                               
                                   Lambuth Campus  
                                   myMemphis  
                                   Webmail  
                                   Faculty   Staff  
                                   Contact  
                                   Directories  
                               
                            
                            
                               Search 
                               
							   
							      
						 Site Index 
                            
                             
                         
                      
                   
                   
                      
                         
                            
                                Academics    
                                  
                                      Academics Overview  
                                      Colleges   Schools  
                                      Undergraduate Catalog  
                                      Graduate Catalog  
                                      Honors Program  
								      UofM Global  
                                  
                               
                                Admissions    
                                  
                                      Admissions Information  
                                      Undergraduate Students  
                                      Graduate Students  
                                      Law Students  
                                      International Students  
                                  
                               
                                Athletics    
                                  
                                      Tiger Athletics  
                                      Ticket Information  
                                      Intramurals  
                                      Make A Gift  
                                      Rec Center  
                                      gotigersgo.com  
                                  
                               
                                Research    
                                  
                                      Research   Sponsored Programs  
                                      Research Resources  
                                      Centers/Chairs of Excellence  

                                      Centers and Institutes  
									  FedEx Institute of Technology  
                                      electronic Research Administration (eRA)  
									  Office of Institutional Research  
                                  
                               
                                Support UofM    
                                  
                                      Development  
                                      Make a Gift  
                                      Alumni Association  
                                      Athletics Development  
                                  
                               
                                Libraries    
                                  
                                      University Libraries  
                                      Libraries Resources  
                                      Libraries Services  
                                      Special Collections  
                                      Ask a Librarian  
                                  
                               
                            
                         
                      
                   
                
             
             
                
                   
                      Resources for... 
                      
                          Prospective Students  
                          Current and Returning Students  
                          Parents  
                          Alumni  
                          Veterans  
                      
                       Expand Menu  
                   
				   			   
                
             
          
       
    
          
      
          
    
       
          
             
                
                   
                       
                           			Information Technology Services
                           	 
                          
                   
                
             
          
       
       
          
             
                
                   
                      
                          About  
                          umTech  
                          Security  
                          Governance  
                          Resources  
                      
                      
                         
                            Security   
                            
                               
                                  
                                   Report a Security Incident  
                                   Alerts and Warnings  
                                         Current Alerts  
                                         Phishing  
                                         Personal Information Security  
                                         FTC Phone Call Scams Site  
                                         FBI Internet Fraud Site  
                                     
                                  
                                   Duo Account Security  
                                   Policies and Guidelines  
                                   Security Best Practices  
                                   Security Awareness Training  
                                   Access Termination  
                                   Web Security Guidelines  
                               
                            
                         
                      
                   
                
             
          
          
             
                
                   
                      
                          Home  
                          
                              	ITS
                              	  
                          
                              	Security
                              	  
                         Data Storage Guidelines 
                      
                   
                   
                       
                      
                     
                     		
                     
                     
                      Guidelines for Storage of University Electronic Data 
                     
                      The following grid outlines appropriate storage services and locations for University
                        electronic data based on the  Campus Data Security Policy (UM1691)  and the  UofM Data Classification Document . The locations or services included in the grid are accessible by end-users with
                        the primary functions of storing, sharing, or transmitting data.
                      
                     
                      Social Security Numbers (SSNs) should not be stored in any medium listed below regardless
                        of the data classification or intended use.
                      
                     
                      Pursuant to the  Payment Card Industry (PCI) Compliance Policy (UM1762) , "Cardholder data may not be stored in any University system, server, personal computer,
                        e-mail account, portable electronic device (laptop, flash drive, CD/DVD, PDA, cell-phone,
                        tablet, portable hard-drive, etc.) or on paper documents." Therefore, storage of PCI
                        data is not referenced in this document.
                      
                     
                      For locations marked with a 'Yes', it is assumed that appropriate Access Controls
                        have been enabled and reviewed to ensure that access to data is limited to appropriate
                        individuals. Additional consultation with University Data Stewards may be necessary
                        in order to store data in some locations.
                      
                     
                      
                        
                         
                           
                            
                              
                               
                                 
                                      
                                 
                                  Restricted Data 
                                 
                                       Internal / Limited Access Data      
                                 
                                                 Public Data                
                                 
                               
                              
                               
                                 
                                  
                                    
                                      Definition  
                                    
                                  
                                 
                                  
                                    
                                     Data protected by federal or state law or regulations, or by contract. Restricted
                                       University data includes, but is not limited to, data that is protected by the Family
                                       Educational Rights and Privacy Act (FERPA), the Health Insurance Portability and Accountability
                                       Act (HIPAA), or the Gramm-Leach Bliley Act (GLBA).
                                     
                                    
                                  
                                 
                                  
                                    
                                     Data that would not expose the University to loss if disclosed, but should be protected.
                                       Internal/Limited access University data includes, but is not limited to, operational
                                       data likely to be distributed across organizational units within the University.
                                     
                                    
                                  
                                 
                                  
                                    
                                     Data available within the University community and to the general public. 
                                    
                                  
                                 
                               
                              
                               
                                 
                                  
                                    
                                      Risk  
                                    
                                  
                                 
                                  
                                    
                                     High 
                                    
                                  
                                 
                                  
                                    
                                     Medium 
                                    
                                  
                                 
                                  
                                    
                                     Low 
                                    
                                  
                                 
                               
                              
                               
                                 
                                  
                                    
                                      Access  
                                    
                                  
                                 
                                  
                                    
                                     Individuals designated with approved access. 
                                    
                                  
                                 
                                  
                                    
                                     UoM employees and non-employees with a business “need to know” 
                                    
                                  
                                 
                                  
                                    
                                     UoM affiliates and general public with a “need to know” 
                                    
                                  
                                 
                               
                              
                               
                                 
                                    
                                 
                                  
                                    
                                      Restricted Data Categories  
                                    
                                  
                                 
                                    
                                 
                               
                              
                               
                                 
                                  
                                    
                                      Data Storage Service / Location  
                                    
                                  
                                 
                                  
                                    
                                      FERPA  
                                    
                                  
                                 
                                  
                                    
                                      HIPAA  
                                    
                                  
                                 
                                  
                                    
                                      GLBA  
                                    
                                  
                                 
                                  
                                    
                                      Other  
                                    
                                  
                                 
                                  
                                    
                                       
                                    
                                  
                                 
                               
                              
                               
                                 
                                  
                                    
                                     umMail Email 
                                    
                                  
                                 
                                  
                                    
                                     No 
                                    
                                  
                                 
                                  
                                    
                                     No 
                                    
                                  
                                 
                                  
                                    
                                     No 
                                    
                                  
                                 
                                  
                                    
                                     No 
                                    
                                  
                                 
                                  
                                    
                                     Yes 
                                    
                                  
                                 
                                  
                                    
                                     Yes 
                                    
                                  
                                 
                               
                              
                               
                                 
                                  
                                    
                                     umDrive File Storage 
                                    
                                  
                                 
                                  
                                    
                                     Yes 
                                    
                                  
                                 
                                  
                                    
                                     No 
                                    
                                  
                                 
                                  
                                    
                                     Yes 
                                    
                                  
                                 
                                  
                                    
                                     Yes 1  
                                    
                                  
                                 
                                  
                                    
                                     Yes 
                                    
                                  
                                 
                                  
                                    
                                     Yes 
                                    
                                  
                                 
                               
                              
                               
                                 
                                  
                                    
                                     ITNAS File Storage 
                                    
                                  
                                 
                                  
                                    
                                     Yes 
                                    
                                  
                                 
                                  
                                    
                                     No 
                                    
                                  
                                 
                                  
                                    
                                     Yes 
                                    
                                  
                                 
                                  
                                    
                                     Yes 1  
                                    
                                  
                                 
                                  
                                    
                                     Yes 
                                    
                                  
                                 
                                  
                                    
                                     Yes 
                                    
                                  
                                 
                               
                              
                               
                                 
                                  
                                    
                                     OneDrive for Business 
                                    
                                  
                                 
                                  
                                    
                                     Yes 
                                    
                                  
                                 
                                  
                                    
                                     No 
                                    
                                  
                                 
                                  
                                    
                                     Yes 
                                    
                                  
                                 
                                  
                                    
                                     Yes 1  
                                    
                                  
                                 
                                  
                                    
                                     Yes 
                                    
                                  
                                 
                                  
                                    
                                     Yes 
                                    
                                  
                                 
                               
                              
                               
                                 
                                  
                                    
                                     umWiki 
                                    
                                  
                                 
                                  
                                    
                                     Yes 
                                    
                                  
                                 
                                  
                                    
                                     No 
                                    
                                  
                                 
                                  
                                    
                                     Yes 
                                    
                                  
                                 
                                  
                                    
                                     Yes 1  
                                    
                                  
                                 
                                  
                                    
                                     Yes 
                                    
                                  
                                 
                                  
                                    
                                     Yes 
                                    
                                  
                                 
                               
                              
                               
                                 
                                  
                                    
                                     ITS-Managed Server 
                                    
                                  
                                 
                                  
                                    
                                     Yes 
                                    
                                  
                                 
                                  
                                    
                                     Yes 1  
                                    
                                  
                                 
                                  
                                    
                                     Yes 
                                    
                                  
                                 
                                  
                                    
                                     Yes 1  
                                    
                                  
                                 
                                  
                                    
                                     Yes 
                                    
                                  
                                 
                                  
                                    
                                     Yes 
                                    
                                  
                                 
                               
                              
                               
                                 
                                  
                                    
                                     Removable Storage 
                                    
                                  
                                 
                                  
                                    
                                     Yes 1  
                                    
                                  
                                 
                                  
                                    
                                     Yes 1  
                                    
                                  
                                 
                                  
                                    
                                     Yes 1  
                                    
                                  
                                 
                                  
                                    
                                     Yes 1  
                                    
                                  
                                 
                                  
                                    
                                     Yes 
                                    
                                  
                                 
                                  
                                    
                                     Yes 
                                    
                                  
                                 
                               
                              
                               
                                 
                                  
                                    
                                     Local PC 
                                    
                                  
                                 
                                  
                                    
                                     Yes 1  
                                    
                                  
                                 
                                  
                                    
                                     Yes 1  
                                    
                                  
                                 
                                  
                                    
                                     Yes 1  
                                    
                                  
                                 
                                  
                                    
                                     Yes 1  
                                    
                                  
                                 
                                  
                                    
                                     Yes 
                                    
                                  
                                 
                                  
                                    
                                     Yes 
                                    
                                  
                                 
                               
                              
                               
                                 
                                  
                                    
                                     Mobile Device 
                                    
                                  
                                 
                                  
                                    
                                     Yes 1  
                                    
                                  
                                 
                                  
                                    
                                     Yes 1  
                                    
                                  
                                 
                                  
                                    
                                     Yes 1  
                                    
                                  
                                 
                                  
                                    
                                     Yes 1  
                                    
                                  
                                 
                                  
                                    
                                     Yes 
                                    
                                  
                                 
                                  
                                    
                                     Yes 
                                    
                                  
                                 
                               
                              
                               
                                 
                                  
                                    
                                     Non-ITS-Managed Cloud Service 
                                    
                                  
                                 
                                  
                                    
                                     No 
                                    
                                  
                                 
                                  
                                    
                                     No 
                                    
                                  
                                 
                                  
                                    
                                     No 
                                    
                                  
                                 
                                  
                                    
                                     Yes 1,2  
                                    
                                  
                                 
                                  
                                    
                                     Yes 
                                    
                                  
                                 
                                  
                                    
                                     Yes 
                                    
                                  
                                 
                               
                              
                            
                           
                         
                        
                      
                     
                        
                     
                      
                        
                         Data can be stored in this location provided that it uses an encryption mechanism
                           appropriate for the type of data being stored. 
                         
                        
                         Data can be stored in this location after additional review by the University's Director
                           of IT Security.
                         
                        
                      
                     
                        
                     
                     
                     	
                      
                   
                
                
                   
                      
                         Security 
                         
                            
                               
                                Report a Security Incident  
                                Alerts and Warnings  
                                      Current Alerts  
                                      Phishing  
                                      Personal Information Security  
                                      FTC Phone Call Scams Site  
                                      FBI Internet Fraud Site  
                                  
                               
                                Duo Account Security  
                                Policies and Guidelines  
                                Security Best Practices  
                                Security Awareness Training  
                                Access Termination  
                                Web Security Guidelines  
                            
                         
                      
                      
                      
                         
                            
                                Security Information  
                               Review security policies and guidelines 
                            
                            
                                Need Help with Technology?  
                               Request technical support via UMhelpdesk 
                            
                            
                                Service Catalog   
                               Review the various solutions provided by ITS 
                            
                            
                                Contact Us  
                               For technical assistance, contact the umTech Service Desk: 100 Administration Bldg.,
                                 901.678.8888. To discuss other topics, contact the Office of the CIO: 901.678.8324
                               
                            
                         
                      
                      
                      
                   
                   
                
                
             
             
          
          
       
    
    
    
      
      
       
 
    
       
          
             
                 Full sitemap   
             
             
                
                   
                      Admissions 
                      
                         
                             Prospective Students  
                             Undergraduate  
                             Graduate  
                             Law School  
                             International  
                             Parents  
                             Scholarship   Financial Aid  
                             Tuition   Fee Payment  
                             FAQs  
                             About UofM  
                         
                      
                   
                   
                      Academics 
                      
                         
                             Provost's Office  
                             Libraries  
                             Transcripts  
                             Undergraduate Catalog  
                             Graduate Catalog  
                             Academic Calendars  
                             Course Schedule  
                             Financial Aid  
                             Graduation  
                             Honors Program  
						     eCourseware  
                         
                      
                   
                   
                      Athletics 
                      
                         
                             Gotigersgo.com  
                             Ticket Information  
                             Intramural Sports  
                             Recreation Center  
                             Athletic Academic Support  
                             Former Tigers  
                             Facilities  
                             Tiger Scholarship Fund  
                             Media  
                         
                      
                   
				    
                   
                      Research 
                      
                         
                             Sponsored Programs  
                             Research Resources  
                             Centers   Institutes  
                             Chairs of Excellence  
                             FedEx Institute of Technology  
                             Libraries  
                             Grants Accounting  
                             Environmental Health  
                             Office of Institutional Research  
                         
                      
                   
                   
                      Support UofM 
                      
                         
                             Make a Gift  
                             Alumni Association  
                             Year of Service  
                         
                      
                   
                   
                      Administrative Support 
                      
                         
                             President's Office  
                             Academic Affairs  
                             Business   Finance  
                             Career Opportunities  
                             Conference   Event Services  
                             Corporate Partnerships  
  Development Office  
                             Government Relations  
                             Information Technology Services  
                             Media and Marketing  
                             Student Affairs  
                         
                      
                   
                
             
          
          
             
				    
                  
                
             
             
                   
                  
                
             
             
                
                   Follow UofM Online 
                     UofM Facebook     UofM Twitter     UofM YouTube   
                    
                   
                     UofM Instagram     UofM Pinterest     UofM LinkedIn   
                
             
              
                   
                      
                   
                
      
          
       
    
 
 
      
      
      
       
          
             
                
                   
                      
                         
                            
                               
                                 
                                 
                                  
  Print  
  Got a Question? Ask TOM  
  Copyright © 2017 University of Memphis  
  Important Notice  
                                  
                                 
                                 
                                  
                                     Last Updated: 12/1/17 
                                  
                                 
                                 
                                  
  University of Memphis  
 Memphis, TN 38152 
 Phone: 901.678.2000 
 
  
 The University of Memphis does not discriminate against students, employees, or applicants for admission or employment on the basis of race, color, religion, creed, national origin, sex, sexual orientation, gender identity/expression, disability, age, status as a protected veteran, genetic information, or any other legally protected class with respect to all employment, programs and activities sponsored by the University of Memphis. The Office for Institutional Equity has been designated to handle inquiries regarding non-discrimination policies. For more information, visit  University of Memphis Equal Opportunity and Affirmative Action .  
Title IX of the Education Amendments of 1972 protects people from discrimination based on sex in education programs or activities which receive Federal financial assistance. Title IX states: "No person in the United States shall, on the basis of sex, be excluded from participation in, be denied the benefits of, or be subjected to discrimination under any education program or activity receiving Federal financial assistance..." 20 U.S.C. § 1681 - To Learn More, visit  Title IX and Sexual Misconduct .
 
 
                                 
                                 
                                 
                               
                            
                         
                      
                   
                
             
          
       
    
   
   
   
   
   
   
 



 


