Scholarships - CAS - University of Memphis  The Undergraduate Scholarship Office at the University of Memphis awards hundreds of academic scholarships each year to entering freshmen.  










 
 
 
     



 
    
    
    Scholarships - 
      	CAS
      	 - University of Memphis
    
    
    
    
    
    
    
    
    
    
    
    
    
    
    
    
    
    
    
    
    
    
    
    
    
   
   
   






   
   
   
    
    
    
    
    
    
    
    
    
    
    
    
    
    
    
    
    
 
 
   
   
   
   
 
    
   
   
    
      
      
          
     
    
       
          
             
                
				    
					     
                   
      
                
                
                    
                
                
                   
                      
                         
                            
                               
                                   Lambuth Campus  
                                   myMemphis  
                                   Webmail  
                                   Faculty   Staff  
                                   Contact  
                                   Directories  
                               
                            
                            
                               Search 
                               
							   
							      
						 Site Index 
                            
                             
                         
                      
                   
                   
                      
                         
                            
                                Academics    
                                  
                                      Academics Overview  
                                      Colleges   Schools  
                                      Undergraduate Catalog  
                                      Graduate Catalog  
                                      Honors Program  
								      UofM Global  
                                  
                               
                                Admissions    
                                  
                                      Admissions Information  
                                      Undergraduate Students  
                                      Graduate Students  
                                      Law Students  
                                      International Students  
                                  
                               
                                Athletics    
                                  
                                      Tiger Athletics  
                                      Ticket Information  
                                      Intramurals  
                                      Make A Gift  
                                      Rec Center  
                                      gotigersgo.com  
                                  
                               
                                Research    
                                  
                                      Research   Sponsored Programs  
                                      Research Resources  
                                      Centers/Chairs of Excellence  

                                      Centers and Institutes  
									  FedEx Institute of Technology  
                                      electronic Research Administration (eRA)  
									  Office of Institutional Research  
                                  
                               
                                Support UofM    
                                  
                                      Development  
                                      Make a Gift  
                                      Alumni Association  
                                      Athletics Development  
                                  
                               
                                Libraries    
                                  
                                      University Libraries  
                                      Libraries Resources  
                                      Libraries Services  
                                      Special Collections  
                                      Ask a Librarian  
                                  
                               
                            
                         
                      
                   
                
             
             
                
                   
                      Resources for... 
                      
                          Prospective Students  
                          Current and Returning Students  
                          Parents  
                          Alumni  
                          Veterans  
                      
                       Expand Menu  
                   
				   			   
                
             
          
       
    
          
      
          
    
       
          
             
                
                   
                       
                           			College of Arts   Sciences
                           	 
                          
                   
                
             
          
       
       
          
             
                
                   
                      
                          About  
                          Areas of Study  
                          Research  
                          Scholarships  
                          Students  
                          Resources  
                          News  
                      
                      
                         
                            Scholarships   Funding Resources   
                            
                               
                                  
                                   Departmental  
                                   Not Discipline Specific  
                                   Internships  
                                   Assistantships  
                                   Fellowships  
                                   Link to Financial Aid  
                                   UofM Scholarship Office  
                               
                            
                         
                      
                   
                
             
          
          
             
                
                   
                      
                          Home  
                          
                              	CAS
                              	  
                         
                           	Scholarships
                           	
                         
                      
                   
                   
                       
                      
                     
                     		
                     
                     
                      Scholarships in the College of Arts   Sciences 
                     
                      The  Tiger Scholarship Manager  is the new, secure, online system that offers a centralized location for   all   scholarship opportunities at the University of Memphis.
                      
                     
                      The New System offers a centralized, searchable database, an online application process,
                        tools to help match you to eligible scholarships, and tools to upload supportive documents
                        (i.e. resumes, essays, recommendations letters, financials, etc.)
                      
                     
                      The new system will automatically notify you when you are selected for awards. You
                        can login to your secure, online account to review requirements and accept your awards. 
                      
                     
                      To access the new system, login to the  UofM portal    Go to the Accounts Tab   Click on the Tiger Scholarship link on the Scholarships
                        Channel.  How To Guide  
                     
                      
                        
                          Students who receive these departmental and privately funded scholarships – those
                              scholarships found on Tiger Scholarship Manager – must agree to the following:  
                        
                         
                           
                              have a photo taken with our university photographer,   
                           
                             provide a brief bio and   
                           
                             write a thank you note for donors who have generously provided the funds to benefit
                                 our students.  
                           
                         
                        
                      
                     
                      
                     
                      University of Memphis Undergraduate Scholarship Office 
                     
                      The Undergraduate Scholarship Office at the University of Memphis awards hundreds
                        of academic scholarships each year to entering freshmen. All scholarships are awarded
                        for the academic year (Fall and Spring semesters).
                      
                     
                      Scholarships are awarded based on information submitted on the University of Memphis
                        admissions application. A separate scholarship application is not required unless
                        noted.
                      
                     
                      The deadline for admission to the University of Memphis for scholarship consideration
                        is March 1. Visit their  website  for information on UofM scholarships.
                      
                     
                     
                     	
                      
                   
                
                
                   
                      
                         Scholarships   Funding Resources 
                         
                            
                               
                                Departmental  
                                Not Discipline Specific  
                                Internships  
                                Assistantships  
                                Fellowships  
                                Link to Financial Aid  
                                UofM Scholarship Office  
                            
                         
                      
                      
                      
                         
                            
                                Apply now for an Undergraduate Degree  
                               Pursue your dream, broaden your career choices and gain the confidence you need to
                                 succeed
                               
                            
                            
                                Offering Master's and Doctoral Degrees  
                               Enhance your knowledge, skills and experience 
                            
                            
                                Community Engagement  
                               Teaching and serving the Memphis and Mid-South community through programs and events 
                            
                            
                                Contact Us  
                               Dean's Office Contacts, Advising, Department Chairs... 
                            
                         
                      
                      
                      
                   
                   
                
                
             
             
          
          
       
    
    
    
      
      
       
 
    
       
          
             
                 Full sitemap   
             
             
                
                   
                      Admissions 
                      
                         
                             Prospective Students  
                             Undergraduate  
                             Graduate  
                             Law School  
                             International  
                             Parents  
                             Scholarship   Financial Aid  
                             Tuition   Fee Payment  
                             FAQs  
                             About UofM  
                         
                      
                   
                   
                      Academics 
                      
                         
                             Provost's Office  
                             Libraries  
                             Transcripts  
                             Undergraduate Catalog  
                             Graduate Catalog  
                             Academic Calendars  
                             Course Schedule  
                             Financial Aid  
                             Graduation  
                             Honors Program  
						     eCourseware  
                         
                      
                   
                   
                      Athletics 
                      
                         
                             Gotigersgo.com  
                             Ticket Information  
                             Intramural Sports  
                             Recreation Center  
                             Athletic Academic Support  
                             Former Tigers  
                             Facilities  
                             Tiger Scholarship Fund  
                             Media  
                         
                      
                   
				    
                   
                      Research 
                      
                         
                             Sponsored Programs  
                             Research Resources  
                             Centers   Institutes  
                             Chairs of Excellence  
                             FedEx Institute of Technology  
                             Libraries  
                             Grants Accounting  
                             Environmental Health  
                             Office of Institutional Research  
                         
                      
                   
                   
                      Support UofM 
                      
                         
                             Make a Gift  
                             Alumni Association  
                             Year of Service  
                         
                      
                   
                   
                      Administrative Support 
                      
                         
                             President's Office  
                             Academic Affairs  
                             Business   Finance  
                             Career Opportunities  
                             Conference   Event Services  
                             Corporate Partnerships  
  Development Office  
                             Government Relations  
                             Information Technology Services  
                             Media and Marketing  
                             Student Affairs  
                         
                      
                   
                
             
          
          
             
				    
                  
                
             
             
                   
                  
                
             
             
                
                   Follow UofM Online 
                     UofM Facebook     UofM Twitter     UofM YouTube   
                    
                   
                     UofM Instagram     UofM Pinterest     UofM LinkedIn   
                
             
              
                   
                      
                   
                
      
          
       
    
 
 
      
      
      
       
          
             
                
                   
                      
                         
                            
                               
                                 
                                 
                                  
  Print  
  Got a Question? Ask TOM  
  Copyright © 2017 University of Memphis  
  Important Notice  
                                  
                                 
                                 
                                  
                                     Last Updated: 12/8/17 
                                  
                                 
                                 
                                  
  University of Memphis  
 Memphis, TN 38152 
 Phone: 901.678.2000 
 
  
 The University of Memphis does not discriminate against students, employees, or applicants for admission or employment on the basis of race, color, religion, creed, national origin, sex, sexual orientation, gender identity/expression, disability, age, status as a protected veteran, genetic information, or any other legally protected class with respect to all employment, programs and activities sponsored by the University of Memphis. The Office for Institutional Equity has been designated to handle inquiries regarding non-discrimination policies. For more information, visit  University of Memphis Equal Opportunity and Affirmative Action .  
Title IX of the Education Amendments of 1972 protects people from discrimination based on sex in education programs or activities which receive Federal financial assistance. Title IX states: "No person in the United States shall, on the basis of sex, be excluded from participation in, be denied the benefits of, or be subjected to discrimination under any education program or activity receiving Federal financial assistance..." 20 U.S.C. § 1681 - To Learn More, visit  Title IX and Sexual Misconduct .
 
 
                                 
                                 
                                 
                               
                            
                         
                      
                   
                
             
          
       
    
   
   
   
   
   
   
 



 


