New Madrid Compendium Far-Field MMI Reports Database: Main Menu.  
 
 
	 New Madrid Compendium Far-Field MMI Reports Database: Main Menu. 
 

 
	 
		 
			  
					 
                     New Madrid Compendium Far-Field MMI Reports Database: Main Menu 
			  
			  
					    
						Main Menu
					    
					  
					Permissions:  View   
					  
						This database has been set up so any user can view any other users information, but you can
						only modify and delete your own records. If you have admin access, you can of course do anything
						you like.  
						 Enjoy!  and let me  know  if you have any comments!
					 
					
					 
					  |  Home  |  View/Search  |  List All  |  Log Off  |  	
		 
			  
		 
	
			  
		 
	 	   
 
 
