Nickels, D. and Janz, B.D. 2010. "Organizational Culture: Another Piece of the IT-Business Alignment Puzzle." Journal of Information Technology Management (21:3), pp. 1-14. - BIT - University of Memphis    










 
 
 
     



 
    
    
    Nickels, D. and Janz, B.D. 2010. "Organizational Culture: Another Piece of the IT-Business
      Alignment Puzzle." Journal of Information Technology Management (21:3), pp. 1-14. - 
      	BIT
      	 - University of Memphis
    
    
    
    
    
    
    
    
    
    
    
    
    
    
    
    
    
    
    
    
    
    
    
    
    
   
   
   






   
   
   
    
    
 
 
   
   
   
   
 
    
   
   
    
      
      
          
     
    
       
          
             
                
				    
					     
                   
      
                
                
                    
                
                
                   
                      
                         
                            
                               
                                   Lambuth Campus  
                                   myMemphis  
                                   Webmail  
                                   Faculty   Staff  
                                   Contact  
                                   Directories  
                               
                            
                            
                               Search 
                               
							   
							      
						 Site Index 
                            
                             
                         
                      
                   
                   
                      
                         
                            
                                Academics    
                                  
                                      Academics Overview  
                                      Colleges   Schools  
                                      Undergraduate Catalog  
                                      Graduate Catalog  
                                      Honors Program  
								      UofM Global  
                                  
                               
                                Admissions    
                                  
                                      Admissions Information  
                                      Undergraduate Students  
                                      Graduate Students  
                                      Law Students  
                                      International Students  
                                  
                               
                                Athletics    
                                  
                                      Tiger Athletics  
                                      Ticket Information  
                                      Intramurals  
                                      Make A Gift  
                                      Rec Center  
                                      gotigersgo.com  
                                  
                               
                                Research    
                                  
                                      Research   Sponsored Programs  
                                      Research Resources  
                                      Centers/Chairs of Excellence  

                                      Centers and Institutes  
									  FedEx Institute of Technology  
                                      electronic Research Administration (eRA)  
									  Office of Institutional Research  
                                  
                               
                                Support UofM    
                                  
                                      Development  
                                      Make a Gift  
                                      Alumni Association  
                                      Athletics Development  
                                  
                               
                                Libraries    
                                  
                                      University Libraries  
                                      Libraries Resources  
                                      Libraries Services  
                                      Special Collections  
                                      Ask a Librarian  
                                  
                               
                            
                         
                      
                   
                
             
             
                
                   
                      Resources for... 
                      
                          Prospective Students  
                          Current and Returning Students  
                          Parents  
                          Alumni  
                          Veterans  
                      
                       Expand Menu  
                   
				   			   
                
             
          
       
    
          
      
          
    
       
          
             
                
                   
                       
                           			Fogelman College - Department of Business Information and Technology
                           	 
                          
                   
                
             
          
       
       
          
             
                
                   
                      
                          BIT  
                          Programs  
                          Faculty  
                          Research  
                          Prospective Students  
                          Current Students  
                          FCBE  
                      
                      
                         
                            Research Focus   
                            
                               
                                  
                                   MIS Quarterly  
                                   Information Systems Research  
                                   Journal of AIS  
                                   Journal of MIS  
                                   European Journal of Information Systems  
                                   Information Systems Journal  
                                   MIS Quarterly Executive  
                                   Sloan Management Review  
                               
                            
                         
                      
                   
                
             
          
          
             
                
                   
                      
                          Home  
                          
                              	BIT
                              	  
                          
                              	Research
                              	  
                         Nickels, D. and Janz, B.D. 2010. "Organizational Culture: Another Piece of the IT-Business
                           Alignment Puzzle." Journal of Information Technology Management (21:3), pp. 1-14.
                         
                      
                   
                   
                       
                      
                     
                     		
                     
                     The challenges associated with achieving a better fit between an organization's information
                     technology (IT) strategy and its business strategy – most commonly known as "IT-business
                     alignment" – have earned this issue a place as an IT management perennial top ten
                     concern for organizational executives. Not surprisingly, the problems associated with
                     attaining higher levels of IT-business alignment have received continuing notice in
                     IT-related trade journals. A stream of research in the management information systems
                     (MIS) literature includes multiple studies exploring the IT-business alignment construct
                     and attempting to identify solutions for achieving a needed degree of alignment. Two
                     dimensions of IT-business alignment, structural and strategic, have been proposed
                     and studied in some detail, but the relationship between informal organizational structure
                     as indicated by organizational culture and the achievement of IT-business alignment
                     has yet to be empirically explored. This research reported here breaks new ground by evaluating the relationship between
                     the degree of congruence of the perspectives of the prevailing organizational culture
                     and the level of strategic alignment maturity perceived in organizations. The results
                     reveal a significant association between executives' level of agreement on the prevailing
                     organizational culture and the level of strategic alignment maturity of the firms
                     in the sample: firms with more congruent cultures had higher levels of strategic alignment
                     maturity. The study results hold two implications for the field of management information
                     systems. First, the potential of a third dimension of the achievement of IT-business
                     alignment, congruence of organizational culture, was supported. Second, the results
                     indicate the need for a continuation of research to further investigate the potential
                     of this relationship for improving an organization's IT-business alignment
                     
                     
                     	
                      
                   
                
                
                   
                      
                         Research Focus 
                         
                            
                               
                                MIS Quarterly  
                                Information Systems Research  
                                Journal of AIS  
                                Journal of MIS  
                                European Journal of Information Systems  
                                Information Systems Journal  
                                MIS Quarterly Executive  
                                Sloan Management Review  
                            
                         
                      
                      
                      
                         
                            
                                BIT News  
                               Publications, recognitions and spotlights about faculty and students of the BIT department. 
                            
                            
                                BIT Events  
                               Find out what's happening at the department and visit our weekly colloquium. 
                            
                            
                                Contact Us  
                               Do you have questions? Please feel free to contact us! 
                            
                            
                                Return to FCBE  
                                
                            
                         
                      
                      
                      
                   
                   
                
                
             
             
          
          
       
    
    
    
      
      
       
 
    
       
          
             
                 Full sitemap   
             
             
                
                   
                      Admissions 
                      
                         
                             Prospective Students  
                             Undergraduate  
                             Graduate  
                             Law School  
                             International  
                             Parents  
                             Scholarship   Financial Aid  
                             Tuition   Fee Payment  
                             FAQs  
                             About UofM  
                         
                      
                   
                   
                      Academics 
                      
                         
                             Provost's Office  
                             Libraries  
                             Transcripts  
                             Undergraduate Catalog  
                             Graduate Catalog  
                             Academic Calendars  
                             Course Schedule  
                             Financial Aid  
                             Graduation  
                             Honors Program  
						     eCourseware  
                         
                      
                   
                   
                      Athletics 
                      
                         
                             Gotigersgo.com  
                             Ticket Information  
                             Intramural Sports  
                             Recreation Center  
                             Athletic Academic Support  
                             Former Tigers  
                             Facilities  
                             Tiger Scholarship Fund  
                             Media  
                         
                      
                   
				    
                   
                      Research 
                      
                         
                             Sponsored Programs  
                             Research Resources  
                             Centers   Institutes  
                             Chairs of Excellence  
                             FedEx Institute of Technology  
                             Libraries  
                             Grants Accounting  
                             Environmental Health  
                             Office of Institutional Research  
                         
                      
                   
                   
                      Support UofM 
                      
                         
                             Make a Gift  
                             Alumni Association  
                             Year of Service  
                         
                      
                   
                   
                      Administrative Support 
                      
                         
                             President's Office  
                             Academic Affairs  
                             Business   Finance  
                             Career Opportunities  
                             Conference   Event Services  
                             Corporate Partnerships  
  Development Office  
                             Government Relations  
                             Information Technology Services  
                             Media and Marketing  
                             Student Affairs  
                         
                      
                   
                
             
          
          
             
				    
                  
                
             
             
                   
                  
                
             
             
                
                   Follow UofM Online 
                     UofM Facebook     UofM Twitter     UofM YouTube   
                    
                   
                     UofM Instagram     UofM Pinterest     UofM LinkedIn   
                
             
              
                   
                      
                   
                
      
          
       
    
 
 
      
      
      
       
          
             
                
                   
                      
                         
                            
                               
                                 
                                 
                                  
  Print  
  Got a Question? Ask TOM  
  Copyright © 2017 University of Memphis  
  Important Notice  
                                  
                                 
                                 
                                  
                                     Last Updated: 11/22/17 
                                  
                                 
                                 
                                  
  University of Memphis  
 Memphis, TN 38152 
 Phone: 901.678.2000 
 
  
 The University of Memphis does not discriminate against students, employees, or applicants for admission or employment on the basis of race, color, religion, creed, national origin, sex, sexual orientation, gender identity/expression, disability, age, status as a protected veteran, genetic information, or any other legally protected class with respect to all employment, programs and activities sponsored by the University of Memphis. The Office for Institutional Equity has been designated to handle inquiries regarding non-discrimination policies. For more information, visit  University of Memphis Equal Opportunity and Affirmative Action .  
Title IX of the Education Amendments of 1972 protects people from discrimination based on sex in education programs or activities which receive Federal financial assistance. Title IX states: "No person in the United States shall, on the basis of sex, be excluded from participation in, be denied the benefits of, or be subjected to discrimination under any education program or activity receiving Federal financial assistance..." 20 U.S.C. § 1681 - To Learn More, visit  Title IX and Sexual Misconduct .
 
 
                                 
                                 
                                 
                               
                            
                         
                      
                   
                
             
          
       
    
   
   
   
   
   
   
 



 


