Teo, T., Ranganathan, C. and Dhaliwal, J. S. 2006. "Key Dimensions of Inhibitors for the Deployment of Web-Based Business-to-Business Electronic Commerce," IEEE Transactions on Engineering Management (53:3), pp. 395-411. - BIT - University of Memphis    










 
 
 
     



 
    
    
    Teo, T., Ranganathan, C. and Dhaliwal, J. S. 2006. "Key Dimensions of Inhibitors for
      the Deployment of Web-Based Business-to-Business Electronic Commerce," IEEE Transactions
      on Engineering Management (53:3), pp. 395-411. - 
      	BIT
      	 - University of Memphis
    
    
    
    
    
    
    
    
    
    
    
    
    
    
    
    
    
    
    
    
    
    
    
    
    
   
   
   






   
   
   
    
    
 
 
   
   
   
   
 
    
   
   
    
      
      
          
     
    
       
          
             
                
				    
					     
                   
      
                
                
                    
                
                
                   
                      
                         
                            
                               
                                   Lambuth Campus  
                                   myMemphis  
                                   Webmail  
                                   Faculty   Staff  
                                   Contact  
                                   Directories  
                               
                            
                            
                               Search 
                               
							   
							      
						 Site Index 
                            
                             
                         
                      
                   
                   
                      
                         
                            
                                Academics    
                                  
                                      Academics Overview  
                                      Colleges   Schools  
                                      Undergraduate Catalog  
                                      Graduate Catalog  
                                      Honors Program  
								      UofM Global  
                                  
                               
                                Admissions    
                                  
                                      Admissions Information  
                                      Undergraduate Students  
                                      Graduate Students  
                                      Law Students  
                                      International Students  
                                  
                               
                                Athletics    
                                  
                                      Tiger Athletics  
                                      Ticket Information  
                                      Intramurals  
                                      Make A Gift  
                                      Rec Center  
                                      gotigersgo.com  
                                  
                               
                                Research    
                                  
                                      Research   Sponsored Programs  
                                      Research Resources  
                                      Centers/Chairs of Excellence  

                                      Centers and Institutes  
									  FedEx Institute of Technology  
                                      electronic Research Administration (eRA)  
									  Office of Institutional Research  
                                  
                               
                                Support UofM    
                                  
                                      Development  
                                      Make a Gift  
                                      Alumni Association  
                                      Athletics Development  
                                  
                               
                                Libraries    
                                  
                                      University Libraries  
                                      Libraries Resources  
                                      Libraries Services  
                                      Special Collections  
                                      Ask a Librarian  
                                  
                               
                            
                         
                      
                   
                
             
             
                
                   
                      Resources for... 
                      
                          Prospective Students  
                          Current and Returning Students  
                          Parents  
                          Alumni  
                          Veterans  
                      
                       Expand Menu  
                   
				   			   
                
             
          
       
    
          
      
          
    
       
          
             
                
                   
                       
                           			Fogelman College - Department of Business Information and Technology
                           	 
                          
                   
                
             
          
       
       
          
             
                
                   
                      
                          BIT  
                          Programs  
                          Faculty  
                          Research  
                          Prospective Students  
                          Current Students  
                          FCBE  
                      
                      
                         
                            Research Focus   
                            
                               
                                  
                                   MIS Quarterly  
                                   Information Systems Research  
                                   Journal of AIS  
                                   Journal of MIS  
                                   European Journal of Information Systems  
                                   Information Systems Journal  
                                   MIS Quarterly Executive  
                                   Sloan Management Review  
                               
                            
                         
                      
                   
                
             
          
          
             
                
                   
                      
                          Home  
                          
                              	BIT
                              	  
                          
                              	Research
                              	  
                         Teo, T., Ranganathan, C. and Dhaliwal, J. S. 2006. "Key Dimensions of Inhibitors for
                           the Deployment of Web-Based Business-to-Business Electronic Commerce," IEEE Transactions
                           on Engineering Management (53:3), pp. 395-411.
                         
                      
                   
                   
                       
                      
                     
                     		
                     
                     There has been a rapid increase in the number of firms undertaking business-to-business
                     (B2B) electronic commerce (e-commerce) initiatives. Although there are various benefits
                     to B2B e-commerce, there are also inhibitors to its deployment. This study empirically
                     investigates the inhibitors for deploying Web-based B2B e-commerce applications in
                     organizations. A field survey of senior IT executives was conducted to examine the
                     key problems that inhibit the deployment of Web-based B2B e-commerce. A comprehensive
                     list of inhibitors was derived from an extensive review of the literature and pretested
                     with senior IT executives. Data from 249 firms were factor analyzed to yield the underlying
                     structural dimensions of inhibitors impacting the deployment of Web-based B2B e-commerce.
                     Univariate t-test and multivariate discriminant analysis were carried out on the resulting
                     ten dimensions to compare B2B (i.e., firms who have deployed B2B) and non-B2B firms
                     (i.e., firms who have not deployed B2B). The results suggest that key inhibitors in
                     B2B deployment are the lack of top management support, unresolved technical issues,
                     the lack of e-commerce strategy, and the difficulties in cost-benefit assessment of
                     e-commerce investments. Implications of the results for researchers and IT/engineering
                     management executives are discussed
                     
                     
                     	
                      
                   
                
                
                   
                      
                         Research Focus 
                         
                            
                               
                                MIS Quarterly  
                                Information Systems Research  
                                Journal of AIS  
                                Journal of MIS  
                                European Journal of Information Systems  
                                Information Systems Journal  
                                MIS Quarterly Executive  
                                Sloan Management Review  
                            
                         
                      
                      
                      
                         
                            
                                BIT News  
                               Publications, recognitions and spotlights about faculty and students of the BIT department. 
                            
                            
                                BIT Events  
                               Find out what's happening at the department and visit our weekly colloquium. 
                            
                            
                                Contact Us  
                               Do you have questions? Please feel free to contact us! 
                            
                            
                                Return to FCBE  
                                
                            
                         
                      
                      
                      
                   
                   
                
                
             
             
          
          
       
    
    
    
      
      
       
 
    
       
          
             
                 Full sitemap   
             
             
                
                   
                      Admissions 
                      
                         
                             Prospective Students  
                             Undergraduate  
                             Graduate  
                             Law School  
                             International  
                             Parents  
                             Scholarship   Financial Aid  
                             Tuition   Fee Payment  
                             FAQs  
                             About UofM  
                         
                      
                   
                   
                      Academics 
                      
                         
                             Provost's Office  
                             Libraries  
                             Transcripts  
                             Undergraduate Catalog  
                             Graduate Catalog  
                             Academic Calendars  
                             Course Schedule  
                             Financial Aid  
                             Graduation  
                             Honors Program  
						     eCourseware  
                         
                      
                   
                   
                      Athletics 
                      
                         
                             Gotigersgo.com  
                             Ticket Information  
                             Intramural Sports  
                             Recreation Center  
                             Athletic Academic Support  
                             Former Tigers  
                             Facilities  
                             Tiger Scholarship Fund  
                             Media  
                         
                      
                   
				    
                   
                      Research 
                      
                         
                             Sponsored Programs  
                             Research Resources  
                             Centers   Institutes  
                             Chairs of Excellence  
                             FedEx Institute of Technology  
                             Libraries  
                             Grants Accounting  
                             Environmental Health  
                             Office of Institutional Research  
                         
                      
                   
                   
                      Support UofM 
                      
                         
                             Make a Gift  
                             Alumni Association  
                             Year of Service  
                         
                      
                   
                   
                      Administrative Support 
                      
                         
                             President's Office  
                             Academic Affairs  
                             Business   Finance  
                             Career Opportunities  
                             Conference   Event Services  
                             Corporate Partnerships  
  Development Office  
                             Government Relations  
                             Information Technology Services  
                             Media and Marketing  
                             Student Affairs  
                         
                      
                   
                
             
          
          
             
				    
                  
                
             
             
                   
                  
                
             
             
                
                   Follow UofM Online 
                     UofM Facebook     UofM Twitter     UofM YouTube   
                    
                   
                     UofM Instagram     UofM Pinterest     UofM LinkedIn   
                
             
              
                   
                      
                   
                
      
          
       
    
 
 
      
      
      
       
          
             
                
                   
                      
                         
                            
                               
                                 
                                 
                                  
  Print  
  Got a Question? Ask TOM  
  Copyright © 2017 University of Memphis  
  Important Notice  
                                  
                                 
                                 
                                  
                                     Last Updated: 11/22/17 
                                  
                                 
                                 
                                  
  University of Memphis  
 Memphis, TN 38152 
 Phone: 901.678.2000 
 
  
 The University of Memphis does not discriminate against students, employees, or applicants for admission or employment on the basis of race, color, religion, creed, national origin, sex, sexual orientation, gender identity/expression, disability, age, status as a protected veteran, genetic information, or any other legally protected class with respect to all employment, programs and activities sponsored by the University of Memphis. The Office for Institutional Equity has been designated to handle inquiries regarding non-discrimination policies. For more information, visit  University of Memphis Equal Opportunity and Affirmative Action .  
Title IX of the Education Amendments of 1972 protects people from discrimination based on sex in education programs or activities which receive Federal financial assistance. Title IX states: "No person in the United States shall, on the basis of sex, be excluded from participation in, be denied the benefits of, or be subjected to discrimination under any education program or activity receiving Federal financial assistance..." 20 U.S.C. § 1681 - To Learn More, visit  Title IX and Sexual Misconduct .
 
 
                                 
                                 
                                 
                               
                            
                         
                      
                   
                
             
          
       
    
   
   
   
   
   
   
 



 


