ELC Policies - CITL - University of Memphis    










 
 
 
     



 
    
    
    ELC Policies  - 
      	CITL
      	 - University of Memphis
    
    
    
    
    
    
    
    
    
    
    
    
    
    
    
    
    
    
    
    
    
    
    
    
    
   
   
   






   
   
   
    
    
 
 
   
   
   
   
 
    
   
   
    
      
      
          
     
    
       
          
             
                
				    
					     
                   
      
                
                
                    
                
                
                   
                      
                         
                            
                               
                                   Lambuth Campus  
                                   myMemphis  
                                   Webmail  
                                   Faculty   Staff  
                                   Contact  
                                   Directories  
                               
                            
                            
                               Search 
                               
							   
							      
						 Site Index 
                            
                             
                         
                      
                   
                   
                      
                         
                            
                                Academics    
                                  
                                      Academics Overview  
                                      Colleges   Schools  
                                      Undergraduate Catalog  
                                      Graduate Catalog  
                                      Honors Program  
								      UofM Global  
                                  
                               
                                Admissions    
                                  
                                      Admissions Information  
                                      Undergraduate Students  
                                      Graduate Students  
                                      Law Students  
                                      International Students  
                                  
                               
                                Athletics    
                                  
                                      Tiger Athletics  
                                      Ticket Information  
                                      Intramurals  
                                      Make A Gift  
                                      Rec Center  
                                      gotigersgo.com  
                                  
                               
                                Research    
                                  
                                      Research   Sponsored Programs  
                                      Research Resources  
                                      Centers/Chairs of Excellence  

                                      Centers and Institutes  
									  FedEx Institute of Technology  
                                      electronic Research Administration (eRA)  
									  Office of Institutional Research  
                                  
                               
                                Support UofM    
                                  
                                      Development  
                                      Make a Gift  
                                      Alumni Association  
                                      Athletics Development  
                                  
                               
                                Libraries    
                                  
                                      University Libraries  
                                      Libraries Resources  
                                      Libraries Services  
                                      Special Collections  
                                      Ask a Librarian  
                                  
                               
                            
                         
                      
                   
                
             
             
                
                   
                      Resources for... 
                      
                          Prospective Students  
                          Current and Returning Students  
                          Parents  
                          Alumni  
                          Veterans  
                      
                       Expand Menu  
                   
				   			   
                
             
          
       
    
          
      
          
    
       
          
             
                
                   
                       
                           			Center for Innovative Teaching and Learning
                           	 
                          
                   
                
             
          
       
       
          
             
                
                   
                      
                          Academic Advising  
                          Finish Line  
                          ELC  
                          Distance Learning  
                          Technology  
                      
                      
                         
                            Experiential Learning   
                            
                               
                                  
                                   Overview  
                                   Military Transcripts  
                                   Pre- Assessed Experiences  
                                   Portfolio Development  
                                   ELC Policies  
                                   Campus Resources  
                                   Contact Us  
                               
                            
                         
                      
                   
                
             
          
          
             
                
                   
                      
                          Home  
                          
                              	CITL
                              	  
                          
                              	Experiential Learning
                              	  
                         ELC Policies  
                      
                   
                   
                       
                      
                     
                     		
                     
                     
                      ELC POLICIES 
                     
                      For the Experiential Learning Credit program to operate effectively, the following
                        policies have been adopted by the University:
                      
                     
                      
                        
                         
                           
                            ELC is limited to 30 hours of credit for undergraduates; graduate students should
                              be advised by their major department on the maximum number of ELC hours approved.
                            
                           
                         
                        
                         
                           
                            ELC cannot be used to meet, replace, or substitute for general education, thematic
                              studies, or a senior project.
                            
                           
                         
                        
                         
                           
                            ELC will be granted if approved by qualified UofM faculty or recommended by the American
                              Council on Education (ACE).
                            
                           
                         
                        
                         
                           
                            ELC is not issued grades, but rather awarded credit hours. 
                           
                         
                        
                         
                           
                            ELC cannot replace a failing grade or duplicate previously earned credit for a course. 
                           
                         
                        
                         
                           
                            Lower division ELC credit hours cannot be applied to satisfy upper division requirements. 
                           
                         
                        
                         
                           
                            Students must pay all applicable fees before ELC awarded hours will be posted to the
                              students' transcripts.
                            
                           
                         
                        
                         
                           
                            It is strongly recommended that students seek ELC no fewer than six months prior to
                              their planned graduation date.
                            
                           
                         
                        
                         
                           
                            Students are advised that such credit may not be recognized by new majors or transfer
                              to other institutions.
                            
                           
                         
                        
                         
                           
                            ELC is not guaranteed. 
                           
                         
                        
                      
                     
                      CAEL Standards for Assessing Learning 
                     
                      The University of Memphis adheres to the guidelines established by the Council of
                        Adult and Experiential Learning (CAEL) for recognizing and assessing prior learning:
                      
                     
                      
                        
                         
                           
                             Credit or its equivalent should be awarded only for learning, and not for experience. 
                           
                         
                        
                         
                           
                             Assessment should be based on standards and criteria for the level of acceptable
                              learning that are both agreed upon and made public.
                            
                           
                         
                        
                         
                           
                             Assessment should be treated as an integral part of learning, not separate from it,
                              and should be based on an understanding of learning processes.
                            
                           
                         
                        
                         
                           
                             The determination of credit awards and competence levels must be made by appropriate
                              subject matter and academic or credentialing experts.
                            
                           
                         
                        
                         
                           
                             Credit or other credentialing should be appropriate to the context in which it is
                              awarded and accepted.
                            
                           
                         
                        
                         
                           
                             If awards are for credit, transcript entries should clearly describe what learning
                              is being recognized and should be monitored to avoid giving credit twice for the same
                              learning.
                            
                           
                         
                        
                         
                           
                             Policies, procedures, and criteria applied to assessment, including provision for
                              appeal, should be fully disclosed and prominently available to all parties involved
                              in the assessment process.
                            
                           
                         
                        
                         
                           
                             Fees charged for assessment should be based on the services performed in the process
                              and not determined by the amount of credit awarded.
                            
                           
                         
                        
                         
                           
                             All personnel involved in the assessment of learning should pursue and receive adequate
                              training and continuing professional development for the functions they perform.
                            
                           
                         
                        
                          Assessment programs should be regularly monitored, reviewed, evaluated, and revised
                           as needed to reflect changes in the needs being served, the purposes being met, and
                           the state of the assessment arts.
                         
                        
                      
                     
                      Fiddler, M., Marienau, C.,   Whitaker, U. (2006). Assessing Learning: Standards, Principles,
                        and Procedures (2nd ed.) Dubuque, IA. Kendall Hunt Publishing.
                      
                     
                     
                     	
                      
                   
                
                
                   
                      
                         Experiential Learning 
                         
                            
                               
                                Overview  
                                Military Transcripts  
                                Pre- Assessed Experiences  
                                Portfolio Development  
                                ELC Policies  
                                Campus Resources  
                                Contact Us  
                            
                         
                      
                      
                      
                         
                            
                                Apply Now  
                               Ready to get started? Apply Now! 
                            
                            
                                myMemphis  
                               Your source for personalized online resources! 
                            
                            
                                Make A Gift  
                               Thank you for choosing to support the University of Memphis! 
                            
                            
                                Contact Us!  
                               Need to get in touch with us? 
                            
                         
                      
                      
                      
                   
                   
                
                
             
             
          
          
       
    
    
    
      
      
       
 
    
       
          
             
                 Full sitemap   
             
             
                
                   
                      Admissions 
                      
                         
                             Prospective Students  
                             Undergraduate  
                             Graduate  
                             Law School  
                             International  
                             Parents  
                             Scholarship   Financial Aid  
                             Tuition   Fee Payment  
                             FAQs  
                             About UofM  
                         
                      
                   
                   
                      Academics 
                      
                         
                             Provost's Office  
                             Libraries  
                             Transcripts  
                             Undergraduate Catalog  
                             Graduate Catalog  
                             Academic Calendars  
                             Course Schedule  
                             Financial Aid  
                             Graduation  
                             Honors Program  
						     eCourseware  
                         
                      
                   
                   
                      Athletics 
                      
                         
                             Gotigersgo.com  
                             Ticket Information  
                             Intramural Sports  
                             Recreation Center  
                             Athletic Academic Support  
                             Former Tigers  
                             Facilities  
                             Tiger Scholarship Fund  
                             Media  
                         
                      
                   
				    
                   
                      Research 
                      
                         
                             Sponsored Programs  
                             Research Resources  
                             Centers   Institutes  
                             Chairs of Excellence  
                             FedEx Institute of Technology  
                             Libraries  
                             Grants Accounting  
                             Environmental Health  
                             Office of Institutional Research  
                         
                      
                   
                   
                      Support UofM 
                      
                         
                             Make a Gift  
                             Alumni Association  
                             Year of Service  
                         
                      
                   
                   
                      Administrative Support 
                      
                         
                             President's Office  
                             Academic Affairs  
                             Business   Finance  
                             Career Opportunities  
                             Conference   Event Services  
                             Corporate Partnerships  
  Development Office  
                             Government Relations  
                             Information Technology Services  
                             Media and Marketing  
                             Student Affairs  
                         
                      
                   
                
             
          
          
             
				    
                  
                
             
             
                   
                  
                
             
             
                
                   Follow UofM Online 
                     UofM Facebook     UofM Twitter     UofM YouTube   
                    
                   
                     UofM Instagram     UofM Pinterest     UofM LinkedIn   
                
             
              
                   
                      
                   
                
      
          
       
    
 
 
      
      
      
       
          
             
                
                   
                      
                         
                            
                               
                                 
                                 
                                  
  Print  
  Got a Question? Ask TOM  
  Copyright © 2017 University of Memphis  
  Important Notice  
                                  
                                 
                                 
                                  
                                     Last Updated: 11/3/17 
                                  
                                 
                                 
                                  
  University of Memphis  
 Memphis, TN 38152 
 Phone: 901.678.2000 
 
  
 The University of Memphis does not discriminate against students, employees, or applicants for admission or employment on the basis of race, color, religion, creed, national origin, sex, sexual orientation, gender identity/expression, disability, age, status as a protected veteran, genetic information, or any other legally protected class with respect to all employment, programs and activities sponsored by the University of Memphis. The Office for Institutional Equity has been designated to handle inquiries regarding non-discrimination policies. For more information, visit  University of Memphis Equal Opportunity and Affirmative Action .  
Title IX of the Education Amendments of 1972 protects people from discrimination based on sex in education programs or activities which receive Federal financial assistance. Title IX states: "No person in the United States shall, on the basis of sex, be excluded from participation in, be denied the benefits of, or be subjected to discrimination under any education program or activity receiving Federal financial assistance..." 20 U.S.C. § 1681 - To Learn More, visit  Title IX and Sexual Misconduct .
 
 
                                 
                                 
                                 
                               
                            
                         
                      
                   
                
             
          
       
    
   
   
   
   
   
   
 



 


