 Search - LibGuides at University of Memphis Libraries    
 
	 
         
         
        
         
        Search - LibGuides at University of Memphis Libraries
         
         
         
         
         
             
         
        
        
            
         
        
         
        
			
			
            
                    
                    
		
            
         
		 
		
        	 
	 
		 Skip to main content          
                     
         
         
             
                
			 
				
					 
						 University of Memphis Libraries
						 
					 
					 
						 LibGuides
						 
					 
					 Search
					 
			              
             Search 
              
         
         
         
         
                     
         
         
         
             
				 
					 
						
		 
			 
				 
					 
						 
							 Toggle navigation 
							  
							  
							  
						 
					 
					 
						 
							 
								 Search 
								 
									 
									 
										 Search 
									 
								 
							 
							 
							 
						 
					 
				 
			 
		 					 
                      
				 
			 
			 
				 
					
				 

				 				 
			 
         
         
         
        
         
             
                 
                    Powered by Springshare.
                 
                 
                    All rights reserved.
                 
                 
                     Login to LibApps 
                 
             
             
                 
                 
                     Report a problem. 
                 
             
                  
         
                              
                                
                 
                      title  
                       
                 
                    Loading...
                     Close 
                         
			 
				 
					 
					    
					    
					 
				 
			         
         
        

           
	 