 African-American Studies - LibGuides at University of Memphis Libraries    
 
	 
         
         
        
         
        African-American Studies - LibGuides at University of Memphis Libraries
         
         
         
         
         
             
         
        
        
            
         
        
         
        
            
        
            
        
        	 
	 
		 Skip to main content          
                     
         
         
             
                
			 
				
					 
						 University of Memphis Libraries
						 
					 
					 
						 LibGuides
						 
					 
					 
						 Subjects
						 
					 
					 African-American Studies
					 
			              
             African-American Studies 
             Browse our best resources, organized by subject 
         
         
         
         
                     
         
         
         
             
				 
					 
						
		 
			 
				 
				 
					 
						 Toggle navigation 
						  
						  
						  
					 
					 
						 68   SUBJECTS 
					 
				 
				 
				 
					 
						 
                             
							 Guide Subject Filter 
							 
								 Select a Subject... 
									 Accounting
									 
									 African-American Studies
									 
									 Agriculture
									 
									 Anatomy and Physiology
									 
									 Animal Sciences
									 
									 Anthropology
									 
									 Archaeology
									 
									 Architecture
									 
									 Art
									 
									 Astronomy
									 
									 Bioinformatics
									 
									 Biology
									 
									 Botany
									 
									 Business and Management
									 
									 Chemistry
									 
									 Classics
									 
									 Communication and Journalism
									 
									 Computer Science
									 
									 Criminal Justice
									 
									 Ecology
									 
									 Economics
									 
									 Education
									 
									 Egyptology
									 
									 Engineering
									 
									 English
									 
									 Environmental Science
									 
									 Ethnic Studies
									 
									 Film
									 
									 Finance
									 
									 Folklore
									 
									 Foreign Languages and Literatures
									 
									 Geography
									 
									 Geology and Geophysics
									 
									 Government Publications
									 
									 Help/How-To Guides
									 
									 History, American
									 
									 History, World
									 
									 Hospitality and Tourism
									 
									 Language and Linguistics
									 
									 Latin American Studies
									 
									 Law
									 
									 Library and Information Science
									 
									 Literature
									 
									 Marketing
									 
									 Mathematics
									 
									 Medicine and Health
									 
									 Memphis/Regional Studies
									 
									 Military Sciences
									 
									 Multidisciplinary
									 
									 Music
									 
									 Nursing
									 
									 Nutrition
									 
									 Philosophy
									 
									 Physics
									 
									 Politics and Political Science
									 
									 Psychology and Counseling
									 
									 Religion
									 
									 Social Sciences
									 
									 Sociology and Social Work
									 
									 Space Exploration
									 
									 Special Collections
									 
									 Sports and Leisure Studies
									 
									 Technology
									 
									 Theatre and Dance
									 
									 Toxicology
									 
									 Transportation
									 
									 Urban Studies
									 
									 Women's & Gender Studies
									 
							  
                              Go  
						 
					 
				 
			 
		 					 
				 
			 
			 
				 
					 
						 
							 
							 
								 Guides 
							 
							 
							 
								 Databases 
							 
							 
							 
								 Blog Posts 
							 
													 

						 
						 
							 
								 
								  
							 
							 
								 
								  
							 
							 
								 
								  
							 
							 
								 
								  
							 
						 
					 
					 
						  
							
			 
				 
               		 Search
					 
				 
					  Search the full text of this site. Results will link to pages containing your terms; results from subject page searches are automatically filtered by that subject. 
					 
					 
                  
                     Guide Search Terms 
                     
                     Search 
                 
					 
			 							
		 
			 Loading... 
		 					 
				 
			 
         
         
         
        
         
             
                 
                    Powered by Springshare.
                 
                 
                    All rights reserved.
                 
                 
                     Login to LibApps 
                 
             
             
                 
                 
                     Report a problem. 
                 
             
                  
         
                              
                                
                 
                      title  
                       
                 
                    Loading...
                     Close 
                         
			 
				 
					 
					    
					    
					 
				 
			 
         
        

           
	 
