Finish Line - UofM Global - University of Memphis    










 
 
 
     



 
    
    
    Finish Line - 
      	UofM Global
      	 - University of Memphis
    
    
    
    
    
    
    
    
    
    
    
    
    
    
    
    
    
    
    
    
    
    
    
    
    
    
   
   
   






 

   
   
   
    
    
    
    
    
    
    
    
    
    
    
    
    
    
    
    
    
    
 
 
   
   
   
   
 

   
   
   
    
      
      
       
 
	
	
	
 
 

 


 
 

 
  
 
	 
		 
			 
				 
					     
				 
				     
				 
					 
						 
							 
								 
									   UofM Home  
										  myMemphis  
										  eCourseware  
										  Webmail  
										  Contact  
								     
								 
								 
									 Search 
									 
									 
									    
									 Site Index 
								 																
								  
							 
						 
					 
					 
						  
							 
								   About UofM Global      
									 
										  UofM Global  
										  Ranked Online Degrees  	
										  The UofM Global Experience  
										  Our Faculty  
										  Tuition   Fees  	
										  Accreditations  
									 
								 
								   Online Degrees      
									 
										  Online Degrees  
										  Undergraduate Degrees  
										  Graduate Degrees  
										  Graduate Certificates  
										  Online Admissions  
										  Contact Us  
									 
								 
								   Online Admissions      
									 
										  Online Admissions  
										  Apply Now   
										  Smart Start  
										  Financial Aid  
										  All Online Services  
									 
								 
								   Current Students      
									 
										  Student Services and Support  
										  Online Advising  
										  Course Registration  
										  Alternative Degree Pathways  
										  Learning Support  
										  Technology Support  
										  Library Services  
										  Career Services  
										  Additional Services  
										  Graduation  
									 
								 
								  Request Info  
							 
						 
					 
				 
			 
		 
		 
			 
				 
					  Online Degrees  
				 
			 
		 
	 
 
 
      
      
      
    
    
       
          
             
                
                   
                       
                           			UofM Global
                           	  
                   
                
             
          
       
       
          
             
                
                   
                      
                         
                             Home  
                             
                                 	UofM Global
                                 	  
                             
                                 	Student Services
                                 	  
                            Finish Line 
                         
                      
                      
                         
                            Student Services and Support   
                            
                               
                                  
                                   Student Services and Support  
                                   Online Advising Menu  
                                         Overview  
                                         Degree Planning  
                                         Find My Advisor  
                                     
                                  
                                   Course Registration  
                                         Overview  
                                         Online Course Search  
                                         Undergraduate Catalog  
                                         Graduate Catalog  
                                         Dates and Deadlines  
                                         Tuition   Fees  
                                         Scholarships  
                                     
                                  
                                   Alternative Degree Pathways  
                                        
                                         Overview  
                                        
                                         Finish Line Program  
                                        
                                         Prior Learning Assessment  
                                     
                                  
                                   Learning Support  
                                         Overview  
                                         Readiness Assessment  
                                         Success Strategies  
                                         Get Connected  
                                         Online Tutoring  
                                     
                                  
                                   Technology Support  
                                         Overview  
                                         Technology Requirements  
                                         Additional Services  
                                         Online Course Preview  
                                     
                                  
                                   Library Services  
                                         Overview  
                                         Ask-a-Librarian  
                                         Electronic Delivery  
                                         Research Consultations  
                                     
                                  
                                   Career Services  
                                   Additional Services  
                                         Overview  
                                         Adult and Veteran Students  
                                         Disability Resources  
                                     
                                  
                                   Graduation  
                               
                            
                         
                      
                   
                
             
          
          
             
                
                   
                      
                     
                     		
                     
                      
                     
                      Finish Line Program 
                     
                      The UofM Finish Line Program targets students who previously attended the University
                        of Memphis and have completed 90 or more credit hours but have regrettably had to
                        abandon their dreams of completing a college degree. Many have demonstrated the ability
                        to be successful in college and are within a single academic year of successful graduation
                        (i.e. 30 hours). Yet the primary reason for withdrawal at 90+ hours is exhausted financial
                        aid and related external situations, such as needing to work full-time to support
                        a family.
                      
                     
                      To qualify for our  program, students must: 
                     
                      
                        
                         
                           
                            Have 90 or more earned credit hours 
                           
                         
                        
                         
                           
                            Have previously attended the University of Memphis but have had a stop-out period
                              of at least one semester (fall or spring)
                            
                           
                         
                        
                         
                           
                            Have an overall and University of Memphis grade point average of at least 2.0 
                           
                         
                        
                         Have a maximum of 30 credit hours remaining 
                        
                      
                     
                     
                     	
                      
                   
                
                
                   
                      
                         Student Services and Support 
                         
                            
                               
                                Student Services and Support  
                                Online Advising Menu  
                                      Overview  
                                      Degree Planning  
                                      Find My Advisor  
                                  
                               
                                Course Registration  
                                      Overview  
                                      Online Course Search  
                                      Undergraduate Catalog  
                                      Graduate Catalog  
                                      Dates and Deadlines  
                                      Tuition   Fees  
                                      Scholarships  
                                  
                               
                                Alternative Degree Pathways  
                                     
                                      Overview  
                                     
                                      Finish Line Program  
                                     
                                      Prior Learning Assessment  
                                  
                               
                                Learning Support  
                                      Overview  
                                      Readiness Assessment  
                                      Success Strategies  
                                      Get Connected  
                                      Online Tutoring  
                                  
                               
                                Technology Support  
                                      Overview  
                                      Technology Requirements  
                                      Additional Services  
                                      Online Course Preview  
                                  
                               
                                Library Services  
                                      Overview  
                                      Ask-a-Librarian  
                                      Electronic Delivery  
                                      Research Consultations  
                                  
                               
                                Career Services  
                                Additional Services  
                                      Overview  
                                      Adult and Veteran Students  
                                      Disability Resources  
                                  
                               
                                Graduation  
                            
                         
                      
                      
                     
                     
                      
                                 Need Help? 
                                 
                                     
                                         
											     Call 844-302-3886 
                                         
                                     
                                     
                                         
                                                 Email Us 
                                         
                                     
                                 
                             
                     
                     
                     
                      
                      
                   
                   
                
                
             
             
          
          
       
    
    
    
      
      
       
 
 
 
 
 
  Full sitemap  
 
 
 
 
  About UofM Global  
 
 
  UofM Global  
  Ranked Online Degrees  	
  The UofM Global Experience  
  Our Faculty  
  Tuition   Fees  	
  Accreditations  
 
  
 
  Online Degrees  
 
 
  Online Degrees  
  Undergraduate Degrees  
  Graduate Degrees  
  Graduate Certificates  
  Online Admissions  
  Contact Us  
 
  
 
 
 
  Online Admissions  
 
 
  Online Admissions  
  Apply Now   
  Smart Start  
  Financial Aid  
  All Online Services  
 
  
  Contact Us  
 
  Tuition  
  Financial Aid  
  
 
	  Current Students  
 
 
  Student Services and Support  
  Online Advising  
  Course Registration  
  Alternative Degree Pathways  
  Learning Support  
  Technology Support  
  Library Services  
  Career Services  
  Additional Services  
  Graduation  
 
  
 
 
 
 
 
   
 
 
   
 
 
   
 
 
 
 
 
 
      
      
      
       
          
             
                
                   
                      
                         
                            
                               
                                 
                                 
                                  
  Print  
  Got a Question? Ask TOM  
  Copyright © 2017 University of Memphis  
  Important Notice  
                                  
                                 
                                 
                                  
                                     Last Updated: 11/29/17 
                                  
                               
                            
                         
                      
                   
                
             
          
       
    
   
   
   
   
   
   
 



 


