Index of /lmcgllvr/public/    Index of /lmcgllvr/public/  
  
 Index of /lmcgllvr/public/ 
 Open Web View    
  Name 
 Modified  Size  
  
   
  
 MacGillivray articles/  
 
11/8/10 3:48 PM
  
  
  
 RDNG 4240 Fall 2013/  
 
3/24/14 1:01 PM
  
  
  
 RDNG 4240 Spring 2014/  
 
4/21/14 3:52 PM
  
  
 
 
 
