Policies Directory - Libraries - University of Memphis    










 
 
 
     



 
    
    
    Policies Directory  - 
      	Libraries
      	 - University of Memphis
    
    
    
    
    
    
    
    
    
    
    
    
    
    
    
    
    
    
    
    
    
    
    
    
    
   
   
   






   
   
   
    
    
 
 
   
   
   
   
 
    
   
   
    
      
      
          
     
    
       
          
             
                
				    
					     
                   
      
                
                
                    
                
                
                   
                      
                         
                            
                               
                                   Lambuth Campus  
                                   myMemphis  
                                   Webmail  
                                   Faculty   Staff  
                                   Contact  
                                   Directories  
                               
                            
                            
                               Search 
                               
							   
							      
						 Site Index 
                            
                             
                         
                      
                   
                   
                      
                         
                            
                                Academics    
                                  
                                      Academics Overview  
                                      Colleges   Schools  
                                      Undergraduate Catalog  
                                      Graduate Catalog  
                                      Honors Program  
								      UofM Global  
                                  
                               
                                Admissions    
                                  
                                      Admissions Information  
                                      Undergraduate Students  
                                      Graduate Students  
                                      Law Students  
                                      International Students  
                                  
                               
                                Athletics    
                                  
                                      Tiger Athletics  
                                      Ticket Information  
                                      Intramurals  
                                      Make A Gift  
                                      Rec Center  
                                      gotigersgo.com  
                                  
                               
                                Research    
                                  
                                      Research   Sponsored Programs  
                                      Research Resources  
                                      Centers/Chairs of Excellence  

                                      Centers and Institutes  
									  FedEx Institute of Technology  
                                      electronic Research Administration (eRA)  
									  Office of Institutional Research  
                                  
                               
                                Support UofM    
                                  
                                      Development  
                                      Make a Gift  
                                      Alumni Association  
                                      Athletics Development  
                                  
                               
                                Libraries    
                                  
                                      University Libraries  
                                      Libraries Resources  
                                      Libraries Services  
                                      Special Collections  
                                      Ask a Librarian  
                                  
                               
                            
                         
                      
                   
                
             
             
                
                   
                      Resources for... 
                      
                          Prospective Students  
                          Current and Returning Students  
                          Parents  
                          Alumni  
                          Veterans  
                      
                       Expand Menu  
                   
				   			   
                
             
          
       
    
          
      
          
    
       
          
             
                
                   
                       
                           			University Libraries
                           	 
                          
                   
                
             
          
       
       
          
             
                
                   
                      
                          About  
                          Services  
                          Resources  
                          Instruction  
                          Special Collections  
                          Technology  
                      
                      
                         
                            About University Libraries   
                            
                               
                                  
                                   Hours  
                                   News   Events  
                                   Jobs  
                                   Staff Directory  
                                   Organization Chart  
                                   Library Faculty and Staff Portal  
                                   Alternate Use of Library Space Request  
                               
                            
                         
                      
                   
                
             
          
          
             
                
                   
                      
                          Home  
                          
                              	Libraries
                              	  
                         
                           	About University Libraries
                           	
                         
                      
                   
                   
                       
                      
                     
                     		
                     
                     
                      
                        
                         
                           
                            
                              
                               Libraries Policy or Guideline 
                              
                               Responsibility 
                              
                            
                           
                            
                              
                                Alternate Use of Library Space Request  
                              
                                Administration  
                              
                            
                           
                            
                              
                                Art Exhibition Guidelines  
                              
                                Administration  
                              
                            
                           
                            
                              
                                Audio-Visual Material, Guidelines for Acquisition  
                              
                                Collection Management  
                              
                            
                           
                            
                              
                                Binding Guidelines  
                              
                                Collection Management  
                              
                            
                           
                            
                              
                                Buying for Employees Policy  
                              
                                Collection Management  
                              
                            
                           
                            
                              
                                Cancellations and Claims Guidelines  
                              
                                Collection Management  
                              
                            
                           
                            
                              
                                Cartographic Materials, Guidelines for Acquisition  
                              
                                Collection Management  
                              
                            
                           
                            
                              
                                Check-Out Guidelines for Faculty  
                              
                                Circulation  
                              
                            
                           
                            
                              
                                Check-Out Guidelines for Graduate Students  
                              
                                Circulation  
                              
                            
                           
                            
                              
                                Check-Out Guidelines for Undergraduate Students  
                              
                                Circulation  
                              
                            
                           
                            
                              
                                Check-Out Guidelines for Visitors  
                              
                                Circulation  
                              
                            
                           
                            
                              
                                Collection Development Policy  
                              
                                Collection Management  
                              
                            
                           
                            
                              
                                Computer Access Policy  
                              
                                Library Information Systems  
                              
                            
                           
                            
                              
                                Computer Software, Guidelines for Acquisition  
                              
                                Collection Management  
                              
                            
                           
                            
                              
                                Confidentiality Policy  
                              
                                Circulation  
                              
                            
                           
                            
                              
                                Disclosure of Information Guidelines  
                              
                                Collection Management  
                              
                            
                           
                            
                              
                                Display Policy  
                              
                                Administration  
                              
                            
                           
                            
                              
                                Electronic Reserves Policy  
                              
                                Circulation  
                              
                            
                           
                            
                              
                                Faculty Professional Development Policy  
                              
                                Administration  
                              
                            
                           
                            
                              
                                Fees   Fines Guidelines  
                              
                                Circulation  
                              
                            
                           
                            
                              
                                Food, Drink,   Tobacco Policy  
                              
                                Administration  
                              
                            
                           
                            
                              
                                GIFTS - Gift Policy   Form (pdf)  
                              
                                Administration  
                              
                            
                           
                            
                              
                                GIFTS - Guidelines for Donating Gifts through Collection Management  
                              
                                Collection Management  
                              
                            
                           
                            
                              
                                Group Study Room Reservation Policy  
                              
                                Circulation  
                              
                            
                           
                            
                              
                                Guest Computer Access Policy  
                              
                                Library Information Systems  
                              
                            
                           
                            
                              
                                Instruction Program Policy  
                              
                                Instructional Services  
                              
                            
                           
                            
                              
                                Interlibrary Loan Guidelines  
                              
                                Circulation  
                              
                            
                           
                            
                              
                                Laptop Guidelines  
                              
                                Circulation  
                              
                            
                           
                            
                              
                                Lost and Found Policy  
                              
                                Circulation  
                              
                            
                           
                            
                              
                                Microforms, Guidelines for Acquisition  
                              
                                Collection Management  
                              
                            
                           
                            
                              
                                Multiple Copies, Guidelines for Acquisition  
                              
                                Collection Management  
                              
                            
                           
                            
                              
                               Order Priorities Guidelines 
                              
                                Collection Management  
                              
                            
                           
                            
                              
                               Passenger Van Policy 
                              
                                Administration  
                              
                            
                           
                            
                              
                                Periodicals/Non-Print Check-Out Guidelines  
                              
                                Collection Management  
                              
                            
                           
                            
                              
                                Printing and Copying Guidelines  
                              
                                Administration  
                              
                            
                           
                            
                              
                                Quiet Policy  
                              
                                Administration  
                              
                            
                           
                            
                              
                                Recalls/Searches/Holds Guidelines  
                              
                                Circulation  
                              
                            
                           
                            
                              
                                Renewals/Returns Guidelines  
                              
                                Circulation  
                              
                            
                           
                            
                              
                                Retention of Business Documents Guidelines  
                              
                                Collection Management  
                              
                            
                           
                            
                              
                                Standing Orders Guidelines  
                              
                                Collection Management  
                              
                            
                           
                            
                           
                            
                              
                                Study Carrels Policy  
                              
                                Circulation  
                              
                            
                           
                            
                              
                                Tenure and Promotion Guidelines  (PDF)  
                               
                              
                                Administration   
                               
                              
                            
                           
                            
                              
                                TopNotch Tiger Program   
                              
                                Recognition, Awards,  and Wellbeing Committee   
                              
                            
                           
                            
                              
                                 Tour Policy   LAC Approved: August 2014   
                               
                              
                                RIS/ Community Engagement Librarian  
                              
                            
                           
                            
                              
                                Vendor Selection Guidelines  
                              
                                Collection Management  
                              
                            
                           
                            
                         
                        
                      
                     
                     
                     	
                      
                   
                
                
                   
                      
                         About University Libraries 
                         
                            
                               
                                Hours  
                                News   Events  
                                Jobs  
                                Staff Directory  
                                Organization Chart  
                                Library Faculty and Staff Portal  
                                Alternate Use of Library Space Request  
                            
                         
                      
                      
                      
                         
                            
                                Ask-a-Librarian  
                               Got a question? Got a problem? Ask Us! 
                            
                            
                                Interlibrary Loan  
                               Request books, articles, and other research materials from other libraries. 
                            
                            
                                Reserve space  
                               Group study and presentation spaces available in the library. 
                            
                            
                                My Library Account  
                               Review your library account for due dates and more. 
                            
                         
                      
                      
                      
                   
                   
                
                
             
             
          
          
       
    
    
    
      
      
       
 
    
       
          
             
                 Full sitemap   
             
             
                
                   
                      Admissions 
                      
                         
                             Prospective Students  
                             Undergraduate  
                             Graduate  
                             Law School  
                             International  
                             Parents  
                             Scholarship   Financial Aid  
                             Tuition   Fee Payment  
                             FAQs  
                             About UofM  
                         
                      
                   
                   
                      Academics 
                      
                         
                             Provost's Office  
                             Libraries  
                             Transcripts  
                             Undergraduate Catalog  
                             Graduate Catalog  
                             Academic Calendars  
                             Course Schedule  
                             Financial Aid  
                             Graduation  
                             Honors Program  
						     eCourseware  
                         
                      
                   
                   
                      Athletics 
                      
                         
                             Gotigersgo.com  
                             Ticket Information  
                             Intramural Sports  
                             Recreation Center  
                             Athletic Academic Support  
                             Former Tigers  
                             Facilities  
                             Tiger Scholarship Fund  
                             Media  
                         
                      
                   
				    
                   
                      Research 
                      
                         
                             Sponsored Programs  
                             Research Resources  
                             Centers   Institutes  
                             Chairs of Excellence  
                             FedEx Institute of Technology  
                             Libraries  
                             Grants Accounting  
                             Environmental Health  
                             Office of Institutional Research  
                         
                      
                   
                   
                      Support UofM 
                      
                         
                             Make a Gift  
                             Alumni Association  
                             Year of Service  
                         
                      
                   
                   
                      Administrative Support 
                      
                         
                             President's Office  
                             Academic Affairs  
                             Business   Finance  
                             Career Opportunities  
                             Conference   Event Services  
                             Corporate Partnerships  
  Development Office  
                             Government Relations  
                             Information Technology Services  
                             Media and Marketing  
                             Student Affairs  
                         
                      
                   
                
             
          
          
             
				    
                  
                
             
             
                   
                  
                
             
             
                
                   Follow UofM Online 
                     UofM Facebook     UofM Twitter     UofM YouTube   
                    
                   
                     UofM Instagram     UofM Pinterest     UofM LinkedIn   
                
             
              
                   
                      
                   
                
      
          
       
    
 
 
      
      
      
       
          
             
                
                   
                      
                         
                            
                               
                                 
                                 
                                  
  Print  
  Got a Question? Ask TOM  
  Copyright © 2017 University of Memphis  
  Important Notice  
                                  
                                 
                                 
                                  
                                     Last Updated: 12/8/17 
                                  
                                 
                                 
                                  
  University of Memphis  
 Memphis, TN 38152 
 Phone: 901.678.2000 
 
  
 The University of Memphis does not discriminate against students, employees, or applicants for admission or employment on the basis of race, color, religion, creed, national origin, sex, sexual orientation, gender identity/expression, disability, age, status as a protected veteran, genetic information, or any other legally protected class with respect to all employment, programs and activities sponsored by the University of Memphis. The Office for Institutional Equity has been designated to handle inquiries regarding non-discrimination policies. For more information, visit  University of Memphis Equal Opportunity and Affirmative Action .  
Title IX of the Education Amendments of 1972 protects people from discrimination based on sex in education programs or activities which receive Federal financial assistance. Title IX states: "No person in the United States shall, on the basis of sex, be excluded from participation in, be denied the benefits of, or be subjected to discrimination under any education program or activity receiving Federal financial assistance..." 20 U.S.C. § 1681 - To Learn More, visit  Title IX and Sexual Misconduct .
 
 
                                 
                                 
                                 
                               
                            
                         
                      
                   
                
             
          
       
    
   
   
   
   
   
   
 



 


