Jeff Leedham - Political Science - University of Memphis    










 
 
 
     



 
    
    
    Jeff Leedham - 
      	Political Science
      	 - University of Memphis
    
    
    
    
    
    
    
    
    
    
    
    
    
    
    
    
    
    
    
    
    
    
    
    
    
   
   
   






   
   
   
    
    
 
 
   
   
   
   
 
    
   
   
    
      
      
          
     
    
       
          
             
                
				    
					     
                   
      
                
                
                    
                
                
                   
                      
                         
                            
                               
                                   Lambuth Campus  
                                   myMemphis  
                                   Webmail  
                                   Faculty   Staff  
                                   Contact  
                                   Directories  
                               
                            
                            
                               Search 
                               
							   
							      
						 Site Index 
                            
                             
                         
                      
                   
                   
                      
                         
                            
                                Academics    
                                  
                                      Academics Overview  
                                      Colleges   Schools  
                                      Undergraduate Catalog  
                                      Graduate Catalog  
                                      Honors Program  
								      UofM Global  
                                  
                               
                                Admissions    
                                  
                                      Admissions Information  
                                      Undergraduate Students  
                                      Graduate Students  
                                      Law Students  
                                      International Students  
                                  
                               
                                Athletics    
                                  
                                      Tiger Athletics  
                                      Ticket Information  
                                      Intramurals  
                                      Make A Gift  
                                      Rec Center  
                                      gotigersgo.com  
                                  
                               
                                Research    
                                  
                                      Research   Sponsored Programs  
                                      Research Resources  
                                      Centers/Chairs of Excellence  

                                      Centers and Institutes  
									  FedEx Institute of Technology  
                                      electronic Research Administration (eRA)  
									  Office of Institutional Research  
                                  
                               
                                Support UofM    
                                  
                                      Development  
                                      Make a Gift  
                                      Alumni Association  
                                      Athletics Development  
                                  
                               
                                Libraries    
                                  
                                      University Libraries  
                                      Libraries Resources  
                                      Libraries Services  
                                      Special Collections  
                                      Ask a Librarian  
                                  
                               
                            
                         
                      
                   
                
             
             
                
                   
                      Resources for... 
                      
                          Prospective Students  
                          Current and Returning Students  
                          Parents  
                          Alumni  
                          Veterans  
                      
                       Expand Menu  
                   
				   			   
                
             
          
       
    
          
      
          
    
       
          
             
                
                   
                       
                           			Department of Political Science
                           	 
                          
                   
                
             
          
       
       
          
             
                
                   
                      
                          Undergraduate  
                          Graduate  
                          JD/MA  
                          Internships  
                          People  
                          News   Events  
                      
                      
                         
                            People   
                            
                               
                                  
                                   Bios  
                                   Awards and Kudos  
                               
                            
                         
                      
                   
                
             
          
          
             
                
                   
                      
                          Home  
                          
                              	Political Science
                              	  
                          
                              	People
                              	  
                         Jeff Leedham 
                      
                   
                   
                       
                      
                      
                        
                        	
                        
                        		  
                         
                           
                           
                            
                              
                              
                                                                   
                                 
                                 
                                  
                                 
                                 
                               
                              
                              
                               
                                 
                                  
                                    
                                    Jeff Leedham
                                    
                                  
                                 
                                 
                                  
                                    
                                    Instructor
                                    
                                  
                                 
                                 
                                  
                                    
                                     
                                       
                                        Phone 
                                       
                                        
                                          
                                          901.678.2395
                                          
                                        
                                       
                                     
                                    
                                     
                                       
                                        Email 
                                       
                                         jleedham@memphis.edu  
                                       
                                     
                                    
                                     
                                       
                                        Fax 
                                       
                                        
                                          
                                          901.678.2983
                                          
                                        
                                       
                                     
                                    
                                  
                                 
                                 
                                  
                                    
                                     
                                       
                                        Office 
                                       
                                        
                                          
                                          421 Clement Hall
                                          
                                        
                                       
                                     
                                    
                                     
                                       
                                        Office Hours 
                                       
                                        
                                          
                                          Call for Hours
                                          
                                        
                                       
                                     
                                    
                                  
                                 
                                 
                                  
                                    										
                                    
                                    
                                                                            
                                    
                                  
                                 
                               
                              
                              
                            
                           			 
                           			  
                           
                           
                            Jeff Leedham graduated from the M.A. program here at the University of Memphis in
                              the spring of 2013. His thesis, "Reason and MADness: Or How Hegel Learned to Stop
                              Worrying and Love the Bomb" looked at the "end of history" and its impact on twentieth-century
                              politics. He joined the department in the fall of that year. His areas of interest
                              include late modern and contemporary political philosophy. Jeff is currently teaching
                              courses in political theory, American government, and methodology.
                            
                           
                              
                           
                           
                         
                        								
                        
                        
                        
                        
                        	
                      
                      
                   
                
                
                   
                      
                         People 
                         
                            
                               
                                Bios  
                                Awards and Kudos  
                            
                         
                      
                      
                      
                         
                            
                                Alumni and Friends  
                               Find out how you can support the Department of Political Science. 
                            
                            
                                Make a Gift  
                               Support the programs and research of the Department of Political Science. 
                            
                            
                                RSO/Clubs  
                               The Department of Political Science is affiliated with several UofM registered student
                                 clubs.
                               
                            
                            
                                Contact  
                               Main office contact and location information. 
                            
                         
                      
                   
                   
                
                
             
             
          
          
       
    
    
    
      
      
       
 
    
       
          
             
                 Full sitemap   
             
             
                
                   
                      Admissions 
                      
                         
                             Prospective Students  
                             Undergraduate  
                             Graduate  
                             Law School  
                             International  
                             Parents  
                             Scholarship   Financial Aid  
                             Tuition   Fee Payment  
                             FAQs  
                             About UofM  
                         
                      
                   
                   
                      Academics 
                      
                         
                             Provost's Office  
                             Libraries  
                             Transcripts  
                             Undergraduate Catalog  
                             Graduate Catalog  
                             Academic Calendars  
                             Course Schedule  
                             Financial Aid  
                             Graduation  
                             Honors Program  
						     eCourseware  
                         
                      
                   
                   
                      Athletics 
                      
                         
                             Gotigersgo.com  
                             Ticket Information  
                             Intramural Sports  
                             Recreation Center  
                             Athletic Academic Support  
                             Former Tigers  
                             Facilities  
                             Tiger Scholarship Fund  
                             Media  
                         
                      
                   
				    
                   
                      Research 
                      
                         
                             Sponsored Programs  
                             Research Resources  
                             Centers   Institutes  
                             Chairs of Excellence  
                             FedEx Institute of Technology  
                             Libraries  
                             Grants Accounting  
                             Environmental Health  
                             Office of Institutional Research  
                         
                      
                   
                   
                      Support UofM 
                      
                         
                             Make a Gift  
                             Alumni Association  
                             Year of Service  
                         
                      
                   
                   
                      Administrative Support 
                      
                         
                             President's Office  
                             Academic Affairs  
                             Business   Finance  
                             Career Opportunities  
                             Conference   Event Services  
                             Corporate Partnerships  
  Development Office  
                             Government Relations  
                             Information Technology Services  
                             Media and Marketing  
                             Student Affairs  
                         
                      
                   
                
             
          
          
             
				    
                  
                
             
             
                   
                  
                
             
             
                
                   Follow UofM Online 
                     UofM Facebook     UofM Twitter     UofM YouTube   
                    
                   
                     UofM Instagram     UofM Pinterest     UofM LinkedIn   
                
             
              
                   
                      
                   
                
      
          
       
    
 
 
      
      
      
       
          
             
                
                   
                      
                         
                            
                               
                                 
                                 
                                  
  Print  
  Got a Question? Ask TOM  
  Copyright © 2017 University of Memphis  
  Important Notice  
                                  
                                 
                                 
                                  
                                     Last Updated: 11/17/17 
                                  
                                 
                                 
                                  
  University of Memphis  
 Memphis, TN 38152 
 Phone: 901.678.2000 
 
  
 The University of Memphis does not discriminate against students, employees, or applicants for admission or employment on the basis of race, color, religion, creed, national origin, sex, sexual orientation, gender identity/expression, disability, age, status as a protected veteran, genetic information, or any other legally protected class with respect to all employment, programs and activities sponsored by the University of Memphis. The Office for Institutional Equity has been designated to handle inquiries regarding non-discrimination policies. For more information, visit  University of Memphis Equal Opportunity and Affirmative Action .  
Title IX of the Education Amendments of 1972 protects people from discrimination based on sex in education programs or activities which receive Federal financial assistance. Title IX states: "No person in the United States shall, on the basis of sex, be excluded from participation in, be denied the benefits of, or be subjected to discrimination under any education program or activity receiving Federal financial assistance..." 20 U.S.C. § 1681 - To Learn More, visit  Title IX and Sexual Misconduct .
 
 
                                 
                                 
                                 
                               
                            
                         
                      
                   
                
             
          
       
    
   
   
   
   
   
   
 



 


