Courtney Santo - Department of English - University of Memphis    










 
 
 
     



 
    
    
    Courtney Santo - 
      	Department of English
      	 - University of Memphis
    
    
    
    
    
    
    
    
    
    
    
    
    
    
    
    
    
    
    
    
    
    
    
    
    
   
   
   






   
   
   
    
    
 
 
   
   
   
   
 
    
   
   
    
      
      
          
     
    
       
          
             
                
				    
					     
                   
      
                
                
                    
                
                
                   
                      
                         
                            
                               
                                   Lambuth Campus  
                                   myMemphis  
                                   Webmail  
                                   Faculty   Staff  
                                   Contact  
                                   Directories  
                               
                            
                            
                               Search 
                               
							   
							      
						 Site Index 
                            
                             
                         
                      
                   
                   
                      
                         
                            
                                Academics    
                                  
                                      Academics Overview  
                                      Colleges   Schools  
                                      Undergraduate Catalog  
                                      Graduate Catalog  
                                      Honors Program  
								      UofM Global  
                                  
                               
                                Admissions    
                                  
                                      Admissions Information  
                                      Undergraduate Students  
                                      Graduate Students  
                                      Law Students  
                                      International Students  
                                  
                               
                                Athletics    
                                  
                                      Tiger Athletics  
                                      Ticket Information  
                                      Intramurals  
                                      Make A Gift  
                                      Rec Center  
                                      gotigersgo.com  
                                  
                               
                                Research    
                                  
                                      Research   Sponsored Programs  
                                      Research Resources  
                                      Centers/Chairs of Excellence  

                                      Centers and Institutes  
									  FedEx Institute of Technology  
                                      electronic Research Administration (eRA)  
									  Office of Institutional Research  
                                  
                               
                                Support UofM    
                                  
                                      Development  
                                      Make a Gift  
                                      Alumni Association  
                                      Athletics Development  
                                  
                               
                                Libraries    
                                  
                                      University Libraries  
                                      Libraries Resources  
                                      Libraries Services  
                                      Special Collections  
                                      Ask a Librarian  
                                  
                               
                            
                         
                      
                   
                
             
             
                
                   
                      Resources for... 
                      
                          Prospective Students  
                          Current and Returning Students  
                          Parents  
                          Alumni  
                          Veterans  
                      
                       Expand Menu  
                   
				   			   
                
             
          
       
    
          
      
          
    
       
          
             
                
                   
                       
                           			Department of English
                           	 
                           
                   
                
             
          
       
       
          
             
                
                   
                      
                          About  
                          Undergraduate  
                          Graduate  
                          People  
                          Community  
                          News/Events  
                      
                      
                         
                            People   
                            
                               
                                  
                                   Staff  
                                   African American Literature  
                                   Applied Linguistics  
                                   Creative Writing  
                                   Composition Studies and Professional Writing  
                                   Literary Cultural Studies  
                                   Instructors  
                                   Lambuth Campus  
                                   General Inquiries  
                               
                            
                         
                      
                   
                
             
          
          
             
                
                   
                      
                          Home  
                          
                              	Department of English
                              	  
                          
                              	People
                              	  
                         Courtney Santo 
                      
                   
                   
                       
                      
                     
                     	
                     
                     		  
                      
                        
                        
                         
                           
                           
                                                                
                              
                              
                               
                              
                              
                            
                           
                           
                            
                              
                               
                                 
                                 Courtney Miller Santo
                                 
                               
                              
                              
                               
                                 
                                 Instructor, Editor-in-Chief of the Pinch, and Director of River City Writers Series
                                 
                               
                              
                              
                               
                                 
                                  
                                    
                                     Phone 
                                    
                                     
                                       
                                       901.678.2651
                                       
                                     
                                    
                                  
                                 
                                  
                                    
                                     Email 
                                    
                                     
                                       
                                       cmsanto@memphis.edu
                                       
                                     
                                    
                                  
                                 
                                  
                                    
                                     Fax 
                                    
                                     
                                       
                                       901.678.2226
                                       
                                     
                                    
                                  
                                 
                               
                              
                              
                               
                                 
                                  
                                    
                                     Office 
                                    
                                     
                                       
                                       Patterson 416
                                       
                                     
                                    
                                  
                                 
                                  
                                    
                                     Office Hours 
                                    
                                     
                                       
                                       Call for Hours
                                       
                                     
                                    
                                  
                                 
                               
                              
                              
                               
                                 										
                                 
                                 
                                   Website  
                                                                         
                                 
                               
                              
                            
                           
                           
                         
                        			 
                        			  
                        
                        
                         Education 
                        
                         MFA in Fiction, 2011, University of Memphis B.A. in Journalism and Russian Studies, 1998, Washington and Lee University
                         
                        
                         Academic Summary 
                        
                         Courtney is the author of two novels,  The Roots of the Olive Tree  and  Three Story House , both published by HarperCollins. Her works have been translated into German, Italian,
                           Hungarian, Korean, Dutch, Spanish, Polish, Turkey, and Slovenian. Her debut novel
                           was selected by Redbook Magazine to launch its monthly book club.
                         
                        
                         Currently, she serves as Editor-in-Chief of  The Pinch  and as director of the River City Writers Series for 2016-2017. She also chairs the
                           MidSouth Book Festival.
                         
                        
                         In addition to her novels, she has published a number of essays, fiction and poetry
                           in  Shark Reef ,  Green Briar Review , the  Los   Angeles Review ,  Irreantum ,  Memphis Magazine  and  Mason's Road  among others.
                         
                        
                         Since beginning her writing career in 2011, Courtney's work has been an Amazon Breakthrough
                           Novel Award Semifinalist, won the  Memphis Magazine  Fiction Contest Grand Prize, been nominated for a Whitney and placed in the Porter
                           Fleming Literary Contest.
                         
                        
                         Select Publications 
                        
                         Books: 
                        
                         
                           
                             Three Story House , William Morrow, 2014
                            
                           
                             Roots of the Olive Tree , William Morrow, 2012
                            
                           
                         
                        
                         Journal Publications: 
                        
                         Fiction: 
                        
                         
                           
                            "Wind Gap,"  Memphis Magazine , June, 2012
                            
                           
                            "The End of Happy Endings,"  Irreantum , Spring, 2012
                            
                           
                            "Flight,"  Irreantum  , Spring, 2011
                            
                           
                            "The Opposite of Sound,"  Sunstone Magazine    
                           
                         
                        
                         Poetry: 
                        
                         
                           
                            "Bank Bound,"  Los Angeles Review , 2011   
                           
                         
                        
                         Non-fiction: 
                        
                         
                           
                            "Shoulder-to-Shoulder,"  Segullah , 2008
                            
                           
                         
                        
                        
                      
                     								
                     
                     
                     
                     
                     	
                      
                   
                
                
                   
                      
                         People 
                         
                            
                               
                                Staff  
                                African American Literature  
                                Applied Linguistics  
                                Creative Writing  
                                Composition Studies and Professional Writing  
                                Literary Cultural Studies  
                                Instructors  
                                Lambuth Campus  
                                General Inquiries  
                            
                         
                      
                      
                      
                         
                            
                                Apply Now  
                                
                            
                            
                                Alumni and Friends  
                                
                            
                            
                                Course Offerings  
                                
                            
                            
                                Contact Us  
                                
                            
                         
                      
                      
                      
                   
                   
                
                
             
             
          
          
       
    
    
    
      
      
       
 
    
       
          
             
                 Full sitemap   
             
             
                
                   
                      Admissions 
                      
                         
                             Prospective Students  
                             Undergraduate  
                             Graduate  
                             Law School  
                             International  
                             Parents  
                             Scholarship   Financial Aid  
                             Tuition   Fee Payment  
                             FAQs  
                             About UofM  
                         
                      
                   
                   
                      Academics 
                      
                         
                             Provost's Office  
                             Libraries  
                             Transcripts  
                             Undergraduate Catalog  
                             Graduate Catalog  
                             Academic Calendars  
                             Course Schedule  
                             Financial Aid  
                             Graduation  
                             Honors Program  
						     eCourseware  
                         
                      
                   
                   
                      Athletics 
                      
                         
                             Gotigersgo.com  
                             Ticket Information  
                             Intramural Sports  
                             Recreation Center  
                             Athletic Academic Support  
                             Former Tigers  
                             Facilities  
                             Tiger Scholarship Fund  
                             Media  
                         
                      
                   
				    
                   
                      Research 
                      
                         
                             Sponsored Programs  
                             Research Resources  
                             Centers   Institutes  
                             Chairs of Excellence  
                             FedEx Institute of Technology  
                             Libraries  
                             Grants Accounting  
                             Environmental Health  
                             Office of Institutional Research  
                         
                      
                   
                   
                      Support UofM 
                      
                         
                             Make a Gift  
                             Alumni Association  
                             Year of Service  
                         
                      
                   
                   
                      Administrative Support 
                      
                         
                             President's Office  
                             Academic Affairs  
                             Business   Finance  
                             Career Opportunities  
                             Conference   Event Services  
                             Corporate Partnerships  
  Development Office  
                             Government Relations  
                             Information Technology Services  
                             Media and Marketing  
                             Student Affairs  
                         
                      
                   
                
             
          
          
             
				    
                  
                
             
             
                   
                  
                
             
             
                
                   Follow UofM Online 
                     UofM Facebook     UofM Twitter     UofM YouTube   
                    
                   
                     UofM Instagram     UofM Pinterest     UofM LinkedIn   
                
             
              
                   
                      
                   
                
      
          
       
    
 
 
      
      
      
       
          
             
                
                   
                      
                         
                            
                               
                                 
                                 
                                  
  Print  
  Got a Question? Ask TOM  
  Copyright © 2017 University of Memphis  
  Important Notice  
                                  
                                 
                                 
                                  
                                     Last Updated: 11/14/17 
                                  
                                 
                                 
                                  
  University of Memphis  
 Memphis, TN 38152 
 Phone: 901.678.2000 
 
  
 The University of Memphis does not discriminate against students, employees, or applicants for admission or employment on the basis of race, color, religion, creed, national origin, sex, sexual orientation, gender identity/expression, disability, age, status as a protected veteran, genetic information, or any other legally protected class with respect to all employment, programs and activities sponsored by the University of Memphis. The Office for Institutional Equity has been designated to handle inquiries regarding non-discrimination policies. For more information, visit  University of Memphis Equal Opportunity and Affirmative Action .  
Title IX of the Education Amendments of 1972 protects people from discrimination based on sex in education programs or activities which receive Federal financial assistance. Title IX states: "No person in the United States shall, on the basis of sex, be excluded from participation in, be denied the benefits of, or be subjected to discrimination under any education program or activity receiving Federal financial assistance..." 20 U.S.C. § 1681 - To Learn More, visit  Title IX and Sexual Misconduct .
 
 
                                 
                                 
                                 
                               
                            
                         
                      
                   
                
             
          
       
    
   
   
   
   
   
   
 



 


