gretchen-peterson - Sociology - University of Memphis    










 
 
 
     



 
    
    
    gretchen-peterson - 
      	Sociology
      	 - University of Memphis
    
    
    
    
    
    
    
    
    
    
    
    
    
    
    
    
    
    
    
    
    
    
    
    
    
   
   
   






   
   
   
    
    
 
 
   
   
   
 
    
   
   
    
      
      
          
     
    
       
          
             
                
				    
					     
                   
      
                
                
                    
                
                
                   
                      
                         
                            
                               
                                   Lambuth Campus  
                                   myMemphis  
                                   Webmail  
                                   Faculty   Staff  
                                   Contact  
                                   Directories  
                               
                            
                            
                               Search 
                               
							   
							      
						 Site Index 
                            
                             
                         
                      
                   
                   
                      
                         
                            
                                Academics    
                                  
                                      Academics Overview  
                                      Colleges   Schools  
                                      Undergraduate Catalog  
                                      Graduate Catalog  
                                      Honors Program  
								      UofM Global  
                                  
                               
                                Admissions    
                                  
                                      Admissions Information  
                                      Undergraduate Students  
                                      Graduate Students  
                                      Law Students  
                                      International Students  
                                  
                               
                                Athletics    
                                  
                                      Tiger Athletics  
                                      Ticket Information  
                                      Intramurals  
                                      Make A Gift  
                                      Rec Center  
                                      gotigersgo.com  
                                  
                               
                                Research    
                                  
                                      Research   Sponsored Programs  
                                      Research Resources  
                                      Centers/Chairs of Excellence  

                                      Centers and Institutes  
									  FedEx Institute of Technology  
                                      electronic Research Administration (eRA)  
									  Office of Institutional Research  
                                  
                               
                                Support UofM    
                                  
                                      Development  
                                      Make a Gift  
                                      Alumni Association  
                                      Athletics Development  
                                  
                               
                                Libraries    
                                  
                                      University Libraries  
                                      Libraries Resources  
                                      Libraries Services  
                                      Special Collections  
                                      Ask a Librarian  
                                  
                               
                            
                         
                      
                   
                
             
             
                
                   
                      Resources for... 
                      
                          Prospective Students  
                          Current and Returning Students  
                          Parents  
                          Alumni  
                          Veterans  
                      
                       Expand Menu  
                   
				   			   
                
             
          
       
    
          
      
          
    
       
          
             
                
                   
                       
                           			Department of Sociology
                           	 
                           
                   
                
             
          
       
       
          
             
                
                   
                      
                          About Us  
                          People  
                          Research  
                          Undergraduate  
                          Graduate  
                          Resources  
                      
                      
                         
                            People   
                            
                               
                                  
                                   Faculty  
                                   Emeritus   Emerita Faculty  
                                   Advisors   Instructors  
                                   Staff  
                                   Graduate Students  
                               
                            
                         
                      
                   
                
             
          
          
             
                
                   
                      
                          Home  
                          
                              	Sociology
                              	  
                          
                              	People
                              	  
                         gretchen-peterson 
                      
                   
                   
                       
                      
                      
                        
                        	
                        
                        		  
                         
                           
                           
                            
                              
                              
                                                                   
                                 
                                 
                                  
                                 
                                 
                               
                              
                              
                               
                                 
                                  
                                    
                                    Gretchen Peterson
                                    
                                  
                                 
                                 
                                  
                                    
                                    Professor and Chair
                                    
                                  
                                 
                                 
                                  
                                    
                                     
                                       
                                        Phone 
                                       
                                        
                                          
                                          (901) 678-2241
                                          
                                        
                                       
                                     
                                    
                                     
                                       
                                        Email 
                                       
                                         gpterson@memphis.edu  
                                       
                                     
                                    
                                     
                                       
                                        Fax 
                                       
                                        
                                          
                                          (901) 678-2525
                                          
                                        
                                       
                                     
                                    
                                  
                                 
                                 
                                  
                                    
                                     
                                       
                                        Office 
                                       
                                        
                                          
                                          231 Clement Hall.
                                          
                                        
                                       
                                     
                                    
                                     
                                       
                                        Office Hours 
                                       
                                        
                                          
                                          
                                          
                                        
                                       
                                     
                                    
                                  
                                 
                                 
                                  
                                    										
                                    
                                     Website / CV 
                                                                            
                                    
                                  
                                 
                               
                              
                              
                            
                           			 
                           			  
                           
                           
                            Gretchen Peterson is a Professor of Sociology and is currently serving as the Department
                              Chair for the Sociology Department. She received her Ph.D. from the University of
                              Arizona in 2000.
                            
                           
                            Prof. Peterson's primary research interests are in the areas of sociology of sports
                              and social psychology. She is particularly interested in the intersection of those
                              two areas and also has specific interests in the sociology of emotions and the sociology
                              of gender. She utilizes a variety of research methods in her studies including experiments,
                              surveys, and ethnographic fieldwork. Her current research agenda focuses on adult
                              recreational sports, particularly softball.
                            
                           
                            Prof. Peterson's research has been published in  American Sociological Review ,  American Journal of Sociology ,  Sociology Compass , and the  Handbook of the Sociology of Emotions .
                            
                           
                            Prof. Peterson has broad teaching interests that include sports, gender, social psychology,
                              and research methods. She is interested in connecting her teaching with community
                              engagement.
                            
                           
                           
                         
                        								
                        
                        
                        
                        
                        	
                      
                      
                   
                
                
                   
                      
                         People 
                         
                            
                               
                                Faculty  
                                Emeritus   Emerita Faculty  
                                Advisors   Instructors  
                                Staff  
                                Graduate Students  
                            
                         
                      
                      
                      
                         
                            
                                Community Out of Chaos  
                               "portray the idea of chaos to community in Memphis." 
                            
                            
                                Online B.A.  
                               Want to pursue your college degree and manage your busy lifestyle? Experience online
                                 classes at the UofM.
                               
                            
                            
                                Contact Us  
                               Main Office Contacts and Location 
                            
                         
                      
                   
                   
                
                
             
             
          
          
       
    
    
    
      
      
       
 
    
       
          
             
                 Full sitemap   
             
             
                
                   
                      Admissions 
                      
                         
                             Prospective Students  
                             Undergraduate  
                             Graduate  
                             Law School  
                             International  
                             Parents  
                             Scholarship   Financial Aid  
                             Tuition   Fee Payment  
                             FAQs  
                             About UofM  
                         
                      
                   
                   
                      Academics 
                      
                         
                             Provost's Office  
                             Libraries  
                             Transcripts  
                             Undergraduate Catalog  
                             Graduate Catalog  
                             Academic Calendars  
                             Course Schedule  
                             Financial Aid  
                             Graduation  
                             Honors Program  
						     eCourseware  
                         
                      
                   
                   
                      Athletics 
                      
                         
                             Gotigersgo.com  
                             Ticket Information  
                             Intramural Sports  
                             Recreation Center  
                             Athletic Academic Support  
                             Former Tigers  
                             Facilities  
                             Tiger Scholarship Fund  
                             Media  
                         
                      
                   
				    
                   
                      Research 
                      
                         
                             Sponsored Programs  
                             Research Resources  
                             Centers   Institutes  
                             Chairs of Excellence  
                             FedEx Institute of Technology  
                             Libraries  
                             Grants Accounting  
                             Environmental Health  
                             Office of Institutional Research  
                         
                      
                   
                   
                      Support UofM 
                      
                         
                             Make a Gift  
                             Alumni Association  
                             Year of Service  
                         
                      
                   
                   
                      Administrative Support 
                      
                         
                             President's Office  
                             Academic Affairs  
                             Business   Finance  
                             Career Opportunities  
                             Conference   Event Services  
                             Corporate Partnerships  
  Development Office  
                             Government Relations  
                             Information Technology Services  
                             Media and Marketing  
                             Student Affairs  
                         
                      
                   
                
             
          
          
             
				    
                  
                
             
             
                   
                  
                
             
             
                
                   Follow UofM Online 
                     UofM Facebook     UofM Twitter     UofM YouTube   
                    
                   
                     UofM Instagram     UofM Pinterest     UofM LinkedIn   
                
             
              
                   
                      
                   
                
      
          
       
    
 
 
      
      
      
       
          
             
                
                   
                      
                         
                            
                               
                                 
                                 
                                  
  Print  
  Got a Question? Ask TOM  
  Copyright © 2017 University of Memphis  
  Important Notice  
                                  
                                 
                                 
                                  
                                     Last Updated: 11/6/17 
                                  
                                 
                                 
                                  
  University of Memphis  
 Memphis, TN 38152 
 Phone: 901.678.2000 
 
  
 The University of Memphis does not discriminate against students, employees, or applicants for admission or employment on the basis of race, color, religion, creed, national origin, sex, sexual orientation, gender identity/expression, disability, age, status as a protected veteran, genetic information, or any other legally protected class with respect to all employment, programs and activities sponsored by the University of Memphis. The Office for Institutional Equity has been designated to handle inquiries regarding non-discrimination policies. For more information, visit  University of Memphis Equal Opportunity and Affirmative Action .  
Title IX of the Education Amendments of 1972 protects people from discrimination based on sex in education programs or activities which receive Federal financial assistance. Title IX states: "No person in the United States shall, on the basis of sex, be excluded from participation in, be denied the benefits of, or be subjected to discrimination under any education program or activity receiving Federal financial assistance..." 20 U.S.C. § 1681 - To Learn More, visit  Title IX and Sexual Misconduct .
 
 
                                 
                                 
                                 
                               
                            
                         
                      
                   
                
             
          
       
    
   
   
   
   
   
   
 



 


