Institute for Health Law &amp; Policy - School of Law - University of Memphis  Institute for Health Law &amp; Policy  










 
 
 
     



 
    
    
    Institute for Health Law   Policy - 
      	School of Law 
      	 - University of Memphis
    
    
    
    
    
    
    
    
    
    
    
    
    
    
    
    
    
    
    
    
    
    
    
    
    
   
   
   






   
   
   
    
    
    
    
    
    
    
    
    
    
    
    
    
    
    
    
    
 
 
   
   
   
   
 
    
   
   
    
      
      
          
     
    
       
          
             
                
				    
					     
                   
      
                
                
                    
                
                
                   
                      
                         
                            
                               
                                   Lambuth Campus  
                                   myMemphis  
                                   Webmail  
                                   Faculty   Staff  
                                   Contact  
                                   Directories  
                               
                            
                            
                               Search 
                               
							   
							      
						 Site Index 
                            
                             
                         
                      
                   
                   
                      
                         
                            
                                Academics    
                                  
                                      Academics Overview  
                                      Colleges   Schools  
                                      Undergraduate Catalog  
                                      Graduate Catalog  
                                      Honors Program  
								      UofM Global  
                                  
                               
                                Admissions    
                                  
                                      Admissions Information  
                                      Undergraduate Students  
                                      Graduate Students  
                                      Law Students  
                                      International Students  
                                  
                               
                                Athletics    
                                  
                                      Tiger Athletics  
                                      Ticket Information  
                                      Intramurals  
                                      Make A Gift  
                                      Rec Center  
                                      gotigersgo.com  
                                  
                               
                                Research    
                                  
                                      Research   Sponsored Programs  
                                      Research Resources  
                                      Centers/Chairs of Excellence  

                                      Centers and Institutes  
									  FedEx Institute of Technology  
                                      electronic Research Administration (eRA)  
									  Office of Institutional Research  
                                  
                               
                                Support UofM    
                                  
                                      Development  
                                      Make a Gift  
                                      Alumni Association  
                                      Athletics Development  
                                  
                               
                                Libraries    
                                  
                                      University Libraries  
                                      Libraries Resources  
                                      Libraries Services  
                                      Special Collections  
                                      Ask a Librarian  
                                  
                               
                            
                         
                      
                   
                
             
             
                
                   
                      Resources for... 
                      
                          Prospective Students  
                          Current and Returning Students  
                          Parents  
                          Alumni  
                          Veterans  
                      
                       Expand Menu  
                   
				   			   
                
             
          
       
    
          
      
          
    
       
          
             
                
                   
                       
                           			Cecil C. Humphreys School of Law
                           	 
                           
                   
                
             
          
       
       
          
             
                
                   
                      
                          About  
                          Admissions  
                          Programs  
                          Current Students  
                          Faculty  
                          Careers  
                          Library  
                      
                      
                         
                            Programs   
                            
                               
                                  
                                   Degree Programs  
                                         JD  
                                         JD/MBA  
                                         JD/MA in Pol. Science  
                                         JD/MPH  
                                         MPH Fast-Track  
                                         Part-time Program  
                                     
                                  
                                   Certificate Programs  
                                         Advocacy  
                                         Business Law  
                                         Health Law  
                                         Tax Law  
                                     
                                  
                                   Experiential Learning  
                                         Experiential Learning Home  
                                         Legal Clinics  
                                         Externship Program  
                                     
                                  
                                   Law Review  
                                         Law Review Home  
                                         Editorial Board  
                                         Editor-in-Chief  
                                         Joining Law Review  
                                         Virtual Tour of Law Review Suite  
                                         Symposium  
                                         Subscriptions  
                                         Archives  
                                         Current Volume  
                                         Connect with Us  
                                     
                                  
                                   Advocacy Program  
                                         Moot Court Board  
                                         Joining Moot Court Board  
                                         In-School Competitions  
                                         Travel Team Competitions  
                                         Past Champions  
                                     
                                  
                                   Inst. for Health Law   Policy  
                                        
                                         Institute Home   
                                        
                                         Advisory Committee  
                                        
                                         Symposium  
                                        
                                         Pro Bono Opportunities  
                                        
                                         Health Law Certificate  
                                        
                                         Health Law Society  
                                        
                                         MBA Health Law Section  
                                     
                                  
                                   International Law Programs  
                               
                            
                         
                      
                   
                
             
          
          
             
                
                   
                      
                          Home  
                          
                              	School of Law 
                              	  
                          
                              	Programs
                              	  
                         Institute for Health Law   Policy 
                      
                   
                   
                       
                      
                     
                     		
                     
                     
                        
                     
                      INSTITUTE FOR HEALTH LAW   POLICY 
                     
                      The mission of the Institute for Health Law   Policy covers three prongs: Education,
                        Scholarship, and Service. Each area is grounded by an overarching mission to use law
                        and policy to advance health.
                      
                     
                       Educational  goals focus on developing competencies and skills in law students for interdisciplinary,
                        client- and mission-driven practice via traditional coursework, externships and other
                        skills-based opportunities, and scholarship. Focus areas cover traditional health
                        law practice, as well as public health and health system policy and science/biotechnology.
                        Faculty have expertise in a diverse array of health law fields, and are also drawn
                        from the surrounding community – who bring a critical practice-based orientation to
                        education.
                      
                     
                       Scholarship  opportunities open up for students the possibility for self-directed and faculty-sponsored
                        research, both within and transcending the law school's boundaries, to include, for
                        example, collaboration with affiliated faculty with the School of Public Health and
                        the School of Nursing at the University of Memphis, and the University of Tennessee
                        Health Science Center.
                      
                     
                       Service  extends iHeLP's reach into the community, where the Institute endeavors to: address
                        unmet health law issues of local organizations and communities, host community forums
                        on health law and policy issues, and work with community leaders to proactively address
                        health policy needs.
                      
                     
                        DOWNLOAD THE FULL iHeLP INFORMATIVE PAMPHLET HERE   
                     
                      
                     
                      Health Law is constantly changing on the national, state, and local scale. Stay up
                        to date with the latest events, information and announcements by connecting with us
                        on social media. Like us! Follow us! Stay connected!
                      
                     
                      Health Law Society's Facebook Page:  www.facebook.com/HLSMemphis  
                     
                      MBA Health Law Section's Twitter:  @MBA_HealthLaw  
                     
                     
                     	
                      
                   
                
                
                   
                      
                         Programs 
                         
                            
                               
                                Degree Programs  
                                      JD  
                                      JD/MBA  
                                      JD/MA in Pol. Science  
                                      JD/MPH  
                                      MPH Fast-Track  
                                      Part-time Program  
                                  
                               
                                Certificate Programs  
                                      Advocacy  
                                      Business Law  
                                      Health Law  
                                      Tax Law  
                                  
                               
                                Experiential Learning  
                                      Experiential Learning Home  
                                      Legal Clinics  
                                      Externship Program  
                                  
                               
                                Law Review  
                                      Law Review Home  
                                      Editorial Board  
                                      Editor-in-Chief  
                                      Joining Law Review  
                                      Virtual Tour of Law Review Suite  
                                      Symposium  
                                      Subscriptions  
                                      Archives  
                                      Current Volume  
                                      Connect with Us  
                                  
                               
                                Advocacy Program  
                                      Moot Court Board  
                                      Joining Moot Court Board  
                                      In-School Competitions  
                                      Travel Team Competitions  
                                      Past Champions  
                                  
                               
                                Inst. for Health Law   Policy  
                                     
                                      Institute Home   
                                     
                                      Advisory Committee  
                                     
                                      Symposium  
                                     
                                      Pro Bono Opportunities  
                                     
                                      Health Law Certificate  
                                     
                                      Health Law Society  
                                     
                                      MBA Health Law Section  
                                  
                               
                                International Law Programs  
                            
                         
                      
                      
                      
                         
                            
                                Apply to Memphis Law  
                               Take the first step toward your legal education 
                            
                            
                                ABA Required Disclosures  
                               Information required by ABA Standard 509 Required Disclosures 
                            
                            
                                Alumni   Support  
                               Stay up to date with Memphis Law alumni 
                            
                            
                                Contact Us  
                               Questions about law school? We can help! 
                            
                         
                      
                      
                      
                   
                   
                
                
             
             
          
          
       
    
    
    
      
      
       
 
    
       
          
             
                 Full sitemap   
             
             
                
                   
                      Admissions 
                      
                         
                             Prospective Students  
                             Undergraduate  
                             Graduate  
                             Law School  
                             International  
                             Parents  
                             Scholarship   Financial Aid  
                             Tuition   Fee Payment  
                             FAQs  
                             About UofM  
                         
                      
                   
                   
                      Academics 
                      
                         
                             Provost's Office  
                             Libraries  
                             Transcripts  
                             Undergraduate Catalog  
                             Graduate Catalog  
                             Academic Calendars  
                             Course Schedule  
                             Financial Aid  
                             Graduation  
                             Honors Program  
						     eCourseware  
                         
                      
                   
                   
                      Athletics 
                      
                         
                             Gotigersgo.com  
                             Ticket Information  
                             Intramural Sports  
                             Recreation Center  
                             Athletic Academic Support  
                             Former Tigers  
                             Facilities  
                             Tiger Scholarship Fund  
                             Media  
                         
                      
                   
				    
                   
                      Research 
                      
                         
                             Sponsored Programs  
                             Research Resources  
                             Centers   Institutes  
                             Chairs of Excellence  
                             FedEx Institute of Technology  
                             Libraries  
                             Grants Accounting  
                             Environmental Health  
                             Office of Institutional Research  
                         
                      
                   
                   
                      Support UofM 
                      
                         
                             Make a Gift  
                             Alumni Association  
                             Year of Service  
                         
                      
                   
                   
                      Administrative Support 
                      
                         
                             President's Office  
                             Academic Affairs  
                             Business   Finance  
                             Career Opportunities  
                             Conference   Event Services  
                             Corporate Partnerships  
  Development Office  
                             Government Relations  
                             Information Technology Services  
                             Media and Marketing  
                             Student Affairs  
                         
                      
                   
                
             
          
          
             
				    
                  
                
             
             
                   
                  
                
             
             
                
                   Follow UofM Online 
                     UofM Facebook     UofM Twitter     UofM YouTube   
                    
                   
                     UofM Instagram     UofM Pinterest     UofM LinkedIn   
                
             
              
                   
                      
                   
                
      
          
       
    
 
 
      
      
      
       
          
             
                
                   
                      
                         
                            
                               
                                 
                                 
                                  
  Print  
  Got a Question? Ask TOM  
  Copyright © 2017 University of Memphis  
  Important Notice  
                                  
                                 
                                 
                                  
                                     Last Updated: 12/11/17 
                                  
                                 
                                 
                                  
  University of Memphis  
 Memphis, TN 38152 
 Phone: 901.678.2000 
 
  
 The University of Memphis does not discriminate against students, employees, or applicants for admission or employment on the basis of race, color, religion, creed, national origin, sex, sexual orientation, gender identity/expression, disability, age, status as a protected veteran, genetic information, or any other legally protected class with respect to all employment, programs and activities sponsored by the University of Memphis. The Office for Institutional Equity has been designated to handle inquiries regarding non-discrimination policies. For more information, visit  University of Memphis Equal Opportunity and Affirmative Action .  
Title IX of the Education Amendments of 1972 protects people from discrimination based on sex in education programs or activities which receive Federal financial assistance. Title IX states: "No person in the United States shall, on the basis of sex, be excluded from participation in, be denied the benefits of, or be subjected to discrimination under any education program or activity receiving Federal financial assistance..." 20 U.S.C. § 1681 - To Learn More, visit  Title IX and Sexual Misconduct .
 
 
                                 
                                 
                                 
                               
                            
                         
                      
                   
                
             
          
       
    
   
   
   
   
   
   
 



 


