Understanding the Producer tool | Desire2Learn Resource Center   
 
 
 
 
   
 
 
 
 
 
 
 
 
 
 
 
 
 
 
 Understanding the Producer tool | Desire2Learn Resource Center 






 

 
 
 
 
 

 

 

 





 
 
 
   
     Skip to main content 
   
     
   

           
         
              
       Main menu 
  
     Home    Accessibility    Capture    ePortfolio    Ideas Library    Insights    Integrations    Learning Environment    Learning Repository   
             
       
    
     
       

         

                       

                               
                                      
              
                               

                                        Desire2Learn Resource Center  
                  
                  
                 
              
             
          
                
       Select your language 
  
      
   العربية  English  Português  Español  Français  
 
 
 
 
 
 
 
 
 
 
   
      
         

       
     

    
    
    
     
       

         
           

             
               

                
                 

                  
                   
                     

                      
                       You are here    Home    »    Capture    »    Editing in post-production   
                      
                      
                      
                      
                       
                           
  
   
   

    
               

                   
                          Understanding the Producer tool                       
        
        
       
        
     
              
	The Producer tool enables you to make simple edits to published CaptureCast presentations. You can cut segments from audio or video files, add or remove chapters, insert files, manage slides, and include closed captioning subtitles.
 

 
	 Tip If you do not want users to see unedited presentations after they are published, create a password-protected folder and save presentations there. When you are done editing, you can move the presentations into a public folder.
 

 
	  

 
	Producer tool
 


     Audience:     Instructor       

    
           

                   ‹ Editing in post-production 
        
                   up 
        
                   Accessing Producer › 
        
       
    
   
     

              Printer-friendly version    
    
    
   
 

                          

                      
                     
                   

                 

                      
  
    
	    Copyright © 1999-2013 Desire2Learn Incorporated. All rights reserved.
 
 
      
               
             

                  
        Capture  
  
      Participating in CaptureCast presentations    Understanding Capture components    Using Capture    Capture Station    Editing in post-production    Understanding the Producer tool    Accessing Producer    Loading a presentation from revision history in the Producer tool    Editing audio and video    Editing slides    Editing chapters    Adding captions    Adding closed captions with the Producer tool    Requesting captions from CaptionSync    Creating and adding SRT files      Understanding Capture Toolbox    Capture Central in Learning Environment    
                  
           
         

       
     

    
    
    
   
 
   
 
