Creating collections | Desire2Learn Resource Center   
 
 
 
 
   
 
 
 
 
 
 
 
 
 
 
 
 
 
 
 Creating collections | Desire2Learn Resource Center 






 

 
 
 
 
 

 

 

 





 
 
 
   
     Skip to main content 
   
     
   

           
         
              
       Main menu 
  
     Home    Accessibility    Capture    ePortfolio    Ideas Library    Insights    Integrations    Learning Environment    Learning Repository   
             
       
    
     
       

         

                       

                               
                                      
              
                               

                                        Desire2Learn Resource Center  
                  
                  
                 
              
             
          
                
       Select your language 
  
      
   English  Português  Español  Français  
 
 
 
 
 
 
 
 
 
   
      
         

       
     

    
    
    
     
       

         
           

             
               

                
                 

                  
                   
                     

                      
                       You are here    Home    »    ePortfolio   
                      
                      
                      
                      
                       
                           
  
   
   

    
               

                   
                          Creating collections                       
        
        
       
        
     
            Audience:     Learner       

       Creating a new collection    Adding items to a collection   
           

                   ‹ Inserting links to presentation pages in content areas 
        
                   up 
        
                   Creating a new collection › 
        
       
    
   
     

              Printer-friendly version    
    
    
   
 

                          

                      
                     
                   

                 

                      
  
    
	    Copyright © 1999-2013 Desire2Learn Incorporated. All rights reserved.
 
 
      
               
             

                  
        ePortfolio  
  
      Understanding the main pages of ePortfolio    Adding artifacts    Using reflections    Creating presentations    Creating collections    Creating a new collection    Adding items to a collection      Understanding assessment types in ePortfolio    Understanding the basic concepts in sharing    Importing and exporting items    Sharing items within courses    Using form templates    Integrating ePortfolio with Content     Assessing ePortfolio content    
                  
           
         

       
     

    
    
    
   
 
   
 
