University of Memphis | Off Campus Housing Search | Registration | Property Manager Find Off-Campus housing and roommates near U of M. Log in as a student, guest or property manager to get started.  
 
 
 
     
 
	 

	 University of Memphis | Off Campus Housing Search | Registration | Property Manager 
     
     

	 
		 

	 
	 
	 
	 
	 
	 

	 
	 

	 
	 
     
	 
	 
	 
	 

    
	
	




 

 

	 Skip to main 


	



	 

		 
			 
	 

		  University of Memphis   Off-Campus Housing 
			 
 
			 
				 
					   Menu 
				 
			 
		 

		 
		
 
     
         
             
                 
                 
                     
                        Home
                     
                 

             
            


     
         
            Housing         

        
             
            
        
     



     
         
            Roommates
         
     

     
         
            Message Boards         
     


     
         
            Resources
         
     


 
     Help 
 

             
         
     

     
	 
			  Sign Up  
		  Log In  
		 
 

 

		 
		
		 
			
 
	 
		  Registration: Individuals/Private Owners 		 Already have an account?  Log in here  	 
 
	 You must enable cookies to use this site. For help, read our guide on  How to Enable Third-party Cookies  . If cookies are enabled and you are still unable to log in, please try our  alternate url  or contact us. 





 
	 
	 
		 Subscription Type 
		 
		 
			 
				 
				Regular Subscription
			 

            
			 Allows you to create property listing with a text description, 3 images, an e-mail link, map location, and amenity list. Listing will be included in our searchable database. 
		 
		 
             
                 
            Featured Listing Subscription
             
			 In addition to the Regular Subscription services, this subscription allows you up to 6 images and moves your listing above Regular Subscription listings in search results. 
		 
	 
	 
		 
             units for rent 
            			 How many units do you have for rent? 
			 
				 
					 1											 
					 2											 
					 3											 
					 4											 
					 5											 
					 6											 
					 7											 
					 8											 
					 9											 
				 
			 
		 
         
             Preview a Listing 
             Curious about how your property listing might appear?  View this sample listing . 
               
         

		 
		 
		 
		 
		 
		 
		 
		 
		 
	 
 
	 Additional Schools 
	 Would you like to post your listing at other school sites? 

	 Your listing(s) will appear in search results at the checked schools, below. 

		
		 Savings with additional schools 
		 
		  60% off  2nd additional site 		 
		
		 
				 
					 
						 
					The University of Tennessee Health Science Center										  Visit       
									 
				 
            		 


 

	 

		 Subscription Cost:      

		Subscription length: 1 year
	 
	 
 
		 

	  

	 
		 
			 
			  									 
				  Privacy Policy  
				  Disclaimer  
                  Sitemap  
				  Contact Us  
							 
			 Copyright   2017 Off Campus Partners, LLC. All rights reserved. 
		   
         
         
     
             
 
	 



	 



	
	
		

	
	



 
 
