Sign in to your account  

 
 
 
     Sign in to your account 
     
     
     
     
     
     
     
     
     

    
         
    
 
 



    

    
     

    


    

    


 

 
    
 
 