University of Memphis | Off Campus Housing Search | Disclaimer Find Off-Campus housing and roommates near U of M. Log in as a student, guest or property manager to get started.  
 
 
 
     
 
	 

	 University of Memphis | Off Campus Housing Search | Disclaimer 
     
     

	 
		 

	 
	 
	 
	 
	 
	 

	 
	 

	 
	 
     
	 
	 
	 
	 

    
	
	




 

 

	 Skip to main 


	



	 

		 
			 
	 

		  University of Memphis   Off-Campus Housing 
			 
 
			 
				 
					   Menu 
				 
			 
		 

		 
		
 
     
         
             
                 
                 
                     
                        Home
                     
                 

             
            


     
         
            Housing         

        
             
            
        
     



     
         
            Roommates
         
     

     
         
            Message Boards         
     


     
         
            Resources
         
     


 
     Help 
 

             
         
     

     
	 
			  Sign Up  
		  Log In  
		 
	 
		 Sign up to add a listing! 	 
	
 

 

		 
		
		 
			 
	 
		  Disclaimer  
	 
 
 
	The listing of rental units on this site is a service to local rental property owners and University of Memphis students, faculty, and staff.  Rental property owners are responsible for reporting information fairly and accurately, and the University of Memphis and Off Campus Partners cannot guarantee the completeness or accuracy of such information.  Inclusion of any property or rental unit on this website does not constitute, and shall not be construed or reported as (1) an endorsement or approval by the University of Memphis or Off Campus Partners of the landlord, its properties, or its business practices, or (2) a warranty or representation by the University of Memphis or Off Campus Partners as to the equality, safety or other features of such property and/or its owners or management agent(s).  The University of Memphis and Off Campus Partners expressly disclaim any and all responsibility for any problems that may arise with regard to such property or rental units or with regard to disputes between landlords and tenants concerning such property or rental units.  All prospective tenants are encouraged to exercise their own good judgment when evaluating a prospective rental unit or landlord. 		 

	  

	 
		 
			 
			  									 
				  Privacy Policy  
				  Disclaimer  
                  Sitemap  
				  Contact Us  
							 
			 Copyright   2017 Off Campus Partners, LLC. All rights reserved. 
		   
         
         
     
             
 
	 



	 



	
	
		

	



 
 
