University Statement Concerning Deferred Action for Childhood Arrivals (DACA) - Office of the President - University of Memphis    










 
 
 
     



 
    
    
    University Statement Concerning Deferred Action for Childhood Arrivals (DACA) - 
      	Office of the President
      	 - University of Memphis
    
    
    
    
    
    
    
    
    
    
    
    
    
    
    
    
    
    
    
    
    
    
    
    
    
   
   
   






   
   
   
    
    
    
    
    
    
    
    
    
    
    
    
    
    
    
    
    
    
 
 
   
   
   
   
 
    
   
   
    
      
      
          
     
    
       
          
             
                
				    
					     
                   
      
                
                
                    
                
                
                   
                      
                         
                            
                               
                                   Lambuth Campus  
                                   myMemphis  
                                   Webmail  
                                   Faculty   Staff  
                                   Contact  
                                   Directories  
                               
                            
                            
                               Search 
                               
							   
							      
						 Site Index 
                            
                             
                         
                      
                   
                   
                      
                         
                            
                                Academics    
                                  
                                      Academics Overview  
                                      Colleges   Schools  
                                      Undergraduate Catalog  
                                      Graduate Catalog  
                                      Honors Program  
								      UofM Global  
                                  
                               
                                Admissions    
                                  
                                      Admissions Information  
                                      Undergraduate Students  
                                      Graduate Students  
                                      Law Students  
                                      International Students  
                                  
                               
                                Athletics    
                                  
                                      Tiger Athletics  
                                      Ticket Information  
                                      Intramurals  
                                      Make A Gift  
                                      Rec Center  
                                      gotigersgo.com  
                                  
                               
                                Research    
                                  
                                      Research   Sponsored Programs  
                                      Research Resources  
                                      Centers/Chairs of Excellence  

                                      Centers and Institutes  
									  FedEx Institute of Technology  
                                      electronic Research Administration (eRA)  
									  Office of Institutional Research  
                                  
                               
                                Support UofM    
                                  
                                      Development  
                                      Make a Gift  
                                      Alumni Association  
                                      Athletics Development  
                                  
                               
                                Libraries    
                                  
                                      University Libraries  
                                      Libraries Resources  
                                      Libraries Services  
                                      Special Collections  
                                      Ask a Librarian  
                                  
                               
                            
                         
                      
                   
                
             
             
                
                   
                      Resources for... 
                      
                          Prospective Students  
                          Current and Returning Students  
                          Parents  
                          Alumni  
                          Veterans  
                      
                       Expand Menu  
                   
				   			   
                
             
          
       
    
          
      
          
    
       
          
             
                
                   
                       
                           			Office of the President
                           	 
                          
                   
                
             
          
       
       
          
             
                
                   
                      
                          About  
                          Mission and Plan  
                          Communications  
                          Leadership  
                          Contact  
                      
                      
                         
                            Communications from the President's Office   
                            
                               
                                  
                                   President's Report  
                               
                            
                         
                      
                   
                
             
          
          
             
                
                   
                      
                          Home  
                          
                              	Office of the President
                              	  
                          
                              	Communications
                              	  
                         University Statement Concerning Deferred Action for Childhood Arrivals (DACA) 
                      
                   
                   
                       
                      
                     
                     		
                     
                     
                      Dear Campus Community: 
                     
                      Given President Trump’s decision to rescind the Deferred Action for Childhood Arrivals
                        (DACA) program, commonly referred to as “dreamers,” please know that our University
                        stands ready to support all UofM students affected by this shift in U.S. policy. Rest
                        assured that the American dream is alive and well at the University of Memphis, and
                        we will be working with our representatives in the U.S. Congress and Senate to make
                        sure our voices are heard on an issue so critical to the future of our country and
                        University. We are also working with the Association of Public and Land Grant Universities
                        (APLU) to address our concerns about this policy shift that directly impacts some
                        of our students. We will be hosting a meeting addressing this policy shift in the
                        next few weeks; please stay tuned for details regarding date and time. We will also
                        provide periodic updates over the course of the next six months as Congress takes
                        action.
                      
                     
                      I have had the distinct pleasure of meeting many of our students potentially impacted
                        by this policy change. I can say without hesitation that they are remarkable young
                        men and women. As with many of our students, their journey to the UofM has not been
                        an easy one, and the road ahead promises serious challenges. They should know that
                        they are not alone, as we will be working through our elected officials to support
                        their argument that not only do they belong on our campus, but they are making significant
                        contributions to our campus, our community and our country. The United States is an
                        immigrant nation, a country fueled by the creativity, energy and entrepreneurial spirit
                        of people from around the globe. We will stand with our students, and we will work
                        with our elected officials to keep their American dream alive.
                      
                     
                      Regards, 
                     
                      M. David Rudd  President  Distinguished University Professor
                      
                     
                     
                     	
                      
                   
                
                
                   
                      
                         Communications from the President's Office 
                         
                            
                               
                                President's Report  
                            
                         
                      
                      
                      
                         
                            
                                Dashboard  
                               UofM steps towards success 
                            
                            
                                FOCUS Act  
                               Independent Governing Board Updates 
                            
                            
                                President's Blog  
                               News, stories, videos and more 
                            
                         
                      
                      
                      
                   
                   
                
                
             
             
          
          
       
    
    
    
      
      
       
 
    
       
          
             
                 Full sitemap   
             
             
                
                   
                      Admissions 
                      
                         
                             Prospective Students  
                             Undergraduate  
                             Graduate  
                             Law School  
                             International  
                             Parents  
                             Scholarship   Financial Aid  
                             Tuition   Fee Payment  
                             FAQs  
                             About UofM  
                         
                      
                   
                   
                      Academics 
                      
                         
                             Provost's Office  
                             Libraries  
                             Transcripts  
                             Undergraduate Catalog  
                             Graduate Catalog  
                             Academic Calendars  
                             Course Schedule  
                             Financial Aid  
                             Graduation  
                             Honors Program  
						     eCourseware  
                         
                      
                   
                   
                      Athletics 
                      
                         
                             Gotigersgo.com  
                             Ticket Information  
                             Intramural Sports  
                             Recreation Center  
                             Athletic Academic Support  
                             Former Tigers  
                             Facilities  
                             Tiger Scholarship Fund  
                             Media  
                         
                      
                   
				    
                   
                      Research 
                      
                         
                             Sponsored Programs  
                             Research Resources  
                             Centers   Institutes  
                             Chairs of Excellence  
                             FedEx Institute of Technology  
                             Libraries  
                             Grants Accounting  
                             Environmental Health  
                             Office of Institutional Research  
                         
                      
                   
                   
                      Support UofM 
                      
                         
                             Make a Gift  
                             Alumni Association  
                             Year of Service  
                         
                      
                   
                   
                      Administrative Support 
                      
                         
                             President's Office  
                             Academic Affairs  
                             Business   Finance  
                             Career Opportunities  
                             Conference   Event Services  
                             Corporate Partnerships  
  Development Office  
                             Government Relations  
                             Information Technology Services  
                             Media and Marketing  
                             Student Affairs  
                         
                      
                   
                
             
          
          
             
				    
                  
                
             
             
                   
                  
                
             
             
                
                   Follow UofM Online 
                     UofM Facebook     UofM Twitter     UofM YouTube   
                    
                   
                     UofM Instagram     UofM Pinterest     UofM LinkedIn   
                
             
              
                   
                      
                   
                
      
          
       
    
 
 
      
      
      
       
          
             
                
                   
                      
                         
                            
                               
                                 
                                 
                                  
  Print  
  Got a Question? Ask TOM  
  Copyright © 2017 University of Memphis  
  Important Notice  
                                  
                                 
                                 
                                  
                                     Last Updated: 11/4/17 
                                  
                                 
                                 
                                  
  University of Memphis  
 Memphis, TN 38152 
 Phone: 901.678.2000 
 
  
 The University of Memphis does not discriminate against students, employees, or applicants for admission or employment on the basis of race, color, religion, creed, national origin, sex, sexual orientation, gender identity/expression, disability, age, status as a protected veteran, genetic information, or any other legally protected class with respect to all employment, programs and activities sponsored by the University of Memphis. The Office for Institutional Equity has been designated to handle inquiries regarding non-discrimination policies. For more information, visit  University of Memphis Equal Opportunity and Affirmative Action .  
Title IX of the Education Amendments of 1972 protects people from discrimination based on sex in education programs or activities which receive Federal financial assistance. Title IX states: "No person in the United States shall, on the basis of sex, be excluded from participation in, be denied the benefits of, or be subjected to discrimination under any education program or activity receiving Federal financial assistance..." 20 U.S.C. § 1681 - To Learn More, visit  Title IX and Sexual Misconduct .
 
 
                                 
                                 
                                 
                               
                            
                         
                      
                   
                
             
          
       
    
   
   
   
   
   
   
 



 


