Job Listings - Computer Science - University of Memphis    










 
 
 
     



 
    
    
    Job Listings - 
      	Computer Science
      	 - University of Memphis
    
    
    
    
    
    
    
    
    
    
    
    
    
    
    
    
    
    
    
    
    
    
    
    
    
   
   
   






   
   
   
    
    
 
 
   
   
   
   
 
    
   
   
    
      
      
          
     
    
       
          
             
                
				    
					     
                   
      
                
                
                    
                
                
                   
                      
                         
                            
                               
                                   Lambuth Campus  
                                   myMemphis  
                                   Webmail  
                                   Faculty   Staff  
                                   Contact  
                                   Directories  
                               
                            
                            
                               Search 
                               
							   
							      
						 Site Index 
                            
                             
                         
                      
                   
                   
                      
                         
                            
                                Academics    
                                  
                                      Academics Overview  
                                      Colleges   Schools  
                                      Undergraduate Catalog  
                                      Graduate Catalog  
                                      Honors Program  
								      UofM Global  
                                  
                               
                                Admissions    
                                  
                                      Admissions Information  
                                      Undergraduate Students  
                                      Graduate Students  
                                      Law Students  
                                      International Students  
                                  
                               
                                Athletics    
                                  
                                      Tiger Athletics  
                                      Ticket Information  
                                      Intramurals  
                                      Make A Gift  
                                      Rec Center  
                                      gotigersgo.com  
                                  
                               
                                Research    
                                  
                                      Research   Sponsored Programs  
                                      Research Resources  
                                      Centers/Chairs of Excellence  

                                      Centers and Institutes  
									  FedEx Institute of Technology  
                                      electronic Research Administration (eRA)  
									  Office of Institutional Research  
                                  
                               
                                Support UofM    
                                  
                                      Development  
                                      Make a Gift  
                                      Alumni Association  
                                      Athletics Development  
                                  
                               
                                Libraries    
                                  
                                      University Libraries  
                                      Libraries Resources  
                                      Libraries Services  
                                      Special Collections  
                                      Ask a Librarian  
                                  
                               
                            
                         
                      
                   
                
             
             
                
                   
                      Resources for... 
                      
                          Prospective Students  
                          Current and Returning Students  
                          Parents  
                          Alumni  
                          Veterans  
                      
                       Expand Menu  
                   
				   			   
                
             
          
       
    
          
      
          
    
       
          
             
                
                   
                       
                           			Department of Computer Science
                           	 
                          
                   
                
             
          
       
       
          
             
                
                   
                      
                          About  
                          News  
                          Future Students  
                          Current Students  
                          Research  
                          People  
                          Outreach  
                      
                      
                         
                            Career Opportunities   
                            
                               
                                  
                                   Internships  
                                   Past Interns  
                                   Job Listings  
                               
                            
                         
                      
                   
                
             
          
          
             
                
                   
                      
                          Home  
                          
                              	Computer Science
                              	  
                          
                              	Career Opportunities
                              	  
                         Job Listings 
                      
                   
                   
                       
                      
                     
                     		
                     
                     
                      Job Listings 
                     
                      These are job postings received by our faculty and staff. Additional job opportunities
                        may be available on the following sites:
                      
                     
                      
                        
                          TigerLink  
                        
                         
                        
                          AfterCollege career network  
                        
                      
                     
                      
                     
                      Assistant Professor, Department of Computer Science, University of Memphis 
                     
                      Posted on 2017-11-13 
                     
                      The Department is seeking candidates for multiple Assistant Professor positions to
                        begin in Fall 2018. Please see the posting  here .
                      
                     
                      
                     
                      SQL Server/.NET Developers, Sedgwick 
                     
                      Posted on 2017-11-10 
                     
                      Sedgwick is seeking SQL Server or .NET developers for entry-level positions. Please
                        inquire with Tung L. Dang at 901.415.6740 or  Tung.Dang@sedgwick.com .
                      
                     
                      
                     
                      Website Redesign Project, Tennessee Association for Behavior Analysts 
                     
                      Posted on 2017-11-09 
                     
                      The Tennessee Association for Behavior Analysis ( www.tennesseeaba.org ) is a non-profit professional organization for behavior analysts in Tennessee who
                        largely work with children and adults with autism and other developmental disabilities.
                        Our organization is looking to hire someone, possibly a student or students, who might
                        be able to help overhaul our website. On the front end we need things updated to be
                        more consumer friendly (we have lots of examples of other similar organizations as
                        templates – nothing terribly fancy but better organized and a cleaner appearance).
                        On the back end, we need to be able to more easily handle and export member information.
                        We are a small organization and do not have large funds, but we would be able to pay
                        up to $3000 for these services. We are looking to have at least the back end issues
                        resolved by around May 2018 to be prepared for our annual conference in October 2018.
                      
                     
                      If interested, please contact Dr. James Meindl at  jnmeindl@memphis.edu .
                      
                     
                      
                     
                      FedEx Summer Internships, Memphis, TN 
                     
                      Posted on 2017-10-27 
                     
                      FedEx is now accepting applications for their Summer Internship Program. The program
                        is 10 weeks long, from early June to mid-August. Interns work with FedEx teams on
                        exciting and challenging technology projects.
                      
                     
                      To apply: 
                     
                      
                        
                         Go to  fedex.com/careers  
                        
                         Type "intern" in the "Search Jobs" bar. 
                        
                         Type "Memphis" in the "Location" bar. 
                        
                         Apply for the "Intern Information Technology" internship, or any other internship
                           opportunity that you see fit.
                         
                        
                      
                     
                      Interns are typically juniors or seniors, but sophomores can be considered as well.
                        For questions, please reach out to alumnus Herve Aniglo at  anigloherve15@gmail.com .
                      
                     
                      
                     
                      Amazon Future Engineer Summer Internship 
                     
                      Posted on 2017-10-25 
                     
                      Amazon has a new summer internship program for freshmen and sophomores in computer
                        science. There is specific priority on applicants who are women and underrepresented
                        minorities with an emphasis on long-term career development at Amazon (e.g. multiple
                        internships to full time, to promotion). The application is available on  Amazon's site .
                      
                     
                      For questions please reach out to Dr. Lauren D. Thomas, NSBE Region 3 Advisor, at
                         LThomas@nsbe.org , or Herve Aniglo at  anigloherve15@gmail.com .
                      
                     
                      
                     
                      Part-Time Intern/Programmer, Cagenix, Memphis, TN 
                     
                      Posted on 2017-10-18 
                     
                      Cagenix has some available project work for a college student. The requirements are
                        primarily Microsoft Access (automating tasks, reporting, and integration with other
                        MS Office products) and Visual Basic (making changes to a home grown VB application).
                        For questions or to apply, please contact CEO Daryl Newman at  dnewman@cagenix.com .
                      
                     
                      
                     
                      Android Developer, FedEx, Memphis, TN 
                     
                      Posted on 2017-10-18 
                     
                      Seeking an Android developer with experience in AngularJS and Cordova. For questions
                        or to apply, please contact Adeyemi Adebiyi (Paul), Project Manager, at  adeyemi.adebiyi.osv@fedex.com .
                      
                     
                      
                     
                      Python Programmer, Dev/Con Detect Ad Tech Security, Memphis, TN 
                     
                      Posted on 2017-08-25 
                     
                      Memphis-based Cyber Security start-up is looking to hire an entry level Python programmer.
                        Must have prior experience with Python and SQL. Knowledge of Django and web-scraping
                        is preferred but not required. Please email Josh Summitt at  jsummitt@devcondetect.com  to submit your resume.
                      
                     
                      
                     
                      Associate Support Engineer, CrossBrowserTesting / SmartBear, Germantown, TN 
                     
                      Posted on 2017-08-22 
                     
                      CrossBrowserTesting is seeking an entry-level Associate Support Engineer to join the
                        team. Support roles are highly technical and often lead to development work; hiring
                        directly into a developer position may be possible as well. This position can be full
                        or part-time (at least 25 hours per week).
                      
                     
                      For details and to apply, please see  https://smartbear.com/company/careers/opportunities/#op-174555-associate-support-engineer-crossbrowsertesting .
                      
                     
                      
                     
                      Full Stack Web Developers, Mozak, Memphis, TN 
                     
                      Posted on 2017-08-17 
                     
                       Mozak , a virtual assistant company that connects realtors with virtual assistants, is looking
                        for some skilled developers to help us ship out our first version of our product.
                        Skills needed include full stack JavaScript/ES6, experience with React Native or mobile
                        dev, and experience using REST APIs.
                      
                     
                      We’re currently not looking to hire full time since we’re very early stage, but candidates
                        will be compensated well for their work, and would certainly be in a strong position
                        to join our team. We’re currently getting revenue and would need to move quickly!
                      
                     
                      Email resumes and work samples to CTO Justin Jackson at  justin@mymozak.com . Please include JOB: Developer in your email subject.
                      
                     
                      
                     
                      Information Technology Services Intern, ALSAC/St. Jude, Memphis, TN 
                     
                      Posted on 2017-08-07 
                     
                      ALSAC/St. Jude is seeking ITS interns for Fall 2017. The deadline to apply is Friday,
                        August 11. Apply at the links below:
                      
                     
                      
                        
                          Paid internship  
                        
                          Unpaid internship (for academic credit)  
                        
                      
                     
                      
                     
                      Application Programmer, Monogram Food Solutions, Memphis, TN 
                     
                      Posted on 2017-07-19 
                     
                      Monogram Food Solutions is a privately held manufacturer and marketer of corn dogs,
                        beef and bacon jerky, precooked bacon, hot dogs, sausages, pet snacks, and frozen
                        appetizers. With the Company headquartered in Memphis, TN, Monogram operates six processing
                        plants employing over 2500 team members. A fast-growing organization, Monogram Foods
                        was recently recognized as a great place to work by the Memphis Business Journal.
                        Monogram Foods has also been recognized on INC Magazine’s annual list of America’s
                        fastest-growing private companies for the seventh consecutive year.
                      
                     
                      Position Overview: 
                     
                      Monogram Food Solutions is seeking an entry level application programmer to assist
                        in the development of applications and interfaces. Monogram has initiated an ERP implementation
                        project of the Dynamics D365 product. This position will be trained in the D365 development
                        and software lifecycle. Primary tasks will be associated with the D365 project and
                        other projects and initiatives key to Monogram’s growth strategy.
                      
                     
                      Successful candidates will have a strong foundation in application development and
                        reporting using a SQL Server architecture.
                      
                     
                      This position is based in Memphis and will report to the Manger of Development. 
                     
                      Ideal Candidates will have the following qualifications and experience: 
                     
                      
                        
                         Bachelor’s degree in Computer Science or Management Information System is required. 
                        
                         Exposure to application development principles and course work in programming design
                           and concepts.
                         
                        
                         Familiarity with the SQL language for databases and course work in database design. 
                        
                         Good working knowledge skills with Microsoft Office products. 
                        
                         Experience with Microsoft technologies to include Microsoft .NET technology; Microsoft
                           Visual Studio development system, Microsoft SQL Server Database and Administration,
                           Reporting Services, Analysis Services, Internet Information Server would be a plus.
                         
                        
                         Excellent English verbal and written communications skills. 
                        
                      
                     
                      Specific accountabilities and competencies include: 
                     
                      
                        
                         Creating, modifying and maintaining custom reports / report systems. 
                        
                         Creating, modifying and maintaining custom applications. 
                        
                         Ability to “thrive on challenges” and work to solve problems in a collaborative/consultative
                           fashion with IT resources.
                         
                        
                         Quick learner. 
                        
                         Follows procedures for good development practices and software development life cycle
                           methodologies throughout product development.
                         
                        
                         Participate in all aspects of the software development lifecycle including gathering
                           requirements, design, coding, testing, leading end user testing and deployment.
                         
                        
                         Work with key users and IT resources to define and complete work. 
                        
                         Participate in application development support activities including: Work with users at all levels in the organization.
                           
                            
                              
                               Issue escalation and prioritization 
                              
                               Setting a high standard of customer support 
                              
                               Understand issue root causes and implement preventative / corrective actions 
                              
                            
                           
                         
                        
                          
                        
                         Self-motivated with the ability to prioritize, meet deadlines, and manage changing
                           priorities.
                         
                        
                         Maintains a safe and secure work environment. 
                        
                      
                     
                      We offer a competitive benefit and compensation package. Please apply online at  www.monogramfoods.com/careers  
                     
                      For more information contact: Risa Stokes-Jones,  rjones@monogramfoods.com  
                     
                      
                     
                      SEO Specialist, Nahon, Saharovich and Trotz, Memphis, TN 
                     
                      Posted on 2017-07-11 
                     
                      Memphis law firm Nahon, Saharovich and Trotz is looking to hire a full-time search
                        engine optimization specialist. For details and to apply, see this  flyer .
                      
                     
                      
                     
                      Routing and Scheduling Engineers, Terminix 
                     
                      Posted on 2017-06-29 
                     
                      Terminix has openings for entry-level, full-time Routing and Scheduling Engineers
                        for STEM graduates including Computer Science.
                      
                     
                      Apply through the  TigerLink  system.
                      
                     
                      
                     
                      Software Developer, SandStorm IT, Atoka, TN 
                     
                      Posted on 2017-06-29 
                     
                       SandStorm IT  is seeking a software developer with 1-2 years experience, preferably in Ruby, Ruby
                        on Rails, PHP, Java, JavaScript, SQL.
                      
                     
                      To apply please send a resume to Josh Restuccio at  josh.restuccio@sandstormit.com .
                      
                     
                      
                     
                      Software Engineer, CoreLogic | FNC, Oxford, MS 
                     
                      Posted on 2017-06-26 
                     
                      Mortgage technology company CoreLogic | FNC is seeking a Software Engineer in their
                        Oxford, MS facility.
                      
                     
                      For details and to apply, see this  flyer .
                      
                     
                      
                     
                      Asst. Systems Manager, Office of Sylvia Ford Brown, Chapter 13 Trustee, Memphis, TN 
                     
                      Posted on 2017-06-09 
                     
                      The office of Sylvia Ford Brown, Chapter 13 Trustee, is seeking an experienced IT
                        Manager. For details please see this  flyer . Interested candidates should send a cover letter and resume to Brenda Dickerson
                        at  bdickerson@ch13sfb.com .
                      
                     
                      
                     
                      Sr. Front-End Engineer, ArtSquare, Nashville, TN 
                     
                      Posted on 2017-05-25 
                     
                      We're looking to hire a front-end developer with 2+ years of experience using React.js.
                        The job description and application can be found at  https://angel.co/artsquare-1/jobs/212481-senior-front-end-engineer .
                      
                     
                      
                     
                      Software Development Internships, MLGW, Memphis, TN 
                     
                      Posted on 2017-04-24 
                     
                      MLGW has software development internship opportunities for students with knowledge
                        of C++, Java, and/or Python. These positions are 20 hours/week during the Fall and
                        Spring semesters and can be full-time over the summer. Interns are paid $10-$16 per
                        hour, and preference is given to students who can work multiple semesters.  Other
                        benefits include access to a mentor, housing stipend, and paid holidays.
                      
                     
                      Interns must meet the following requirements: 
                     
                      
                        
                         Full-time student 
                        
                         Have completed at least one year of college 
                        
                         Have a driver's license from state of residence 
                        
                         Be authorized to work in the U.S. 
                        
                         Maintain a GPA of at least 2.5/4.0 
                        
                      
                     
                      To apply, submit a resume, transcript, and letter of recommendation to: 
                     
                      Memphis Light, Gas, and Water Division  Attn: Co-op Coordinator  P.O. Box 430 - TC/01  Memphis, TN 38101-0430
                      
                     
                      Or email  MLGWUniversity@mlgw.org . Application deadlines are June 1 for Fall interns, November 1 for Spring interns,
                        and March 1 for Summer interns.
                      
                     
                      
                     
                      Software Engineering Internship, RIB Software, Memphis, TN 
                     
                      Posted on 2017-03-30 
                     
                      For details see this  flyer .
                      
                     
                      Interested candidates can submit a resume and cover letter to Dan Drumea at  dan.drumea@rib-software.us , or apply through the U of M's TigerLink system.
                      
                     
                      
                     
                      Database Analyst, United Recovery and Remarketing, Memphis, TN 
                     
                      Posted on 2017-03-23 
                     
                      We are United, a 43-year old, privately-held Memphis-based service and logistics company
                        with the leading technology in our our industry. We have over 450 employees throughout
                        10 states and thanks to our growth, we have relocated to a large, new facility in
                        Collierville. Our goal as a company is to recruit the top talent and connect this
                        talent to our clients through the use of cutting-edge technology.
                      
                     
                      Due to expanding business, we are now seeking a Database Analyst. In this role, you
                        will be responsible for working with users and studying their requirements to aid
                        in developing platforms that are sleek and efficient, analyzing vast amounts of data
                        in order to properly implement systems to support our operations department, and conferring
                        with a team of software developers to create then retrieve information from a database
                        with a myriad of different variables. If you are interested in learning more about
                        human behavior and have a technical background then you are the right person for us.
                      
                     
                      We have a very relaxed, informal work atmosphere, and a family-friendly, daytime work
                        schedule. Our full-time employees may participate in major medical, dental, vision,
                        life and disability insurance plans, and a 401(k) Savings Plan with company match.
                        We also offer a competitive compensation package, paid time off and promotional opportunities.
                        By the way, we like to have a little fun at work, too!
                      
                     
                      Required Experience: 
                     
                      
                        
                         BA/BS degree in Computer Science or a similar technical field or equivalent practical
                           experience.
                         
                        
                         Coding experience in SQL, NoSQL, and other kinds of storage or database products or
                           technology.
                         
                        
                         Excellent written and verbal communication skills with the desire to share technical
                           knowledge and information with others including working directly with users and management.
                         
                        
                         Direct experience advocating or mentoring for new and existing technologies 
                        
                      
                     
                      Inquiries can be sent to Wesley Lackey, Recruiting Specialist, at (901) 379-5405 or
                         wlackey@unitedr2.com .
                      
                     
                      
                     
                      IT Analyst, Smith   Nephew 
                     
                      Posted on 2017-03-23 
                     
                      See  posting ; apply  here .
                      
                     
                      
                     
                      Software Specialist II, MLGW, Memphis, TN 
                     
                      Posted on 2017-03-21 
                     
                      MLGW has an opening for a Software Specialist II to assist with IT and programming
                        tasks. For details and to apply, please see this  posting . The posting closes on March 28.
                      
                     
                      
                     
                      Technology Teacher, Bits, Bytes, and Bots, Memphis, TN 
                     
                      Posted on 2017-03-17 
                     
                      If you enjoy working with children while teaching technology programs such as LEGO
                        robotics and video game creation, please contact David Hirschfeld at  memphis@bitsbytesbots.com . Salary is $20 per teaching hour. Must have dependable transportation and be able
                        to pass a background check.
                      
                     
                      
                     
                      Software Engineer Summer Internships, CoreLogic | FNC, Oxford, MS 
                     
                      Posted on 2017-03-16 
                     
                      CoreLogic | FNC has openings for software engineering internships. Details and application
                        available  here .
                      
                     
                      
                     
                      Front-End Web Developer, Propane Media, Collierville, TN 
                     
                      Posted on 2017-03-15 
                     
                      We are looking for an enthusiastic front-end developer to join the team full-time.
                        This position is for a mid-level Web Developer. Successful candidates must be able
                        to implement custom web designs on a WordPress platform, as well as provide coded
                        HTML and CSS for use on other platforms. This includes integration of 3rd party apps,
                        such as Facebook and Twitter.
                      
                     
                      Our ideal candidate is located in the Memphis, TN area and able to work at our Collierville
                        office. We are open to considering remote work for exceptional developers.
                      
                     
                      Skills   Requirements 
                     
                      
                        
                         *Must have experience:*
                           
                            
                              
                               WordPress theme development 
                              
                               PHP (general) 
                              
                               Responsive design 
                              
                               jQuery 
                              
                               CSS 
                              
                            
                           
                         
                        
                         *Nice to have experience:*
                           
                            
                              
                               Object-oriented PHP Framework (Laravel, Slim, etc.) 
                              
                               MySQL 
                              
                               Console (bash) 
                              
                               Version Control (Git) 
                              
                            
                           
                         
                        
                         *Exhibit interpersonal skills, such as:*
                           
                            
                              
                               Excellent written and oral communication skills (English) 
                              
                               Attention to detail 
                              
                               The ability to work independently, but also work well within a team environment 
                              
                            
                           
                         
                        
                      
                     
                      Interested candidates should contact Robert Smith at  robert@propanemedia.com .
                      
                      
                          
                     
                     
                     	
                      
                   
                
                
                   
                      
                         Career Opportunities 
                         
                            
                               
                                Internships  
                                Past Interns  
                                Job Listings  
                            
                         
                      
                      
                      
                         
                            
                                Career Paths  
                               Internship information and job postings for students 
                            
                            
                                Degree Programs  
                               Information on our degree and certificate programs 
                            
                            
                                Courses  
                               Recent syllabi for our courses 
                            
                            
                                Contact Us  
                               Whom to contact about what 
                            
                         
                      
                      
                      
                   
                   
                
                
             
             
          
          
       
    
    
    
      
      
       
 
    
       
          
             
                 Full sitemap   
             
             
                
                   
                      Admissions 
                      
                         
                             Prospective Students  
                             Undergraduate  
                             Graduate  
                             Law School  
                             International  
                             Parents  
                             Scholarship   Financial Aid  
                             Tuition   Fee Payment  
                             FAQs  
                             About UofM  
                         
                      
                   
                   
                      Academics 
                      
                         
                             Provost's Office  
                             Libraries  
                             Transcripts  
                             Undergraduate Catalog  
                             Graduate Catalog  
                             Academic Calendars  
                             Course Schedule  
                             Financial Aid  
                             Graduation  
                             Honors Program  
						     eCourseware  
                         
                      
                   
                   
                      Athletics 
                      
                         
                             Gotigersgo.com  
                             Ticket Information  
                             Intramural Sports  
                             Recreation Center  
                             Athletic Academic Support  
                             Former Tigers  
                             Facilities  
                             Tiger Scholarship Fund  
                             Media  
                         
                      
                   
				    
                   
                      Research 
                      
                         
                             Sponsored Programs  
                             Research Resources  
                             Centers   Institutes  
                             Chairs of Excellence  
                             FedEx Institute of Technology  
                             Libraries  
                             Grants Accounting  
                             Environmental Health  
                             Office of Institutional Research  
                         
                      
                   
                   
                      Support UofM 
                      
                         
                             Make a Gift  
                             Alumni Association  
                             Year of Service  
                         
                      
                   
                   
                      Administrative Support 
                      
                         
                             President's Office  
                             Academic Affairs  
                             Business   Finance  
                             Career Opportunities  
                             Conference   Event Services  
                             Corporate Partnerships  
  Development Office  
                             Government Relations  
                             Information Technology Services  
                             Media and Marketing  
                             Student Affairs  
                         
                      
                   
                
             
          
          
             
				    
                  
                
             
             
                   
                  
                
             
             
                
                   Follow UofM Online 
                     UofM Facebook     UofM Twitter     UofM YouTube   
                    
                   
                     UofM Instagram     UofM Pinterest     UofM LinkedIn   
                
             
              
                   
                      
                   
                
      
          
       
    
 
 
      
      
      
       
          
             
                
                   
                      
                         
                            
                               
                                 
                                 
                                  
  Print  
  Got a Question? Ask TOM  
  Copyright © 2017 University of Memphis  
  Important Notice  
                                  
                                 
                                 
                                  
                                     Last Updated: 12/7/17 
                                  
                                 
                                 
                                  
  University of Memphis  
 Memphis, TN 38152 
 Phone: 901.678.2000 
 
  
 The University of Memphis does not discriminate against students, employees, or applicants for admission or employment on the basis of race, color, religion, creed, national origin, sex, sexual orientation, gender identity/expression, disability, age, status as a protected veteran, genetic information, or any other legally protected class with respect to all employment, programs and activities sponsored by the University of Memphis. The Office for Institutional Equity has been designated to handle inquiries regarding non-discrimination policies. For more information, visit  University of Memphis Equal Opportunity and Affirmative Action .  
Title IX of the Education Amendments of 1972 protects people from discrimination based on sex in education programs or activities which receive Federal financial assistance. Title IX states: "No person in the United States shall, on the basis of sex, be excluded from participation in, be denied the benefits of, or be subjected to discrimination under any education program or activity receiving Federal financial assistance..." 20 U.S.C. § 1681 - To Learn More, visit  Title IX and Sexual Misconduct .
 
 
                                 
                                 
                                 
                               
                            
                         
                      
                   
                
             
          
       
    
   
   
   
   
   
   
 



 


