Service - Computer Science - University of Memphis    










 
 
 
     



 
    
    
    Service - 
      	Computer Science
      	 - University of Memphis
    
    
    
    
    
    
    
    
    
    
    
    
    
    
    
    
    
    
    
    
    
    
    
    
    
   
   
   






   
   
   
    
    
    
    
    
    
    
    
    
    
    
    
    
    
    
    
    
    
 
 
   
   
   
   
 
    
   
   
    
      
      
          
     
    
       
          
             
                
				    
					     
                   
      
                
                
                    
                
                
                   
                      
                         
                            
                               
                                   Lambuth Campus  
                                   myMemphis  
                                   Webmail  
                                   Faculty   Staff  
                                   Contact  
                                   Directories  
                               
                            
                            
                               Search 
                               
							   
							      
						 Site Index 
                            
                             
                         
                      
                   
                   
                      
                         
                            
                                Academics    
                                  
                                      Academics Overview  
                                      Colleges   Schools  
                                      Undergraduate Catalog  
                                      Graduate Catalog  
                                      Honors Program  
								      UofM Global  
                                  
                               
                                Admissions    
                                  
                                      Admissions Information  
                                      Undergraduate Students  
                                      Graduate Students  
                                      Law Students  
                                      International Students  
                                  
                               
                                Athletics    
                                  
                                      Tiger Athletics  
                                      Ticket Information  
                                      Intramurals  
                                      Make A Gift  
                                      Rec Center  
                                      gotigersgo.com  
                                  
                               
                                Research    
                                  
                                      Research   Sponsored Programs  
                                      Research Resources  
                                      Centers/Chairs of Excellence  

                                      Centers and Institutes  
									  FedEx Institute of Technology  
                                      electronic Research Administration (eRA)  
									  Office of Institutional Research  
                                  
                               
                                Support UofM    
                                  
                                      Development  
                                      Make a Gift  
                                      Alumni Association  
                                      Athletics Development  
                                  
                               
                                Libraries    
                                  
                                      University Libraries  
                                      Libraries Resources  
                                      Libraries Services  
                                      Special Collections  
                                      Ask a Librarian  
                                  
                               
                            
                         
                      
                   
                
             
             
                
                   
                      Resources for... 
                      
                          Prospective Students  
                          Current and Returning Students  
                          Parents  
                          Alumni  
                          Veterans  
                      
                       Expand Menu  
                   
				   			   
                
             
          
       
    
          
      
          
    
       
          
             
                
                   
                       
                           			Department of Computer Science
                           	 
                          
                   
                
             
          
       
       
          
             
                
                   
                      
                          About  
                          News  
                          Future Students  
                          Current Students  
                          Research  
                          People  
                          Outreach  
                      
                      
                         
                            About Dr. Sajjan Shiva   
                            
                               
                                  
                                   Profile  
                                   Teaching  
                                   Research Areas  
                                   Books   
                                   Publications  
                                   Service  
                               
                            
                         
                      
                   
                
             
          
          
             
                
                   
                      
                          Home  
                          
                              	Computer Science
                              	  
                          
                              	Sajjan G. Shiva
                              	  
                         Service 
                      
                   
                   
                       
                      
                     
                     		
                     
                     
                      Service 
                     
                      Professional Society Affiliations and Activities 
                     
                      Institute of Electrical and Electronic Engineers (IEEE): FELLOW since 1993 Served as: Chairman, Region 3, IEEE Computer Society Associate Editor, VLSI Technical Committee Newsletter Executive Committee Member of Huntsville Chapter of Computer Society Editor, IEEE Computer Society (Region 3) Area Newsletter ABET/ Computing Accreditation Commission Commissioner (since 2014) Program Evaluation Team Chairman (1993 - 1996) Program Evaluation Team Member (1990 – 1993, 2006 - present )
                      
                     
                      Educational Testing Service (ETS) Chair, Committee to revise CS Major Field Test, 2005-6.
                      
                     
                      DoD VHSIC Program Member of the VHDL Formulation Committee Member of the Proposal Review Board U. S. Army Strategic Defense Command Member of Architecture Description Language Committee
                      
                     
                      NSF/US Department of Education Member of Proposal Review Board American Society for Engineering Education Campus Activity Coordinator
                      
                     
                      International Conference on Global Software Engineering, 2010 Member, Program Committee Symposium on Microprocessors and Education Member of the Founding Organizing Committee Program Chairman Symposium on Artificial Intelligence (From Space ...Down to Earth) Member of the Founding Organizing Committee Program Chairman IEEE Rocket City Seminar Program Chairman ACM Computing Reviews Regular contributor ( More than 20 paper/ book reviews). Technical Reviewer IEEE Transactions on Computers IEEE Transactions on ASSP IEEE Computer Communications of ACM ACM Computing Reviews Simulation IEEE Design Automation Conference International Conference on Computer Hardware Description Languages International Conference on Parallel Processing International Symposium on Computer Architecture International Conference on Distributed Computing Systems American Society of Engineers from India Founding Member of Huntsville Chapter Board of Directors Program Chairman, 10th Annual National Convention
                      
                     
                     
                     	
                      
                   
                
                
                   
                      
                         About Dr. Sajjan Shiva 
                         
                            
                               
                                Profile  
                                Teaching  
                                Research Areas  
                                Books   
                                Publications  
                                Service  
                            
                         
                      
                      
                      
                         
                            
                                Career Paths  
                               Internship information and job postings for students 
                            
                            
                                Degree Programs  
                               Information on our degree and certificate programs 
                            
                            
                                Courses  
                               Recent syllabi for our courses 
                            
                            
                                Contact Us  
                               Whom to contact about what 
                            
                         
                      
                      
                      
                   
                   
                
                
             
             
          
          
       
    
    
    
      
      
       
 
    
       
          
             
                 Full sitemap   
             
             
                
                   
                      Admissions 
                      
                         
                             Prospective Students  
                             Undergraduate  
                             Graduate  
                             Law School  
                             International  
                             Parents  
                             Scholarship   Financial Aid  
                             Tuition   Fee Payment  
                             FAQs  
                             About UofM  
                         
                      
                   
                   
                      Academics 
                      
                         
                             Provost's Office  
                             Libraries  
                             Transcripts  
                             Undergraduate Catalog  
                             Graduate Catalog  
                             Academic Calendars  
                             Course Schedule  
                             Financial Aid  
                             Graduation  
                             Honors Program  
						     eCourseware  
                         
                      
                   
                   
                      Athletics 
                      
                         
                             Gotigersgo.com  
                             Ticket Information  
                             Intramural Sports  
                             Recreation Center  
                             Athletic Academic Support  
                             Former Tigers  
                             Facilities  
                             Tiger Scholarship Fund  
                             Media  
                         
                      
                   
				    
                   
                      Research 
                      
                         
                             Sponsored Programs  
                             Research Resources  
                             Centers   Institutes  
                             Chairs of Excellence  
                             FedEx Institute of Technology  
                             Libraries  
                             Grants Accounting  
                             Environmental Health  
                             Office of Institutional Research  
                         
                      
                   
                   
                      Support UofM 
                      
                         
                             Make a Gift  
                             Alumni Association  
                             Year of Service  
                         
                      
                   
                   
                      Administrative Support 
                      
                         
                             President's Office  
                             Academic Affairs  
                             Business   Finance  
                             Career Opportunities  
                             Conference   Event Services  
                             Corporate Partnerships  
  Development Office  
                             Government Relations  
                             Information Technology Services  
                             Media and Marketing  
                             Student Affairs  
                         
                      
                   
                
             
          
          
             
				    
                  
                
             
             
                   
                  
                
             
             
                
                   Follow UofM Online 
                     UofM Facebook     UofM Twitter     UofM YouTube   
                    
                   
                     UofM Instagram     UofM Pinterest     UofM LinkedIn   
                
             
              
                   
                      
                   
                
      
          
       
    
 
 
      
      
      
       
          
             
                
                   
                      
                         
                            
                               
                                 
                                 
                                  
  Print  
  Got a Question? Ask TOM  
  Copyright © 2017 University of Memphis  
  Important Notice  
                                  
                                 
                                 
                                  
                                     Last Updated: 12/11/17 
                                  
                                 
                                 
                                  
  University of Memphis  
 Memphis, TN 38152 
 Phone: 901.678.2000 
 
  
 The University of Memphis does not discriminate against students, employees, or applicants for admission or employment on the basis of race, color, religion, creed, national origin, sex, sexual orientation, gender identity/expression, disability, age, status as a protected veteran, genetic information, or any other legally protected class with respect to all employment, programs and activities sponsored by the University of Memphis. The Office for Institutional Equity has been designated to handle inquiries regarding non-discrimination policies. For more information, visit  University of Memphis Equal Opportunity and Affirmative Action .  
Title IX of the Education Amendments of 1972 protects people from discrimination based on sex in education programs or activities which receive Federal financial assistance. Title IX states: "No person in the United States shall, on the basis of sex, be excluded from participation in, be denied the benefits of, or be subjected to discrimination under any education program or activity receiving Federal financial assistance..." 20 U.S.C. § 1681 - To Learn More, visit  Title IX and Sexual Misconduct .
 
 
                                 
                                 
                                 
                               
                            
                         
                      
                   
                
             
          
       
    
   
   
   
   
   
   
 



 


