The University of Memphis - UofM - Prospective Students - University of Memphis  The University of Memphis, also called the UofM, is an American public research university located in the Normal Station neighborhood of Memphis, Tennessee. Founded in 1912, the university has an enrollment of more than 22,000 students.  










 
 
 
     



 
    
    
    The University of Memphis - UofM - 
      	Prospective Students
      	 - University of Memphis
    
    
    
    
    
    
    
    
    
    
    
    
    
    
    
    
    
    
    
    
    
    
    
    
    
   
   
   






   
   
   
    
    
    
    
    
    
    
    
    
    
    
    
    
    
    
    
    
    
 
 
   
   
   
   
 
    
   
   
    
      
      
       
 
		
		
     
 

 
     
    
       
          
             
                
				    
					       
                   
      
                
                
                    
                
                
                   
                      
                         
                            
                               
                                   Lambuth Campus  
                                   myMemphis  
                                   Webmail  
                                   Faculty   Staff  
                                   Contact  
                                   Directories  
                               
                            
                            
                               Search 
                               
							   
							      
						 Site Index 
                            
                             
                         
                      
                   
                   
                      
                         
                            
                                Academics    
                                  
                                      Academics Overview  
                                      Colleges   Schools  
                                      Undergraduate Catalog  
                                      Graduate Catalog  
                                      Honors Program  
                                      UofM Global  

                                  
                               
                                Admissions    
                                  
                                      Admissions Information  
                                      Undergraduate Students  
                                      Graduate Students  
                                      Law Students  
                                      International Students  
                                  
                               
                                Athletics    
                                  
                                      Tiger Athletics  
                                      Ticket Information  
                                      Intramurals  
                                      Make A Gift  
                                      Rec Center  
                                      gotigersgo.com  
                                  
                               
                                 Research     
                                  
                                      Research   Sponsored Programs  
                                      Research Resources  
                                      Centers/Chairs of Excellence  

                                      Centers and Institutes  
									  FedEx Institute of Technology  
                                      electronic Research Administration (eRA)  
									  Office of Institutional Research  
                                  
                               
                                 Support UofM     
                                  
                                      Development  
                                      Make a Gift  
                                      Alumni Association  
                                      Athletics Development  
                                  
                               
                                 Libraries     
                                  
                                      University Libraries  
                                      Resources  
                                      Services  
                                      Special Collections  
                                      Ask a Librarian  
                                  
                               
                            
                         
                      
                   
                
             
             
                
                   
                      Resources for... 
                      
                          Prospective Students  
                          Current and Returning Students  
                          Parents  
                          Alumni  
                          Veterans  
                      
                       Expand Menu  
                   
				   			   
                
             
          
       
    
       
      
          
   
   
    
 
     
         
             

                 
 				                 
                     
                         
                             
                                 Why Memphis? 
                             
                              
                             
                                 
                                     
                                         
                                                 
                                             
                                     
                                     
                                         
                                                 
                                                
                                             
                                     
									                                     
                                         
                                                 
                                                
                                             
                                     
									                                     
                                         
                                                 
                                                
                                             
                                     
                                     
                                         
                                                 
                                                
                                             
                                     

                                     
                                          
                                     
                                     
                                          
                                     
                                 
                             
                         
                     
                 

                 
                 
                     
                         
                             
								 
								 
                                     Welcome to Memphis. 
                                     Our city has changed the world in more ways than one. We don't wait for things to happen, we jump in and get our hands dirty. The can-do, will-do spirit that powers Memphis drives the UofM. We're culturally diverse and complex. We push boundaries and discover new ways of thinking. Most of all, we're driven by hard work and getting results. 
                                     Driven by Doing  
								 
                             
                         
                     
                 
             
         
     
        
   
   
    
   
   		
   
   		
   		
   
   
    
      
       
         
          
            
             
               
                
                  
                   
                     
                      
                        
                         
                           
                             Get Involved   Experience Memphis  
                           
                         
                        
                      
                     
                      
                        
                         
                           
                            Experience is what you do with the moments you have. You will remember this time in
                              your life by the decisions you make over the next four years, including the ones outside
                              the classroom.
                            
                           
                         
                        
                      
                     
                   
                  
                      
                     
                      
                        
                                   Sports       
                        
                         UofM fields teams in 18 different sports, and your ID gets you into all home games. 
                        
                      
                     
                   
                  
                      
                     
                      
                        
                                   Campus Life       
                        
                         Make the most of your college experience with over 250 student organizations. 
                        
                      
                     
                   
                  
                      
                     
                      
                        
                                   Academics       
                        
                         Our faculty and researchers are leaders in over 250 fields of study. 
                        
                      
                     
                   
                  
                
               
             
            
          
         
       
      
       
         
          
            
             
               
                
                  
                   
                     
                      
                        
                          Plan a Visit  
                        
                          Student Services  
                        
                          Campus Dining  
                        
                          Campus Living  
                        
                      
                     
                   
                  
                
               
                
                  
                   
                     
                      
                        
                         
                           
                             Plan a Visit   Your New Perspective  
                           
                         
                        
                      
                     
                      
                        
                         
                           
                            Two campuses. One future. Students need to be comfortable in their surroundings before
                              they pounce on their future dreams. UofM uniquely provides two campus environments
                              that help students find their perfect match: UofM Lambuth or the Memphis Campus.
                            
                           
                             Plan a Visit     
                           
                         
                        
                      
                     
                      
                        
                              
                        
                         
                           
                            By the Numbers 
                           
                            Campus Population: 21,000+  |  15:1 Student-Faculty Ratio  |  Students from 79 countries 
                              |  2,201 students in the Honors Program
                            
                           
                         
                        
                      
                     
                   
                  
                                       
                   
                  
                   
                     
                      
                        
                         
                           
                            
                              
                               What's Local? 
                              
                            
                           
                             
                           
                            
                              
                               
                                 
                                        
                                 
                                       
                                 
                                       
                                 
                                       
                                 
                                  
                                    
                                      
                                    
                                  
                                 
                                  
                                    
                                      
                                    
                                  
                                 
                               
                              
                            
                           
                         
                        
                      
                     
                   
                  
                   
                   
                
               
             
            
          
         
       
      
       
         
          
            
             
               
                
                   
                     
                      
                        
                         
                           
                            
                              
                               
                                 
                                  
                                     Choose Your Path 
                                     Colleges and Schools 
                                      
                                    
                                  
                                 
                               
                              
                            		  
                           
                            
                              
                               
                                 
                                  
                                    
                                     
                                        
                                       
                                       
                                       
                                        
                                          
                                           
                                             
                                              
                                                 Cecil C. Humphreys School of Law 
                                                
                                              
                                             
                                           
                                           Cecil C. Humphreys School of Law 
                                          
                                        				    
                                       
                                        
                                          
                                           
                                             
                                              
                                                
                                                 
                                                    Cecil C. Humphreys School of Law 
                                                   
                                                    Ranked as one of the Best Value Law Schools in the nation. 
                                                    More    
                                                   
                                                 
                                                
                                              
                                             
                                           
                                          
                                        
                                       
                                     
                                    
                                     
                                        
                                       
                                       
                                       
                                        
                                          
                                           
                                             
                                              
                                                 College of Arts   Sciences 
                                                
                                              
                                             
                                           
                                           College of Arts   Sciences 
                                          
                                        				    
                                       
                                        
                                          
                                           
                                             
                                              
                                                
                                                 
                                                    College of Arts   Sciences 
                                                   
                                                    Offers a comprehensive curriculum in social sciences, natural sciences and humanities. 
                                                    More    
                                                   
                                                 
                                                
                                              
                                             
                                           
                                          
                                        
                                       
                                     
                                    
                                     
                                        
                                       
                                       
                                       
                                        
                                          
                                           
                                             
                                              
                                                 College of Communication   Fine Arts 
                                                
                                              
                                             
                                           
                                           College of Communication   Fine Arts 
                                          
                                        				    
                                       
                                        
                                          
                                           
                                             
                                              
                                                
                                                 
                                                    College of Communication   Fine Arts 
                                                   
                                                    Encourages creativity through degrees in Architecture and Interior Design, Art, Communication,
                                                      Journalism, Music, Theatre and Dance.
                                                    
                                                    More    
                                                   
                                                 
                                                
                                              
                                             
                                           
                                          
                                        
                                       
                                     
                                    
                                     
                                        
                                       
                                       
                                       
                                        
                                          
                                           
                                             
                                              
                                                 College of Education 
                                                
                                              
                                             
                                           
                                           College of Education 
                                          
                                        					  
                                       
                                        
                                          
                                           
                                             
                                              
                                                
                                                 
                                                    College of Education 
                                                   
                                                    Offers degree programs in health and sport sciences, counseling, teaching, educational
                                                      research and more.
                                                    
                                                    More    
                                                   
                                                 
                                                
                                              
                                             
                                           
                                          
                                        
                                       
                                     
                                    
                                     
                                        
                                       
                                       
                                       
                                        
                                          
                                           
                                             
                                              
                                                 Fogelman College of Business   Economics 
                                                
                                              
                                             
                                           
                                           Fogelman College of Business   Economics 
                                          
                                        					  
                                       
                                        
                                          
                                           
                                             
                                              
                                                
                                                 
                                                    Fogelman College of Business   Economics 
                                                   
                                                    Takes maximum advantage of its metropolitan environment, home to many of America's
                                                      greatest companies, by providing opportunities to interact with the business community
                                                      through real-world, relevant projects and internships.
                                                    
                                                    More    
                                                   
                                                 
                                                
                                              
                                             
                                           
                                          
                                        
                                       
                                     
                                    
                                     
                                        
                                       
                                       
                                       
                                        
                                          
                                           
                                             
                                              
                                                 Graduate School 
                                                
                                              
                                             
                                           
                                           Graduate School 
                                          
                                        					  
                                       
                                        
                                          
                                           
                                             
                                              
                                                
                                                 
                                                    Graduate School 
                                                   
                                                    Step up to the next level with master's degree programs in 54 areas in six colleges
                                                      and three schools.
                                                    
                                                    More    
                                                   
                                                 
                                                
                                              
                                             
                                           
                                          
                                        
                                       
                                     
                                    
                                     
                                        
                                       
                                       
                                       
                                        
                                          
                                           
                                             
                                              
                                                 Herff College of Engineering 
                                                
                                              
                                             
                                           
                                           Herff College of Engineering 
                                          
                                        					  
                                       
                                        
                                          
                                           
                                             
                                              
                                                
                                                 
                                                    Herff College of Engineering 
                                                   
                                                    Develops new biomedical devices, provides transportation efficiency, and real-world
                                                      engineering experience.
                                                    
                                                    More    
                                                   
                                                 
                                                
                                              
                                             
                                           
                                          
                                        
                                       
                                     
                                    
                                     
                                        
                                       
                                       
                                       
                                        
                                          
                                           
                                             
                                              
                                                 Kemmons Wilson School of Hospitality and Resort Management 
                                                
                                              
                                             
                                           
                                           Kemmons Wilson School of Hospitality and Resort Management 
                                          
                                        					  
                                       
                                        
                                          
                                           
                                             
                                              
                                                
                                                 
                                                    Kemmons Wilson School of Hospitality and Resort Management 
                                                   
                                                    Housed in a full-service, award winning hotel and conference center, provides first-hand
                                                      experience with service standards, business challenges and real-time operations.
                                                    
                                                    More    
                                                   
                                                 
                                                
                                              
                                             
                                           
                                          
                                        
                                       
                                     
                                    
                                     
                                        
                                       
                                       
                                       
                                        
                                          
                                           
                                             
                                              
                                                 Loewenberg College of Nursing 
                                                
                                              
                                             
                                           
                                           Loewenberg College of Nursing 
                                          
                                        					  
                                       
                                        
                                          
                                           
                                             
                                              
                                                
                                                 
                                                    Loewenberg College of Nursing 
                                                   
                                                    Incorporates state-of-the-art technologies to advance education, research, and practice,
                                                      and forges meaningful partnerships to promote health.
                                                    
                                                    More    
                                                   
                                                 
                                                
                                              
                                             
                                           
                                          
                                        
                                       
                                     
                                    
                                     
                                        
                                       
                                       
                                       
                                        
                                          
                                           
                                             
                                              
                                                 School of Communication Sciences and Disorders 
                                                
                                              
                                             
                                           
                                           School of Communication Sciences and Disorders 
                                          
                                        					  
                                       
                                        
                                          
                                           
                                             
                                              
                                                
                                                 
                                                    School of Communication Sciences and Disorders 
                                                   
                                                    Nationally recognized for its research and clinical education programs for audiologists,
                                                      speech-language pathologists and speech, language or hearing scientists.
                                                    
                                                    More    
                                                   
                                                 
                                                
                                              
                                             
                                           
                                          
                                        
                                       
                                     
                                    
                                     
                                        
                                       
                                       
                                       
                                        
                                          
                                           
                                             
                                              
                                                 School of Public Health 
                                                
                                              
                                             
                                           
                                           School of Public Health 
                                          
                                        					  
                                       
                                        
                                          
                                           
                                             
                                              
                                                
                                                 
                                                    School of Public Health 
                                                   
                                                    Translates knowledge and research into community practice to support healthy living. 
                                                    More    
                                                   
                                                 
                                                
                                              
                                             
                                           
                                          
                                        
                                       
                                     
                                    
                                     
                                        
                                       
                                       
                                       
                                        
                                          
                                           
                                             
                                              
                                                 University College 
                                                
                                              
                                             
                                           
                                           University College 
                                          
                                        					  
                                       
                                        
                                          
                                           
                                             
                                              
                                                
                                                 
                                                    University College 
                                                   
                                                    Offers degrees tailored to fit adult, non-traditional students, through courses offered
                                                      in evenings, on weekends and online.
                                                    
                                                    More    
                                                   
                                                 
                                                
                                              
                                             
                                           
                                          
                                        
                                       
                                     
                                    
                                     
                                        
                                       
                                       
                                       
                                        
                                          
                                           
                                             
                                              
                                                 School of Health Studies 
                                                
                                              
                                             
                                           
                                           School of Health Studies 
                                          
                                        					  
                                       
                                        
                                          
                                           
                                             
                                              
                                                
                                                 
                                                    School of Health Studies 
                                                   
                                                    Produces cutting edge health-specific research and trains future leaders in the allied
                                                      health sciences.
                                                    
                                                    More    
                                                   
                                                 
                                                
                                              
                                             
                                           
                                          
                                        
                                       
                                     
                                    
                                     
                                       
                                        
                                          
                                            Undergraduate Programs   
                                             
                                              
                                                
                                                  Majors, Minors   Concentrations  
                                                
                                                  Undergraduate Catalog  
                                                
                                                  Honors Program  
                                                
                                                  Veterans Programs  
                                                
                                              
                                             
                                           
                                          
                                            Graduate Programs   
                                             
                                              
                                                
                                                  Academic Degree Programs  
                                                
                                                  Graduate Catalog  
                                                
                                                  Graduate Certificate Programs  
                                                
                                                  Nationally Ranked Graduate Programs  
                                                
                                              
                                             
                                           
                                          
                                        
                                       
                                        
                                          
                                            Online Degree Programs   
                                             
                                              
                                                
                                                  Undergraduate Online Degree Programs  
                                                
                                                  Graduate Online Degree Programs  
                                                
                                                  Regents Online Degree Programs  
                                                
                                                  Online Student Orientation  
                                                
                                              
                                             
                                           
                                          
                                            Law Program   
                                             
                                              
                                                
                                                  Law Degree Programs  
                                                
                                                  Course Catalog  
                                                
                                                  Certificate Programs  
                                                
                                              
                                             
                                           
                                          
                                        
                                       
                                        
                                          
                                            International Programs   
                                             
                                              
                                                
                                                  Study Abroad  
                                                
                                                  Intensive English for Internationals  
                                                
                                                  International Student Services  
                                                
                                              
                                             
                                           
                                          
                                        
                                       
                                     
                                    
                                  
                                 
                                   
                                 
                               			   
                              
                            			
                           
                            			
                              
                               
                                 
                                  
                                    
                                     
                                          Apply To Colleges 
                                       
                                     
                                    
                                     
                                          See All Degrees 
                                       
                                     
                                    
                                  
                                 
                               			   
                              
                            
                           
                         		  
                        
                      	    
                     
                   
                
               
             
            
          
         
       
      
       
         
          
            
             
               
                
                  
                   
                     
                      
                        
                         
                           
                             Scholarships   Financial Aid   Invest In Yourself  
                           
                         
                        
                      
                     
                      
                        
                         
                           
                                   Tuition     
                           
                            View tuition and fees for all students by category. 
                           
                         
                        
                         
                           
                                   Gain real-life experience      
                           
                            Our Internship Program is nationally ranked for providing students with valuable experience 
                           
                         
                        
                      
                     
                      
                        
                         
                           
                                   Scholarships      
                           
                            The Tiger Scholarship Manager makes applying for scholarships easy! 
                           
                         
                        
                         
                           
                                   Complete 2 Compete     
                           
                            Reduce costs by graduating in 4 years. We'll help you do just that! 
                           
                         
                        
                      
                     
                   
                  
                                        
                   
                  
                   
                     
                      
                        
                         
                           
                            
                              
                                
                              
                               Safety First 
                              
                            
                           
                            
                              
                               
                                 
                                  
                                    
                                           
                                    
                                          
                                    
                                          
                                    
                                          
                                    
                                     
                                       
                                         
                                       
                                     
                                    
                                     
                                       
                                         
                                       
                                     
                                    
                                  
                                 
                               
                              
                            
                           
                            
                              
                               
                                 
                                  Memphis is a big city. You might think safety would be a tricky issue at the UofM,
                                    but we're actually one of the safest campuses in the state. We have the lowest crime
                                    rate of the 10 largest universities in Tennessee according to the Tennessee Bureau
                                    of Investigation. 
                                  
                                 
                                  For more information, contact Campus police at 901.678.3848. 
                                 
                               
                              
                                
                              
                            
                           
                         
                        
                      
                     
                   
                  
                   
                  
                
               
             
            
          
         
          
            
             
               
                
                  
                   
                     
                      
                        
                         Parent Hotline 
                        
                          901-678-2115  
                        
                          parents@memphis.edu  
                        
                          MORE     
                        
                      
                     
                   
                  
                
               
             
            
          
         
       
      
       
         
          
            
             
               
                
                  
                   
                     
                      
                        
                         
                           
                             Get Informed   Parents   Family  
                           
                         
                        
                      
                     
                      
                        
                         
                           
                             UofM FAQ     
                           
                            Have a question? We have answers! 
                           
                         
                        
                         
                           
                             Residential Living and Dining     
                           
                            Learn about housing options and meal plans. 
                           
                         
                        
                         
                           
                             Student Services     
                           
                            Learn about services and resources available to students. 
                           
                         
                        
                         
                           
                             Scholarships   Financial Aid    
                           
                            Application information for federal, state and institutional aid programs. 
                           
                         
                        
                      
                     
                   
                  
                
               
                
                  
                      Sign up for Parent Enews  
                  
                
               
             
            
          
         
       
      
    
   
   	
    
    
      
      
       
 
    
       
          
             
                 Full sitemap   
             
             
                
                   
                      Admissions 
                      
                         
                             Prospective Students  
                             Undergraduate  
                             Graduate  
                             Law School  
                             International  
                             Parents  
                             Scholarship   Financial Aid  
                             Tuition   Fee Payment  
                             FAQs  
                             About UofM  
                         
                      
                   
                   
                      Academics 
                      
                         
                             Provost's Office  
                             Libraries  
                             Transcripts  
                             Undergraduate Catalog  
                             Graduate Catalog  
                             Academic Calendars  
                             Course Schedule  
                             Financial Aid  
                             Graduation  
                             Honors Program  
						     eCourseware  
                         
                      
                   
                   
                      Athletics 
                      
                         
                             Gotigersgo.com  
                             Ticket Information  
                             Intramural Sports  
                             Recreation Center  
                             Athletic Academic Support  
                             Former Tigers  
                             Facilities  
                             Tiger Scholarship Fund  
                             Media  
                         
                      
                   
				    
                   
                      Research 
                      
                         
                             Sponsored Programs  
                             Research Resources  
                             Centers   Institutes  
                             Chairs of Excellence  
                             FedEx Institute of Technology  
                             Libraries  
                             Grants Accounting  
                             Environmental Health  
                             Office of Institutional Research  
                         
                      
                   
                   
                      Support UofM 
                      
                         
                             Make a Gift  
                             Alumni Association  
                             Year of Service  
                         
                      
                   
                   
                      Administrative Support 
                      
                         
                             President's Office  
                             Academic Affairs  
                             Business   Finance  
                             Career Opportunities  
                             Conference   Event Services  
                             Corporate Partnerships  
  Development Office  
                             Government Relations  
                             Information Technology Services  
                             Media and Marketing  
                             Student Affairs  
                         
                      
                   
                
             
          
          
             
				    
                  
                
             
             
                   
                  
                
             
             
                
                   Follow UofM Online 
                     UofM Facebook     UofM Twitter     UofM YouTube   
                    
                   
                     UofM Instagram     UofM Pinterest     UofM LinkedIn   
                
             
              
                   
                      
                   
                
      
          
       
    
 
 
      
      
      
       
          
             
                
                   
                      
                         
                            
                               
                                 
                                 
                                  
  Print  
  Got a Question? Ask TOM  
  Copyright © 2017 University of Memphis  
  Important Notice  
                                  
                                 
                                 
                                  
                                     Last Updated: 12/4/17 
                                  
                                 
                                 
                                  
  University of Memphis  
 Memphis, TN 38152 
 Phone: 901.678.2000 
 
  
 The University of Memphis does not discriminate against students, employees, or applicants for admission or employment on the basis of race, color, religion, creed, national origin, sex, sexual orientation, gender identity/expression, disability, age, status as a protected veteran, genetic information, or any other legally protected class with respect to all employment, programs and activities sponsored by the University of Memphis. The following person has been designated to handle inquiries regarding non-discrimination policies: Michael Washington, Director for Institutional Equity.  For more information, visit  University of Memphis Equal Opportunity and Affirmative Action .  

Title IX of the Education Amendments of 1972 protects people from discrimination based on sex in education programs or activities which receive Federal financial assistance. Title IX states: "No person in the United States shall, on the basis of sex, be excluded from participation in, be denied the benefits of, or be subjected to discrimination under any education program or activity receiving Federal financial assistance..." 20 U.S.C. § 1681 - To Learn More, visit  Title IX and Sexual Misconduct .
 
 
                                 
                                 
                                 
                               
                            
                         
                      
                   
                
             
          
       
    
   
   
   
   
   
   
 



 


