Dr. Jain and Dr. Rezaee published in the International Journal of Finance and Managerial Accounting - FCBE - University of Memphis    










 
 
 
     



 
    
    
    Dr. Jain and Dr. Rezaee published in the International Journal of Finance and Managerial
      Accounting - 
      	FCBE
      	 - University of Memphis
    
    
    
    
    
    
    
    
    
    
    
    
    
    
    
    
    
    
    
    
    
    
    
    
    
   
   
   






   
   
   
    
    
 
 
   
   
   
   
 
    
   
   
    
      
      
          
     
    
       
          
             
                
				    
					     
                   
      
                
                
                    
                
                
                   
                      
                         
                            
                               
                                   Lambuth Campus  
                                   myMemphis  
                                   Webmail  
                                   Faculty   Staff  
                                   Contact  
                                   Directories  
                               
                            
                            
                               Search 
                               
							   
							      
						 Site Index 
                            
                             
                         
                      
                   
                   
                      
                         
                            
                                Academics    
                                  
                                      Academics Overview  
                                      Colleges   Schools  
                                      Undergraduate Catalog  
                                      Graduate Catalog  
                                      Honors Program  
								      UofM Global  
                                  
                               
                                Admissions    
                                  
                                      Admissions Information  
                                      Undergraduate Students  
                                      Graduate Students  
                                      Law Students  
                                      International Students  
                                  
                               
                                Athletics    
                                  
                                      Tiger Athletics  
                                      Ticket Information  
                                      Intramurals  
                                      Make A Gift  
                                      Rec Center  
                                      gotigersgo.com  
                                  
                               
                                Research    
                                  
                                      Research   Sponsored Programs  
                                      Research Resources  
                                      Centers/Chairs of Excellence  

                                      Centers and Institutes  
									  FedEx Institute of Technology  
                                      electronic Research Administration (eRA)  
									  Office of Institutional Research  
                                  
                               
                                Support UofM    
                                  
                                      Development  
                                      Make a Gift  
                                      Alumni Association  
                                      Athletics Development  
                                  
                               
                                Libraries    
                                  
                                      University Libraries  
                                      Libraries Resources  
                                      Libraries Services  
                                      Special Collections  
                                      Ask a Librarian  
                                  
                               
                            
                         
                      
                   
                
             
             
                
                   
                      Resources for... 
                      
                          Prospective Students  
                          Current and Returning Students  
                          Parents  
                          Alumni  
                          Veterans  
                      
                       Expand Menu  
                   
				   			   
                
             
          
       
    
          
      
          
    
       
          
             
                
                   
                       
                           			Fogelman College of Business   Economics
                           	 
                          
                   
                
             
          
       
       
          
             
                
                   
                      
                          About  
                          Programs  
                          Students  
                          Departments  
                          Faculty   Staff  
                          Research  
                          News  
                      
                      
                         
                            News   
                            
                               
                                  
                                   News  
                                         Current News  
                                         News Archive  
                                     
                                  
                                   Events  
                                   FCBE Media Room  
                                         College Publications  
                                         Fogelman Focus  
                                         Fogelman Flash  
                                         Memphis Memo  
                                         Fogelman Features  
                                     
                                  
                               
                            
                         
                      
                   
                
             
          
          
             
                
                   
                      
                          Home  
                          
                              	FCBE
                              	  
                          
                              	News
                              	  
                         Dr. Jain and Dr. Rezaee published in the International Journal of Finance and Managerial
                           Accounting
                         
                      
                   
                   
                       
                      
                     
                     		
                     
                     
                      Dr. Jain and Dr. Rezaee published in the  International Journal of Finance and Managerial Accounting  
                     
                      For release:  June 20, 2016  Dr. Pankaj K. Jain, George Johnson Professor and interim chairman of the Department
                        of Finance, Insurance, and Real Estate; and Dr. Zabihollah Rezaee, Thompson-Hill Chair
                        of Excellence and professor of Accounting, published a paper entitled "Shareholder
                        wealth effects of management regulatory compliance" in the  International Journal of Finance and Managerial Accounting .
                      
                     
                      The paper addresses whether and how the Sarbanes-Oxley Act of 2002 (SOX) affects shareholder
                        wealth (firm value) by focusing on the trade-off between improved corporate governance
                        leading to a lower cost of capital and increased managerial compliance costs of regulations.
                        The study used an analytical model of solving the management utility maximization
                        function and the change in stock prices in response to SOX regulations. The analytical
                        model was tested by empirically investigating financial restatements in the pre and
                        post-SOX. The results conclude that all public companies can benefit from regulatory
                        reforms, but the net effects vary across firms depending on investors' perception
                        about a firm's governance quality before regulatory reforms and the required managerial
                        compliance costs. The analytical model also generates new predictions about management
                        compliance behavior, which is tested by investigating restatements of financial statements.
                        The model has policy implications by addressing cost-benefit of initiatives taken
                        to improve US capital markets' global competitiveness and the impacts on managerial
                        compliance behavior. The results may be relevant to regulators and public companies
                        in both developed markets such as the United States and emerging markets such as Iran,
                        where the government has promoted a series of deregulation and privatization initiatives.
                        The model attempts to reconcile mixed empirical results of related studies pertaining
                        to the effects of SOX on stock prices.
                      
                     
                     
                     	
                      
                   
                
                
                   
                      
                         News 
                         
                            
                               
                                News  
                                      Current News  
                                      News Archive  
                                  
                               
                                Events  
                                FCBE Media Room  
                                      College Publications  
                                      Fogelman Focus  
                                      Fogelman Flash  
                                      Memphis Memo  
                                      Fogelman Features  
                                  
                               
                            
                         
                      
                      
                      
                         
                            
                                Apply to our Undergraduate Programs    
                               Enroll at the university and engage yourself with our six different departments, student
                                 enrichment, and more. 
                               
                            
                            
                                Apply to our Masters Programs    
                               Earn your degree with one of our five MBA tracks or with one of our four specialized
                                 Masters programs!
                               
                            
                            
                                Apply to our Doctoral Programs    
                               Interested in a Ph.D.? Start the journey towards your Ph.D. here! 
                            
                            
                                Contact Us    
                               Have questions? Call or email today!  
                            
                         
                      
                      
                      
                   
                   
                
                
             
             
          
          
       
    
    
    
      
      
       
 
    
       
          
             
                 Full sitemap   
             
             
                
                   
                      Admissions 
                      
                         
                             Prospective Students  
                             Undergraduate  
                             Graduate  
                             Law School  
                             International  
                             Parents  
                             Scholarship   Financial Aid  
                             Tuition   Fee Payment  
                             FAQs  
                             About UofM  
                         
                      
                   
                   
                      Academics 
                      
                         
                             Provost's Office  
                             Libraries  
                             Transcripts  
                             Undergraduate Catalog  
                             Graduate Catalog  
                             Academic Calendars  
                             Course Schedule  
                             Financial Aid  
                             Graduation  
                             Honors Program  
						     eCourseware  
                         
                      
                   
                   
                      Athletics 
                      
                         
                             Gotigersgo.com  
                             Ticket Information  
                             Intramural Sports  
                             Recreation Center  
                             Athletic Academic Support  
                             Former Tigers  
                             Facilities  
                             Tiger Scholarship Fund  
                             Media  
                         
                      
                   
				    
                   
                      Research 
                      
                         
                             Sponsored Programs  
                             Research Resources  
                             Centers   Institutes  
                             Chairs of Excellence  
                             FedEx Institute of Technology  
                             Libraries  
                             Grants Accounting  
                             Environmental Health  
                             Office of Institutional Research  
                         
                      
                   
                   
                      Support UofM 
                      
                         
                             Make a Gift  
                             Alumni Association  
                             Year of Service  
                         
                      
                   
                   
                      Administrative Support 
                      
                         
                             President's Office  
                             Academic Affairs  
                             Business   Finance  
                             Career Opportunities  
                             Conference   Event Services  
                             Corporate Partnerships  
  Development Office  
                             Government Relations  
                             Information Technology Services  
                             Media and Marketing  
                             Student Affairs  
                         
                      
                   
                
             
          
          
             
				    
                  
                
             
             
                   
                  
                
             
             
                
                   Follow UofM Online 
                     UofM Facebook     UofM Twitter     UofM YouTube   
                    
                   
                     UofM Instagram     UofM Pinterest     UofM LinkedIn   
                
             
              
                   
                      
                   
                
      
          
       
    
 
 
      
      
      
       
          
             
                
                   
                      
                         
                            
                               
                                 
                                 
                                  
  Print  
  Got a Question? Ask TOM  
  Copyright © 2017 University of Memphis  
  Important Notice  
                                  
                                 
                                 
                                  
                                     Last Updated: 11/3/17 
                                  
                                 
                                 
                                  
  University of Memphis  
 Memphis, TN 38152 
 Phone: 901.678.2000 
 
  
 The University of Memphis does not discriminate against students, employees, or applicants for admission or employment on the basis of race, color, religion, creed, national origin, sex, sexual orientation, gender identity/expression, disability, age, status as a protected veteran, genetic information, or any other legally protected class with respect to all employment, programs and activities sponsored by the University of Memphis. The Office for Institutional Equity has been designated to handle inquiries regarding non-discrimination policies. For more information, visit  University of Memphis Equal Opportunity and Affirmative Action .  
Title IX of the Education Amendments of 1972 protects people from discrimination based on sex in education programs or activities which receive Federal financial assistance. Title IX states: "No person in the United States shall, on the basis of sex, be excluded from participation in, be denied the benefits of, or be subjected to discrimination under any education program or activity receiving Federal financial assistance..." 20 U.S.C. § 1681 - To Learn More, visit  Title IX and Sexual Misconduct .
 
 
                                 
                                 
                                 
                               
                            
                         
                      
                   
                
             
          
       
    
   
   
   
   
   
   
 



 


