 Seismology - CERI - University of Memphis    










 
 
 
     



 
    
    
     Seismology - 
      	CERI
      	 - University of Memphis
    
    
    
    
    
    
    
    
    
    
    
    
    
    
    
    
    
    
    
    
    
    
    
    
    
   
   
   






   
   
   
    
    
 
 
   
   
   
   
 
    
   
   
    
      
      
          
     
    
       
          
             
                
				    
					     
                   
      
                
                
                    
                
                
                   
                      
                         
                            
                               
                                   Lambuth Campus  
                                   myMemphis  
                                   Webmail  
                                   Faculty   Staff  
                                   Contact  
                                   Directories  
                               
                            
                            
                               Search 
                               
							   
							      
						 Site Index 
                            
                             
                         
                      
                   
                   
                      
                         
                            
                                Academics    
                                  
                                      Academics Overview  
                                      Colleges   Schools  
                                      Undergraduate Catalog  
                                      Graduate Catalog  
                                      Honors Program  
								      UofM Global  
                                  
                               
                                Admissions    
                                  
                                      Admissions Information  
                                      Undergraduate Students  
                                      Graduate Students  
                                      Law Students  
                                      International Students  
                                  
                               
                                Athletics    
                                  
                                      Tiger Athletics  
                                      Ticket Information  
                                      Intramurals  
                                      Make A Gift  
                                      Rec Center  
                                      gotigersgo.com  
                                  
                               
                                Research    
                                  
                                      Research   Sponsored Programs  
                                      Research Resources  
                                      Centers/Chairs of Excellence  

                                      Centers and Institutes  
									  FedEx Institute of Technology  
                                      electronic Research Administration (eRA)  
									  Office of Institutional Research  
                                  
                               
                                Support UofM    
                                  
                                      Development  
                                      Make a Gift  
                                      Alumni Association  
                                      Athletics Development  
                                  
                               
                                Libraries    
                                  
                                      University Libraries  
                                      Libraries Resources  
                                      Libraries Services  
                                      Special Collections  
                                      Ask a Librarian  
                                  
                               
                            
                         
                      
                   
                
             
             
                
                   
                      Resources for... 
                      
                          Prospective Students  
                          Current and Returning Students  
                          Parents  
                          Alumni  
                          Veterans  
                      
                       Expand Menu  
                   
				   			   
                
             
          
       
    
          
      
          
    
       
          
             
                
                   
                       
                           			Center for Earthquake Research and Information
                           	 
                          
                   
                
             
          
       
       
          
             
                
                   
                      
                          About  
                          Study  
                          Research  
                          People  
                          Public  
                          News  
                          Donate  
                      
                      
                         
                            Research at CERI   
                            
                               
                                  
                                   Research Programs  
                                        
                                         Seismology  
                                        
                                         Geodynamics  
                                        
                                         Mechanics and Physics of Earthquakes  
                                        
                                         Geodesy  
                                        
                                         Engineering Seismology  
                                        
                                         Exploration Seismology  
                                        
                                         Computational Seismology  
                                     
                                  
                                   Projects  
                                         New Madrid Compendium  
                                         NELE  
                                         Working Group on Data Conversion (WGDC)  
                                         Charleston Area Earthquake Hazards Mapping Project (CAEHMP)  
                                         2015 Memphis Urban Hazard Maps  
                                     
                                  
                               
                            
                         
                      
                   
                
             
          
          
             
                
                   
                      
                          Home  
                          
                              	CERI
                              	  
                          
                              	Research at CERI
                              	  
                          Seismology 
                      
                   
                   
                       
                      
                     
                     		
                     
                     
                      Seismology 
                     
                       Research involving seismology is a core strength of CERI. Our research interests cover
                        most aspects of seismology and range from near surface processes to studies involving
                        the lithosphere and asthenosphere. Theoretical developments as well as observational
                        studies are used to address outstanding problems in seismology that pertain to local,
                        regional, and global phenomena. Our strength in seismology links the various research
                        efforts at CERI and facilitates interaction between our faculty members. The result
                        is a vibrant research group on the forefront of solving problems in a collegial, stimulating
                        environment.
                      
                     
                        
                     
                        
                     
                       The research interests from faculty affiliated with Seismology include: 
                     
                      
                        
                         Wave propagation 
                        
                         Crustal and mantle velocity and anisotropy structure 
                        
                         Seismic source physics 
                        
                         Seismotectonics 
                        
                         Seismic hazard analysis 
                        
                         Engineering seismology 
                        
                         Near-surface velocity structure 
                        
                         Reflection seismology 
                        
                         Induced seismicity 
                        
                         Advanced data processing techniques 
                        
                      
                     
                      Current CERI investigators are: 
                     
                      
                        
                          Jer-Ming Chiu  
                        
                          Chris Cramer  
                        
                          Eric Daub  (Center for Nonlinear Studies)
                         
                        
                          Steve Horton  
                        
                          Charles Langston  
                        
                          Christine Powell  
                        
                          Ricardo Taborda  
                        
                          Mitch Withers  
                        
                      
                     
                     
                     	
                      
                   
                
                
                   
                      
                         Research at CERI 
                         
                            
                               
                                Research Programs  
                                     
                                      Seismology  
                                     
                                      Geodynamics  
                                     
                                      Mechanics and Physics of Earthquakes  
                                     
                                      Geodesy  
                                     
                                      Engineering Seismology  
                                     
                                      Exploration Seismology  
                                     
                                      Computational Seismology  
                                  
                               
                                Projects  
                                      New Madrid Compendium  
                                      NELE  
                                      Working Group on Data Conversion (WGDC)  
                                      Charleston Area Earthquake Hazards Mapping Project (CAEHMP)  
                                      2015 Memphis Urban Hazard Maps  
                                  
                               
                            
                         
                      
                      
                      
                         
                            
                                Graduate Study at CERI  
                               Want to perform cutting edge research in a collegial and supportive environment? 
                            
                            
                                Seismic information  
                               View a list of Stations, Earthquake Catalogs, Monitoring Partners, and more... 
                            
                            
                                Earthquake Resources  
                               Recent Earthquakes, Education   Outreach, Preparedness, Data Products, Media Products,
                                 and more...
                               
                            
                            
                                Contact Us  
                               For questions or more information, please contact the main office of CERI 
                            
                         
                      
                      
                      
                   
                   
                
                
             
             
          
          
       
    
    
    
      
      
       
 
    
       
          
             
                 Full sitemap   
             
             
                
                   
                      Admissions 
                      
                         
                             Prospective Students  
                             Undergraduate  
                             Graduate  
                             Law School  
                             International  
                             Parents  
                             Scholarship   Financial Aid  
                             Tuition   Fee Payment  
                             FAQs  
                             About UofM  
                         
                      
                   
                   
                      Academics 
                      
                         
                             Provost's Office  
                             Libraries  
                             Transcripts  
                             Undergraduate Catalog  
                             Graduate Catalog  
                             Academic Calendars  
                             Course Schedule  
                             Financial Aid  
                             Graduation  
                             Honors Program  
						     eCourseware  
                         
                      
                   
                   
                      Athletics 
                      
                         
                             Gotigersgo.com  
                             Ticket Information  
                             Intramural Sports  
                             Recreation Center  
                             Athletic Academic Support  
                             Former Tigers  
                             Facilities  
                             Tiger Scholarship Fund  
                             Media  
                         
                      
                   
				    
                   
                      Research 
                      
                         
                             Sponsored Programs  
                             Research Resources  
                             Centers   Institutes  
                             Chairs of Excellence  
                             FedEx Institute of Technology  
                             Libraries  
                             Grants Accounting  
                             Environmental Health  
                             Office of Institutional Research  
                         
                      
                   
                   
                      Support UofM 
                      
                         
                             Make a Gift  
                             Alumni Association  
                             Year of Service  
                         
                      
                   
                   
                      Administrative Support 
                      
                         
                             President's Office  
                             Academic Affairs  
                             Business   Finance  
                             Career Opportunities  
                             Conference   Event Services  
                             Corporate Partnerships  
  Development Office  
                             Government Relations  
                             Information Technology Services  
                             Media and Marketing  
                             Student Affairs  
                         
                      
                   
                
             
          
          
             
				    
                  
                
             
             
                   
                  
                
             
             
                
                   Follow UofM Online 
                     UofM Facebook     UofM Twitter     UofM YouTube   
                    
                   
                     UofM Instagram     UofM Pinterest     UofM LinkedIn   
                
             
              
                   
                      
                   
                
      
          
       
    
 
 
      
      
      
       
          
             
                
                   
                      
                         
                            
                               
                                 
                                 
                                  
  Print  
  Got a Question? Ask TOM  
  Copyright © 2017 University of Memphis  
  Important Notice  
                                  
                                 
                                 
                                  
                                     Last Updated: 11/3/17 
                                  
                                 
                                 
                                  
  University of Memphis  
 Memphis, TN 38152 
 Phone: 901.678.2000 
 
  
 The University of Memphis does not discriminate against students, employees, or applicants for admission or employment on the basis of race, color, religion, creed, national origin, sex, sexual orientation, gender identity/expression, disability, age, status as a protected veteran, genetic information, or any other legally protected class with respect to all employment, programs and activities sponsored by the University of Memphis. The Office for Institutional Equity has been designated to handle inquiries regarding non-discrimination policies. For more information, visit  University of Memphis Equal Opportunity and Affirmative Action .  
Title IX of the Education Amendments of 1972 protects people from discrimination based on sex in education programs or activities which receive Federal financial assistance. Title IX states: "No person in the United States shall, on the basis of sex, be excluded from participation in, be denied the benefits of, or be subjected to discrimination under any education program or activity receiving Federal financial assistance..." 20 U.S.C. § 1681 - To Learn More, visit  Title IX and Sexual Misconduct .
 
 
                                 
                                 
                                 
                               
                            
                         
                      
                   
                
             
          
       
    
   
   
   
   
   
   
 



 


