 Mexican Drought Atlas | Single Year Map   

 
 
  
	Mexican Drought Atlas | Single Year Map
   
    
    
 
 
     
 

 
 
     
        Mexican Drought Atlas
     
     
         
             
                  Home  
                 
                     Maps 
                     
                         Single Year 
                         Composite 
                         Correlation 
                     
                 
                 
                     Time Series 
                     
                         Extract 
                         Congruence 
                         Correlation 
                     
                 
                 
                     Help 
                     
                         Create Maps 
                         Create Time Series 
                     
                 
             
         
     
     
        
     
        Single Year Map 
     
         
             
                Dataset: 
             
                   Reconstructed PDSI Jun-Aug 1400 - 2012    Instrumental PDSI Jan 1901 - Dec 2012  
             
         
     
     
         
     

     
     
         
             
                 
                     
                 
                 
                    The development of this web application was supported by the National Science 
                    Foundation Paleoclimatology Program, Paleo Perspectives on Climate Change (Grant numbers AGS-1266014, 
                    AGS-1266015, and AGS-1301587).
                 
             
         
     
     
 
 
