L'Oreal Henry - LEAD - University of Memphis    










 
 
 
     



 
    
    
    L'Oreal Henry  - 
      	LEAD
      	 - University of Memphis
    
    
    
    
    
    
    
    
    
    
    
    
    
    
    
    
    
    
    
    
    
    
    
    
    
   
   
   






   
   
   
    
    
 
 
   
   
   
   
 
    
   
   
    
      
      
          
     
    
       
          
             
                
				    
					     
                   
      
                
                
                    
                
                
                   
                      
                         
                            
                               
                                   Lambuth Campus  
                                   myMemphis  
                                   Webmail  
                                   Faculty   Staff  
                                   Contact  
                                   Directories  
                               
                            
                            
                               Search 
                               
							   
							      
						 Site Index 
                            
                             
                         
                      
                   
                   
                      
                         
                            
                                Academics    
                                  
                                      Academics Overview  
                                      Colleges   Schools  
                                      Undergraduate Catalog  
                                      Graduate Catalog  
                                      Honors Program  
								      UofM Global  
                                  
                               
                                Admissions    
                                  
                                      Admissions Information  
                                      Undergraduate Students  
                                      Graduate Students  
                                      Law Students  
                                      International Students  
                                  
                               
                                Athletics    
                                  
                                      Tiger Athletics  
                                      Ticket Information  
                                      Intramurals  
                                      Make A Gift  
                                      Rec Center  
                                      gotigersgo.com  
                                  
                               
                                Research    
                                  
                                      Research   Sponsored Programs  
                                      Research Resources  
                                      Centers/Chairs of Excellence  

                                      Centers and Institutes  
									  FedEx Institute of Technology  
                                      electronic Research Administration (eRA)  
									  Office of Institutional Research  
                                  
                               
                                Support UofM    
                                  
                                      Development  
                                      Make a Gift  
                                      Alumni Association  
                                      Athletics Development  
                                  
                               
                                Libraries    
                                  
                                      University Libraries  
                                      Libraries Resources  
                                      Libraries Services  
                                      Special Collections  
                                      Ask a Librarian  
                                  
                               
                            
                         
                      
                   
                
             
             
                
                   
                      Resources for... 
                      
                          Prospective Students  
                          Current and Returning Students  
                          Parents  
                          Alumni  
                          Veterans  
                      
                       Expand Menu  
                   
				   			   
                
             
          
       
    
          
      
          
    
       
          
             
                
                   
                       
                           			Department of Leadership
                           	 
                          
                   
                
             
          
       
       
          
             
                
                   
                      
                          About  
                          Higher Ed/Adult Ed  
                          Leadership   PS  
                          Faculty   Staff  
                          News  
                      
                      
                         
                            Faculty   Staff   
                            
                               
                                  
                                   Faculty   Staff  
                                   HIAD Faculty  
                                   LDPS Faculty  
                                   Affiliated Faculty  
                                   CSHE Management  
                               
                            
                         
                      
                   
                
             
          
          
             
                
                   
                      
                          Home  
                          
                              	LEAD
                              	  
                          
                              	Faculty Profiles
                              	  
                         L'Oreal Henry  
                      
                   
                   
                       
                      
                      
                        
                        	
                        
                        		  
                         
                           
                           
                            
                              
                              
                                                                   
                                 
                                 
                                  
                                 
                                 
                               
                              
                              
                               
                                 
                                  
                                    
                                    L'Oreal Henry 
                                    
                                  
                                 
                                 
                                  
                                    
                                    Front Desk Manager
                                    
                                  
                                 
                                 
                                  
                                    
                                     
                                       
                                        Phone 
                                       
                                        
                                          
                                          901.678.2369
                                          
                                        
                                       
                                     
                                    
                                     
                                       
                                        Email 
                                       
                                         lchenry@memphis.edu   
                                       
                                     
                                    
                                     
                                       
                                        Fax 
                                       
                                        
                                          
                                          901.678.0505
                                          
                                        
                                       
                                     
                                    
                                  
                                 
                                 
                                  
                                    
                                     
                                       
                                        Office 
                                       
                                        
                                          
                                          123 Ball Hall 
                                          
                                        
                                       
                                     
                                    
                                     
                                       
                                        Office Hours 
                                       
                                        
                                          
                                          By appointment 
                                          
                                        
                                       
                                     
                                    
                                  
                                 
                                 
                                  
                                    										
                                    
                                    
                                      CV  
                                    
                                      LINKEDIN  
                                                                            
                                    
                                  
                                 
                               
                              
                              
                            
                           			 
                           			  
                           
                           
                            About L'Oreal Henry  
                           
                            Currently a student at The University of Memphis studying pre-nursing, seeking to
                              obtain an Accelerated Bachelors of Science Nursing degree (ABSN). I am now also working
                              in the Leadership Department as a work study student front desk manager.
                            
                           
                            Previously May 2017 I received my B.S. in Public Health from Xavier University of
                              Louisiana. I worked for Xavier as as student worker for 4 in half years as a work-study
                              coordinator assistant. Being a work study coordinator assistant, I learned about payroll,
                              operate meetings, and file paperwork.
                            
                           
                           
                         
                        								
                        
                        
                        
                        
                        	
                      
                      
                   
                
                
                   
                      
                         Faculty   Staff 
                         
                            
                               
                                Faculty   Staff  
                                HIAD Faculty  
                                LDPS Faculty  
                                Affiliated Faculty  
                                CSHE Management  
                            
                         
                      
                      
                      
                         
                            
                                Apply Now   
                               Start an application and view the Graduate Catalog 
                            
                            
                                About Us  
                               Learn more about the Department of Leadership and what we do 
                            
                            
                                Need Help? Contact Us!   
                               Questions or comments? Get in touch with our support staff! 
                            
                            
                                Online Resources   
                               A list of useful links, forms, and documents for current and prospective Leadership
                                 students 
                               
                            
                         
                      
                   
                   
                
                
             
             
          
          
       
    
    
    
      
      
       
 
    
       
          
             
                 Full sitemap   
             
             
                
                   
                      Admissions 
                      
                         
                             Prospective Students  
                             Undergraduate  
                             Graduate  
                             Law School  
                             International  
                             Parents  
                             Scholarship   Financial Aid  
                             Tuition   Fee Payment  
                             FAQs  
                             About UofM  
                         
                      
                   
                   
                      Academics 
                      
                         
                             Provost's Office  
                             Libraries  
                             Transcripts  
                             Undergraduate Catalog  
                             Graduate Catalog  
                             Academic Calendars  
                             Course Schedule  
                             Financial Aid  
                             Graduation  
                             Honors Program  
						     eCourseware  
                         
                      
                   
                   
                      Athletics 
                      
                         
                             Gotigersgo.com  
                             Ticket Information  
                             Intramural Sports  
                             Recreation Center  
                             Athletic Academic Support  
                             Former Tigers  
                             Facilities  
                             Tiger Scholarship Fund  
                             Media  
                         
                      
                   
				    
                   
                      Research 
                      
                         
                             Sponsored Programs  
                             Research Resources  
                             Centers   Institutes  
                             Chairs of Excellence  
                             FedEx Institute of Technology  
                             Libraries  
                             Grants Accounting  
                             Environmental Health  
                             Office of Institutional Research  
                         
                      
                   
                   
                      Support UofM 
                      
                         
                             Make a Gift  
                             Alumni Association  
                             Year of Service  
                         
                      
                   
                   
                      Administrative Support 
                      
                         
                             President's Office  
                             Academic Affairs  
                             Business   Finance  
                             Career Opportunities  
                             Conference   Event Services  
                             Corporate Partnerships  
  Development Office  
                             Government Relations  
                             Information Technology Services  
                             Media and Marketing  
                             Student Affairs  
                         
                      
                   
                
             
          
          
             
				    
                  
                
             
             
                   
                  
                
             
             
                
                   Follow UofM Online 
                     UofM Facebook     UofM Twitter     UofM YouTube   
                    
                   
                     UofM Instagram     UofM Pinterest     UofM LinkedIn   
                
             
              
                   
                      
                   
                
      
          
       
    
 
 
      
      
      
       
          
             
                
                   
                      
                         
                            
                               
                                 
                                 
                                  
  Print  
  Got a Question? Ask TOM  
  Copyright © 2017 University of Memphis  
  Important Notice  
                                  
                                 
                                 
                                  
                                     Last Updated: 11/26/17 
                                  
                                 
                                 
                                  
  University of Memphis  
 Memphis, TN 38152 
 Phone: 901.678.2000 
 
  
 The University of Memphis does not discriminate against students, employees, or applicants for admission or employment on the basis of race, color, religion, creed, national origin, sex, sexual orientation, gender identity/expression, disability, age, status as a protected veteran, genetic information, or any other legally protected class with respect to all employment, programs and activities sponsored by the University of Memphis. The Office for Institutional Equity has been designated to handle inquiries regarding non-discrimination policies. For more information, visit  University of Memphis Equal Opportunity and Affirmative Action .  
Title IX of the Education Amendments of 1972 protects people from discrimination based on sex in education programs or activities which receive Federal financial assistance. Title IX states: "No person in the United States shall, on the basis of sex, be excluded from participation in, be denied the benefits of, or be subjected to discrimination under any education program or activity receiving Federal financial assistance..." 20 U.S.C. § 1681 - To Learn More, visit  Title IX and Sexual Misconduct .
 
 
                                 
                                 
                                 
                               
                            
                         
                      
                   
                
             
          
       
    
   
   
   
   
   
   
 



 


