Seti I War Scenes - Hypostyle - University of Memphis    










 
 
 
     



 
    
    
    Seti I War Scenes - 
      	Hypostyle
      	 - University of Memphis
    
    
    
    
    
    
    
    
    
    
    
    
    
    
    
    
    
    
    
    
    
    
    
    
    
   
   
   






   
   
   
    
    
 
 
   
   
   
   
 
    
   
   
    
      
      
          
     
    
       
          
             
                
				    
					     
                   
      
                
                
                    
                
                
                   
                      
                         
                            
                               
                                   Lambuth Campus  
                                   myMemphis  
                                   Webmail  
                                   Faculty   Staff  
                                   Contact  
                                   Directories  
                               
                            
                            
                               Search 
                               
							   
							      
						 Site Index 
                            
                             
                         
                      
                   
                   
                      
                         
                            
                                Academics    
                                  
                                      Academics Overview  
                                      Colleges   Schools  
                                      Undergraduate Catalog  
                                      Graduate Catalog  
                                      Honors Program  
								      UofM Global  
                                  
                               
                                Admissions    
                                  
                                      Admissions Information  
                                      Undergraduate Students  
                                      Graduate Students  
                                      Law Students  
                                      International Students  
                                  
                               
                                Athletics    
                                  
                                      Tiger Athletics  
                                      Ticket Information  
                                      Intramurals  
                                      Make A Gift  
                                      Rec Center  
                                      gotigersgo.com  
                                  
                               
                                Research    
                                  
                                      Research   Sponsored Programs  
                                      Research Resources  
                                      Centers/Chairs of Excellence  

                                      Centers and Institutes  
									  FedEx Institute of Technology  
                                      electronic Research Administration (eRA)  
									  Office of Institutional Research  
                                  
                               
                                Support UofM    
                                  
                                      Development  
                                      Make a Gift  
                                      Alumni Association  
                                      Athletics Development  
                                  
                               
                                Libraries    
                                  
                                      University Libraries  
                                      Libraries Resources  
                                      Libraries Services  
                                      Special Collections  
                                      Ask a Librarian  
                                  
                               
                            
                         
                      
                   
                
             
             
                
                   
                      Resources for... 
                      
                          Prospective Students  
                          Current and Returning Students  
                          Parents  
                          Alumni  
                          Veterans  
                      
                       Expand Menu  
                   
				   			   
                
             
          
       
    
          
      
          
    
       
          
             
                
                   
                       
                           			The Karnak Great Hypostyle Hall Project
                           	 
                          
                   
                
             
          
       
       
          
             
                
                   
                      
                          About Hypostyle  
                          Meaning   Function  
                          Reliefs   Inscriptions  
                          The Project  
                      
                      
                         
                            Historical Tour of the Hypostyle Hall   
                            
                               
                                  
                                   Entrance  
                                   Great Columns  
                                   Smaller Columns  
                                   Second Pylon  
                                   Ramesses II War Scenes  
                                   North Gateway  
                                   Seti I War Scenes  
                                   Clerestory and Roof  
                                   Third Pylon  
                                   Loose Blocks  
                                   Interior Wall Scenes  
                                   Constructing the Hypostyle Hall  
                               
                            
                         
                      
                   
                
             
          
          
             
                
                   
                      
                          Home  
                          
                              	Hypostyle
                              	  
                          
                              	Tour
                              	  
                         Seti I War Scenes 
                      
                   
                   
                       
                      
                     
                     		
                     
                     
                      War Scenes of Seti I  
                     
                      
                        
                         
                           
                            
                              
                                
                              
                               
                                 
                                  The whole northern exterior wall of the Karnak Hypostyle Hall is filled with a panorama
                                    of war scenes celebrating the military achievements of Seti I. The first of the great
                                    Ramesside war monuments, they set the artistic standard for Seti's predecessors, but
                                    their superb style and composition were never equaled.
                                  
                                 
                                    
                                 
                                    
                                 
                                  
                                    
                                     
                                       
                                        
                                          
                                            Diagrams of the eastern and western wings of the Sety I war scenes on the north exterior
                                                wall of the Great Hypostyle Hall. Battle episodes are in red, non-battle episodes
                                                are blue. The year one campaign in Sinai, Canaan and Lebanon (east wing) had much
                                                less fighting than the kings later campaigns in Syria and Libya (west wing).  
                                          
                                        
                                       
                                     
                                    
                                  
                                 
                                    
                                 
                                  The war scenes are our main source for Egypt's foreign relations during Seti's reign.
                                    The scenes are laid out in a symmetrical form on either side of the north gateway.
                                  
                                 
                                  
                                    
                                     
                                       
                                        
                                          
                                             
                                          
                                        
                                       
                                        
                                          
                                            The war scenes of Seti I are carved on the north exterior wall of the Great Hypostyle
                                                Hall. Here the king battles the Libyans.  
                                          
                                        
                                       
                                     
                                    
                                  
                                 
                                  On both sides of the north gate are two huge scenes of the triumphant king smiting
                                    a group of prisoners with his mace in the presence of the god Amen-Re. The text above
                                    them is purely rhetorical. Of genuine historical interest are the two extensive lists
                                    of foreign place names. These are arranged in groups, each consisting of an oval with
                                    the upper body of a bound enemy prisoner emerging from the ovals. Inside the ovals--
                                    which are not royal cartouches-- are the names of cities and countries in Western
                                    Asia and in Nubia.
                                  
                                 
                                  Some of the names are copied from earlier lists, others are original an may reflect
                                    the range of Seti's military campaigns. At some point, the Nubian names were replaced
                                    with locations in Syria perhaps reflecting the king's later wars there.
                                  
                                 
                                  
                                    
                                     
                                       
                                        
                                          
                                             
                                          
                                        
                                       
                                        
                                          
                                            A triumphal scene of Sety I slaying enemy prisoners.  
                                          
                                        
                                       
                                     
                                    
                                  
                                 
                                  The eastern half of the north wall is dedicated to Seti I's campaign in his first
                                    year as king. The rhetorical texts claim that pharaoh received a report that:
                                  
                                 
                                  "The Shasu-bedouin are plotting rebellion. Their chiefs have gathered together in
                                    the hills of Kharu (= Syria-Palestine). They have fallen into chaos and are fighting
                                    and each one is slaying the other. They do not obey the laws of the Palace!"
                                  
                                 
                                  In response, Seti lead his army into Palestine across the north coast of the Sinai
                                    and into Gaza. This route was called "the Ways of Horus" by the Egyptians and it was
                                    a fortified military highway with a series of forts, each with a well. Recently, Egyptian
                                    archaeologists have discovered the site of the first and most important of these fortresses,
                                    the border town of Tcharu at the north-east corner of the Nile Delta.
                                  
                                 
                                  
                                    
                                     
                                       
                                        
                                          
                                             
                                          
                                        
                                       
                                        
                                          
                                            Shasu bedouin try to flee Seti's attack by running toward the town of Canaan on a
                                                hill. At the top, two men break their weapons as a sign of surrender. a third man
                                                waves his arms in submission.  
                                          
                                        
                                       
                                     
                                    
                                  
                                 
                                  After fighting a running battle with Shasu Bedouin who were never a serious threat
                                    to pharaoh's army, Seti arrived in Gaza and began the main part of his campaign of
                                    year one progressing north through Canaan all the way into Lebanon.
                                  
                                 
                                  After defeating the Shasu, the only real fighting shown was the attack on a town called
                                    Yenoam in Palestine. From two stelae the king left at Beth Shan, we know that he split
                                    his army into three divisions and sent them against the towns of Hamath and Beth Shan,
                                    presumably leading the third against Yenoam in person. These battles were won "in
                                    the space of one day" and must have been easy victories.
                                  
                                 
                                  
                                    
                                     
                                       
                                        
                                          
                                             
                                          
                                        
                                       
                                        
                                          
                                            Seti I attacks the town of Yenoam in Canaan.  
                                          
                                        
                                       
                                     
                                    
                                  
                                 
                                  There are scenes devoted to the presentation of booty and prisoners to the god Amen-Re.
                                    The caption over one reads:
                                  
                                 
                                  "Presentation of tribute by His Majesty to his father Amen...consisting of silver,
                                    gold, lapis-lazuli, turquoise, red jasper and every sort of precious stone. The chiefs
                                    of the hill countries are in his grasp to fill the workshops of his father Amen."
                                  
                                 
                                  The hieroglyphic texts also record speeches by the god praising the king for his actions
                                    and gifts:
                                  
                                 
                                  "Welcome in peace. I make you victorious over every foreign land and set fear of you
                                    in the heart of the Nine Bows (= all foreign countries). Their chiefs come to you
                                    their tribute on their backs!"
                                  
                                 
                                  
                                    
                                     
                                       
                                        
                                          
                                             
                                          
                                        
                                       
                                        
                                          
                                            Sety I presents Canaanite prisoners and booty to the Theban Triad of Amun-Re, Mut
                                                and Khonsu at the temple of Karnak.  
                                          
                                        
                                       
                                     
                                    
                                  
                                 
                                  The war reliefs are arranged in three levels or registers of scenes. Unfortunately,
                                    nothing of of the top register on the east side survives. We do not know if it contained
                                    additional events of the year one campaign or an entirely different war, perhaps in
                                    Nubia.
                                  
                                 
                                  The western side of the north wall is dedicated to Seti I's later wars further north
                                    in Syria and to a battle with the Libyans on Egypt's north-west border.
                                  
                                 
                                  Only one scene from the top register survives, but fortunately it is the most important
                                    historically. Seti is shown attacking the Syrian town of Kadesh in the land of Amurru.
                                    Amurru was a costal kingdom in northern Lebanon and southern Syria. It has been in
                                    Egypt's possession several decades earlier, but was lost during the reign of Akhenaten
                                    when the Hittite Emperor Suppiluliuma captured it.
                                  
                                 
                                  
                                    
                                     
                                       
                                        
                                          
                                             
                                          
                                        
                                       
                                        
                                          
                                            "That vile town of Kadesh." Detail from the War scenes. On the ramparts of the citadel,
                                                the citizens despair in the face of defeat.   
                                          
                                        
                                       
                                     
                                    
                                  
                                 
                                  Kadesh seems to have been an obsession for Egyptian pharaohs of the New Kingdom. Egypt
                                    fought against the Hittite empire for nearly a century in order to regain its former
                                    northern border territory. Before Seti, two Egyptian attempts to regain Kadesh had
                                    failed including one at the very time Tutankhamen died. Later, Seti's son made his
                                    own failed bid to recapture Kadesh in year five, less than a decade after Seti's Kadesh
                                    campaign.
                                  
                                 
                                  Seti I, however, succeeded where other pharaohs did not. We know that he captured
                                    Kadesh, because of a victory stela in his name that was found there by French archaeologists.
                                    But Seti's victory did not last. Within a short time, Kadesh once again became part
                                    of the Hittite Empire, and Ramesses II would have to make another failed bid to claim
                                    it for Egypt.
                                  
                                 
                                  
                                    
                                     
                                       
                                        
                                          
                                             
                                          
                                        
                                       
                                        
                                          
                                           Seti I attacks the town of Kadesh in Syria 
                                          
                                        
                                       
                                     
                                    
                                  
                                 
                                  Despite these military setbacks, the pharaohs of the New Kingdom should be given credit
                                    for their accomplishments. Coastal Syria was hundreds of kilometers north of Egypt's
                                    border, yet for generations, Egypt was able to project its military might far beyond
                                    the homeland, sending armies overland and even by sea up the Levant coast. An Egyptian
                                    army in Amurru was a long way from home. The Hittites, based in eastern Turkey, were
                                    on their front doorstep.
                                  
                                 
                                  Seti probably faced a smaller, local force at Kadesh. In his next war, his foe was
                                    the Hittite imperial army. As before, however, Seti I's army was the victor. His forces
                                    even killed the king of Carcamish, a Hittite royal prince who ruled Syria on his father's
                                    behalf.
                                  
                                 
                                  Unfortunately for Seti, the Hittites still had the upper hand. Once pharaoh and his
                                    armies went home, only a small garrison of Egypitan soldiers was left behind. The
                                    Hittites quickly recovered their losses in Amurru.
                                  
                                 
                                  
                                    
                                     
                                       
                                        
                                          
                                             
                                          
                                        
                                       
                                        
                                          
                                            The Egyptian and Hittite Empires during the reign of Sety I 
                                          
                                        
                                       
                                     
                                    
                                  
                                 
                                  The final episode in Seti I's war scenes is found on the middle register on the west
                                    side, between the Kadesh campaign at the top and the Hittite campaign at the base
                                    of the wall.
                                  
                                 
                                  These reliefs are especially well preserved and show off the artistry of pharaoh's
                                    sculptors well. In one scene, the king skewers a Libyan chief with a javelin with
                                    one foot placed over the cab of his chariot, resting on the pole connecting it to
                                    the horses! Needless to say, a great deal of artistic license is involved.
                                  
                                 
                                    
                                 
                                  
                                    
                                     
                                       
                                        
                                          
                                            Returning from his "first campaign of victory," Sety I marches prisoners to the Egyptian
                                                border fortress at the town of Tcharu (Tell Hebua). A canal filled with crocodiles
                                                divides the two sides of Tcharu. Egyptian archaeologists have discovered both of the
                                                Tcharu fortress complexes during recent excavations.  
                                          
                                        
                                       
                                     
                                    
                                  
                                 
                                  Seti's victory over the Libyans was the first of a series of wars on that front during
                                    the 19th and 20th Dynasties. His grandson Merenptah and later Ramesses III would face
                                    increasingly larger forces of Libyan invaders.
                                  
                                 
                                  
                                    
                                     
                                       
                                        
                                          
                                             
                                          
                                        
                                       
                                        
                                          
                                            Seti I leads Libyan prisoners back to Egypt.  
                                          
                                        
                                       
                                     
                                    
                                  
                                 
                                  Everywhere in Seti's war reliefs, it is the king alone who defeats the enemy single-handed.
                                    The Egyptian army is nowhere to be seen. Except for a welcoming delegation of officials
                                    and priests, only one other Egyptian appears. A small figure stands behind the pharaoh
                                    in some of the battle scenes.
                                  
                                 
                                    
                                 
                                  
                                    
                                     
                                       
                                        
                                          
                                            During a stop in Lebanon, Sety I forces the chiefs of Lebanon to cut down cedar trees.  
                                          
                                        
                                       
                                     
                                    
                                  
                                 
                                  Texts identify this person as none other than Crown Prince Ramesses! But even the
                                    casual observer will note that something strange is going on in these reliefs. There
                                    is clearly another figure with a different name over which Ramesses II later carved
                                    his own name and image.
                                  
                                 
                                  For decades, it was thought that this shadowy figure was a disgraced or even a murdered
                                    elder brother of Ramesses. The Epigraphic Survey discovered the truth. The man was
                                    a military officer named Mehy. Mehy was only a mid-level officer, but he bore high
                                    honorific titles. Like Prince Ramesses figure, his figure had been added after the
                                    war scenes were completed. Who he really was and why he is there remain a mystery.
                                  
                                 
                                  
                                    
                                     
                                       
                                        
                                          
                                             
                                          
                                        
                                       
                                        
                                          
                                            A palimpsest relief in which a figure of the military officer Mehy was replaced with
                                                an image of Crown Prince Ramesses, the future Ramesses II.  
                                          
                                        
                                       
                                     
                                    
                                  
                                 
                               
                              
                            
                           
                         
                        
                      
                     
                     
                     	
                      
                   
                
                
                   
                      
                         Historical Tour of the Hypostyle Hall 
                         
                            
                               
                                Entrance  
                                Great Columns  
                                Smaller Columns  
                                Second Pylon  
                                Ramesses II War Scenes  
                                North Gateway  
                                Seti I War Scenes  
                                Clerestory and Roof  
                                Third Pylon  
                                Loose Blocks  
                                Interior Wall Scenes  
                                Constructing the Hypostyle Hall  
                            
                         
                      
                      
                      
                         
                            
                                Welcome to the Karnak Great Hypostyle Hall Project!  
                               In antiquity, Karnak was the largest religious sanctuary in Egypt's imperial capital
                                 of Thebes (modern Luxor) and was home to the god Amun-Re, king of the Egyptian pantheon.
                               
                            
                            
                                About the Architecture  
                               Who designed the Hypostyle Hall and why did they do it? Read about how Sety I and
                                 his architects built this magnificent structure between two pylon gateways which once
                                 served as the front entrance to Karnak Temple. 
                               
                            
                            
                                Tour the Hall  
                               The Hypostyle Hall is thousands of miles away -- but you can tour entire structure
                                 without leaving your seat! Click here to begin a virtual tour of the historic Hypostyle
                                 Hall. 
                               
                            
                            
                                Epigraphy Methods  
                               "Why don't you just take a photograph?" Why traditional photography is not the most
                                 scientifically reliable method of recording.
                               
                            
                         
                      
                      
                      
                   
                   
                
                
             
             
          
          
       
    
    
    
      
      
       
 
    
       
          
             
                 Full sitemap   
             
             
                
                   
                      Admissions 
                      
                         
                             Prospective Students  
                             Undergraduate  
                             Graduate  
                             Law School  
                             International  
                             Parents  
                             Scholarship   Financial Aid  
                             Tuition   Fee Payment  
                             FAQs  
                             About UofM  
                         
                      
                   
                   
                      Academics 
                      
                         
                             Provost's Office  
                             Libraries  
                             Transcripts  
                             Undergraduate Catalog  
                             Graduate Catalog  
                             Academic Calendars  
                             Course Schedule  
                             Financial Aid  
                             Graduation  
                             Honors Program  
						     eCourseware  
                         
                      
                   
                   
                      Athletics 
                      
                         
                             Gotigersgo.com  
                             Ticket Information  
                             Intramural Sports  
                             Recreation Center  
                             Athletic Academic Support  
                             Former Tigers  
                             Facilities  
                             Tiger Scholarship Fund  
                             Media  
                         
                      
                   
				    
                   
                      Research 
                      
                         
                             Sponsored Programs  
                             Research Resources  
                             Centers   Institutes  
                             Chairs of Excellence  
                             FedEx Institute of Technology  
                             Libraries  
                             Grants Accounting  
                             Environmental Health  
                             Office of Institutional Research  
                         
                      
                   
                   
                      Support UofM 
                      
                         
                             Make a Gift  
                             Alumni Association  
                             Year of Service  
                         
                      
                   
                   
                      Administrative Support 
                      
                         
                             President's Office  
                             Academic Affairs  
                             Business   Finance  
                             Career Opportunities  
                             Conference   Event Services  
                             Corporate Partnerships  
  Development Office  
                             Government Relations  
                             Information Technology Services  
                             Media and Marketing  
                             Student Affairs  
                         
                      
                   
                
             
          
          
             
				    
                  
                
             
             
                   
                  
                
             
             
                
                   Follow UofM Online 
                     UofM Facebook     UofM Twitter     UofM YouTube   
                    
                   
                     UofM Instagram     UofM Pinterest     UofM LinkedIn   
                
             
              
                   
                      
                   
                
      
          
       
    
 
 
      
      
      
       
          
             
                
                   
                      
                         
                            
                               
                                 
                                 
                                  
  Print  
  Got a Question? Ask TOM  
  Copyright © 2017 University of Memphis  
  Important Notice  
                                  
                                 
                                 
                                  
                                     Last Updated: 11/3/17 
                                  
                                 
                                 
                                  
  University of Memphis  
 Memphis, TN 38152 
 Phone: 901.678.2000 
 
  
 The University of Memphis does not discriminate against students, employees, or applicants for admission or employment on the basis of race, color, religion, creed, national origin, sex, sexual orientation, gender identity/expression, disability, age, status as a protected veteran, genetic information, or any other legally protected class with respect to all employment, programs and activities sponsored by the University of Memphis. The Office for Institutional Equity has been designated to handle inquiries regarding non-discrimination policies. For more information, visit  University of Memphis Equal Opportunity and Affirmative Action .  
Title IX of the Education Amendments of 1972 protects people from discrimination based on sex in education programs or activities which receive Federal financial assistance. Title IX states: "No person in the United States shall, on the basis of sex, be excluded from participation in, be denied the benefits of, or be subjected to discrimination under any education program or activity receiving Federal financial assistance..." 20 U.S.C. § 1681 - To Learn More, visit  Title IX and Sexual Misconduct .
 
 
                                 
                                 
                                 
                               
                            
                         
                      
                   
                
             
          
       
    
   
   
   
   
   
   
 



 


