Instructional Leadership Licenses - TEP - University of Memphis    










 
 
 
     



 
    
    
    Instructional Leadership Licenses - 
      	TEP
      	 - University of Memphis
    
    
    
    
    
    
    
    
    
    
    
    
    
    
    
    
    
    
    
    
    
    
    
    
    
   
   
   






   
   
   
    
    
    
    
    
    
    
    
    
    
    
 
 
   
   
   
   
 
    
   
   
    
      
      
          
     
    
       
          
             
                
				    
					     
                   
      
                
                
                    
                
                
                   
                      
                         
                            
                               
                                   Lambuth Campus  
                                   myMemphis  
                                   Webmail  
                                   Faculty   Staff  
                                   Contact  
                                   Directories  
                               
                            
                            
                               Search 
                               
							   
							      
						 Site Index 
                            
                             
                         
                      
                   
                   
                      
                         
                            
                                Academics    
                                  
                                      Academics Overview  
                                      Colleges   Schools  
                                      Undergraduate Catalog  
                                      Graduate Catalog  
                                      Honors Program  
								      UofM Global  
                                  
                               
                                Admissions    
                                  
                                      Admissions Information  
                                      Undergraduate Students  
                                      Graduate Students  
                                      Law Students  
                                      International Students  
                                  
                               
                                Athletics    
                                  
                                      Tiger Athletics  
                                      Ticket Information  
                                      Intramurals  
                                      Make A Gift  
                                      Rec Center  
                                      gotigersgo.com  
                                  
                               
                                Research    
                                  
                                      Research   Sponsored Programs  
                                      Research Resources  
                                      Centers/Chairs of Excellence  

                                      Centers and Institutes  
									  FedEx Institute of Technology  
                                      electronic Research Administration (eRA)  
									  Office of Institutional Research  
                                  
                               
                                Support UofM    
                                  
                                      Development  
                                      Make a Gift  
                                      Alumni Association  
                                      Athletics Development  
                                  
                               
                                Libraries    
                                  
                                      University Libraries  
                                      Libraries Resources  
                                      Libraries Services  
                                      Special Collections  
                                      Ask a Librarian  
                                  
                               
                            
                         
                      
                   
                
             
             
                
                   
                      Resources for... 
                      
                          Prospective Students  
                          Current and Returning Students  
                          Parents  
                          Alumni  
                          Veterans  
                      
                       Expand Menu  
                   
				   			   
                
             
          
       
    
          
      
          
    
       
          
             
                
                   
                       
                           			Office of Teacher Education and Student Support Services
                           	 
                          
                   
                
             
          
       
       
          
             
                
                   
                      
                          Admission to TEP  
                          Advising  
                          Clinical Practice  
                          Graduation  
                          Teacher Licensure  
                      
                      
                         
                            Teacher Licensure   
                            
                               
                                  
                                   Practitioner (Initial) Teaching License  
                                   Job Embedded Practitioner (JEP) Teaching License  
                                   Practitioner School Services Personnel License  
                                   Add-on Endorsement to an Existing License  
                                   Instructional Leadership Licenses  
                                   Licensure Areas Offered at the University of Memphis  
                               
                            
                         
                      
                   
                
             
          
          
             
                
                   
                      
                          Home  
                          
                              	TEP
                              	  
                          
                              	Teacher Licensure
                              	  
                         Instructional Leadership Licenses 
                      
                   
                   
                       
                      
                     
                     		
                     
                     
                      Instructional Leadership Licenses 
                     
                      The University of Memphis assists in the licensing of school-based administrators
                        in the State of Tennessee. An applicant may apply for the Instructional Leadership
                        License - Aspiring (ILL-A) or the Instructional Leadership License - Beginning (ILL-B)
                        according to the following criteria. For more information on these licenses please
                        contact the  Leadership Department  or at 901-678-2369.
                      
                     
                      Instructional leadership license - aspiring (ill-a) 
                     
                      The Instructional Leadership License - Aspiring (ILL-A) is an administrator license,
                        valid for five years, that is issued to applicants who hold a bachelor's degree and
                        are enrolled in an instructional leadership preparation program approved by the State
                        Board of Education. The ILL-A may not be renewed.
                      
                     
                      In order to be issued an Instructional Leadership License - Aspiring, the following
                        requirements must be met:
                      
                     
                      
                        
                         At minimum, the applicant must hold a bachelor's degree from a regionally-accredited
                           college or university.
                         
                        
                         The applicant must be enrolled in an approved instructional leadership preparation
                           program and be recommended for licensure by that provider.
                         
                        
                         The applicant must ensure that the department has on file official transcripts of
                           all credits earned through an institution of higher education. The transcript must
                           have the school seal and/or a signature of the registrar.
                         
                        
                      
                     
                      Instructional Leadership License - beginning (ill-b) 
                     
                      The Instructional leadership License - Beginning (ILL-B) is an administrator license,
                        valid for five years, that is issued to applicants who hold a bachelor's degree, have
                        completed an instructional leadership preparation program approved by the State Board
                        of Education, and have submitted passing scores on the required content assessment.
                        The ILL-B may be renewed.
                      
                     
                      In order to be issued an Instructional Leadership License - Beginning, the following
                        requirements must be met:
                      
                     
                      
                        
                         A minimum, the applicant must hold a bachelor's degree forma regionally-accredited
                           college or university.
                         
                        
                         The applicant must have completed an approved instructional leadership preparation
                           program and be recommended for licensure by that provider.
                         
                        
                         The applicant must meet all requirements regarding assessments and qualifying scores
                           as specified by the State Board of Education rules or policy.
                         
                        
                         The applicant must ensure that the department has on file official transcripts of
                           all credits earned through an institution of higher education. The transcript must
                           have the school seal and/or a signature of the registrar.
                         
                        
                      
                     
                       NOTE: In order to apply for either the ILL-A or ILL-B, please fill out the  Instructional Leadership Form and submit to the Leadership Department.   
                     
                        
                     
                     
                     	
                      
                   
                
                
                   
                      
                         Teacher Licensure 
                         
                            
                               
                                Practitioner (Initial) Teaching License  
                                Job Embedded Practitioner (JEP) Teaching License  
                                Practitioner School Services Personnel License  
                                Add-on Endorsement to an Existing License  
                                Instructional Leadership Licenses  
                                Licensure Areas Offered at the University of Memphis  
                            
                         
                      
                      
                      
                         
                            
                                Praxis Exams  
                               Test dates, state requirements and study help.                             
                            
                            
                                edTPA  
                               Information about submission and score reporting dates, and more. 
                            
                            
                                Ready2Teach  
                               Tennessee Board of Regents Teacher Education Program 
                            
                            
                                Scholarships   Awards  
                               A list of scholarships   awards available at all levels of the TEP. 
                            
                         
                      
                      
                      
                   
                   
                
                
             
             
          
          
       
    
    
    
      
      
       
 
    
       
          
             
                 Full sitemap   
             
             
                
                   
                      Admissions 
                      
                         
                             Prospective Students  
                             Undergraduate  
                             Graduate  
                             Law School  
                             International  
                             Parents  
                             Scholarship   Financial Aid  
                             Tuition   Fee Payment  
                             FAQs  
                             About UofM  
                         
                      
                   
                   
                      Academics 
                      
                         
                             Provost's Office  
                             Libraries  
                             Transcripts  
                             Undergraduate Catalog  
                             Graduate Catalog  
                             Academic Calendars  
                             Course Schedule  
                             Financial Aid  
                             Graduation  
                             Honors Program  
						     eCourseware  
                         
                      
                   
                   
                      Athletics 
                      
                         
                             Gotigersgo.com  
                             Ticket Information  
                             Intramural Sports  
                             Recreation Center  
                             Athletic Academic Support  
                             Former Tigers  
                             Facilities  
                             Tiger Scholarship Fund  
                             Media  
                         
                      
                   
				    
                   
                      Research 
                      
                         
                             Sponsored Programs  
                             Research Resources  
                             Centers   Institutes  
                             Chairs of Excellence  
                             FedEx Institute of Technology  
                             Libraries  
                             Grants Accounting  
                             Environmental Health  
                             Office of Institutional Research  
                         
                      
                   
                   
                      Support UofM 
                      
                         
                             Make a Gift  
                             Alumni Association  
                             Year of Service  
                         
                      
                   
                   
                      Administrative Support 
                      
                         
                             President's Office  
                             Academic Affairs  
                             Business   Finance  
                             Career Opportunities  
                             Conference   Event Services  
                             Corporate Partnerships  
  Development Office  
                             Government Relations  
                             Information Technology Services  
                             Media and Marketing  
                             Student Affairs  
                         
                      
                   
                
             
          
          
             
				    
                  
                
             
             
                   
                  
                
             
             
                
                   Follow UofM Online 
                     UofM Facebook     UofM Twitter     UofM YouTube   
                    
                   
                     UofM Instagram     UofM Pinterest     UofM LinkedIn   
                
             
              
                   
                      
                   
                
      
          
       
    
 
 
      
      
      
       
          
             
                
                   
                      
                         
                            
                               
                                 
                                 
                                  
  Print  
  Got a Question? Ask TOM  
  Copyright © 2017 University of Memphis  
  Important Notice  
                                  
                                 
                                 
                                  
                                     Last Updated: 11/4/17 
                                  
                                 
                                 
                                  
  University of Memphis  
 Memphis, TN 38152 
 Phone: 901.678.2000 
 
  
 The University of Memphis does not discriminate against students, employees, or applicants for admission or employment on the basis of race, color, religion, creed, national origin, sex, sexual orientation, gender identity/expression, disability, age, status as a protected veteran, genetic information, or any other legally protected class with respect to all employment, programs and activities sponsored by the University of Memphis. The Office for Institutional Equity has been designated to handle inquiries regarding non-discrimination policies. For more information, visit  University of Memphis Equal Opportunity and Affirmative Action .  
Title IX of the Education Amendments of 1972 protects people from discrimination based on sex in education programs or activities which receive Federal financial assistance. Title IX states: "No person in the United States shall, on the basis of sex, be excluded from participation in, be denied the benefits of, or be subjected to discrimination under any education program or activity receiving Federal financial assistance..." 20 U.S.C. § 1681 - To Learn More, visit  Title IX and Sexual Misconduct .
 
 
                                 
                                 
                                 
                               
                            
                         
                      
                   
                
             
          
       
    
   
   
   
   
   
   
 



 


