Browse By Tag - LibGuides at University of Memphis Law Library</title> <style> #container { background: url('http://lgimages.s3.amazonaws.com/bg_page_white.gif') repeat-x; background-color:#FFFFFF; } #catlist li { padding-bottom:10px; } .tag_reg { display:inline; } .headerbox { background-image:url("//lgimages.s3.amazonaws.com/boxhead-blueshade.gif"); } .headerbox h2, .helpdesc { color: #666666; }.outerbox { background-color:#ffffff; } </style> <script type="text/javascript" src="/js/dojo-161/dojo/dojo.js" djConfig="parseOnLoad: true"></script> <script type="text/javascript" src="//code.jquery.com/jquery-1.7.min.js"></script> <script type="text/javascript" src="/include/lang.php"></script> <script type="text/javascript" src="/js112b/lgpublic.min.js"></script> <title>Memphis School of Law: ResearchGuides  
 
 
	 
		
		 
		 
		 
		        
		 
         
        
		 Browse By Tag - LibGuides at University of Memphis Law Library 
		
        
		
        
        	
        
		
         Memphis School of Law: ResearchGuides 

	 
	
     
		 
			 
				
				
	
		   
		   
					 
						 Admin Sign In
						 
					  
		 
			 
				 Library 
				   
			 
			
			 
				 LibGuides 
			 
		 
		
	 
                 LibGuides - Browse By Tag 
                 Choose a tag for a list of related guides.  
				
                 
					 
						
		 
			 
				 
				 Search Text 
				 Search Type 
				 
					 
						 
							 
								  Search: 
							 
						 
						 
							 
								  
							 
						 
						 
							 
								 
									
                All Guides 
               
								 
							 
						 
						 
							 
								 Search 
							 
						 
					 
				 
			 
		 					 
				 
                
				 
                     
                    	
			 
				 
					 Browse By Tag 
				 
				    1l    adr    advocacy    appellate advocacy    arbitration    attorneys    bar exam    child support    choosing a paper topic    church    civil    civil marriage    contracts    cost-effective legal research    court    courts    equality of descent    etiquette    executive branch    family law    federal courts    federal government    foreign law    hispanic    holiday    human rights    inter-library loans    international    international law    judicial branch    law journal    law review    lectern    library    library privileges    library resources    library services    marketing    mass incarceration    massachusetts    mediation    mpre    mpt    negotiation    oral argument    perc    personal research consultation    plymouth    pre-trial advocacy    preemption checks    prison conditions    project mi memphis    robert burns    salem    scut farkus    state    state constitution    study    tennessee    tennessee constitution    tennessee courts    tennessee executive resources    tennessee government    tennessee legislative resources    treaties    treatment    trial advocacy    ube    united nations    veterans    volunteer    workers compensation   
				 
			                      
    
                     
                                             
                    
                     
                    	 
                   	 
                    
                     
				 
                
				
 
	 
    	Powered by  Springshare ; All rights reserved. 
    	 
        	 Report a tech support issue .      	 
  	 
	
	 

  
	   
			 
		 
	 
 