Tracking grades with User Progress | Desire2Learn Resource Center   
 
 
 
 
   
 
 
 
 
 
 
 
 
 
 
 
 
 
 
 Tracking grades with User Progress | Desire2Learn Resource Center 






 

 
 
 
 
 

 

 

 





 
 
 
   
     Skip to main content 
   
     
   

           
         
              
       Main menu 
  
     Home    Accessibility    Capture    ePortfolio    Ideas Library    Insights    Integrations    Learning Environment    Learning Repository   
             
       
    
     
       

         

                       

                               
                                      
              
                               

                                        Desire2Learn Resource Center  
                  
                  
                 
              
             
          
                
       Select your language 
  
      
   English  Português  Español  Français  
 
 
 
 
 
 
 
 
 
   
      
         

       
     

    
    
    
     
       

         
           

             
               

                
                 

                  
                   
                     

                      
                       You are here    Home    »    Learning Environment    »    Grades    »    Managing users  grades   
                      
                      
                      
                      
                       
                           
  
   
   

    
               

                   
                          Tracking grades with User Progress                       
        
        
       
        
     
              
	The User Progress tool enables you to view statistics on a specific user’s use of Learning Environment. Click    User Progress  on the navbar to navigate to the Class Progress page. If the Grades Progress Indicator does not display, click    Settings  to change which progress indicators display. To view grades for individual users, click on the user's name to navigate to their individual User Progress page. For more information, see  User Progress .
 
     Audience:     Instructor       

    
           

                   ‹ Accessing the Grades event log 
        
                   up 
        
                   Creating a formula in the Grades Formula Editor › 
        
       
    
   
     

              Printer-friendly version    
    
    
   
 

                          

                      
                     
                   

                 

                      
  
    
	    Copyright © 1999-2013 Desire2Learn Incorporated. All rights reserved.
 
 
      
               
             

                  
        Grades  
  
      Finding my grades    Creating grade book    Creating grade items and grade book categories    Managing grade items and grade book categories    Managing grade schemes    Managing users  grades    Entering grades    Importing and exporting grades    Using the Milestone Grade Calculation for calculated grade items    Accessing the Grades event log    Tracking grades with User Progress    Creating a formula in the Grades Formula Editor      Managing final grades    Changing Grades settings and display options    
                  
           
         

       
     

    
    
    
   
 
   
 
