September | 2017 | University of Memphis Libraries   
 
 
 
 
 September | 2017 | University of Memphis Libraries 
 
 
 
 
 
 
		
		
 
 
 
 
 
 
 
 
 
 




 
 
  
 

			

         



 

 
 
	 Skip to content 
		 
				 
						  University of Memphis Libraries  
			 News and Events 
		 

		 
			 Menu 
			  
  Home    
		  
	  

	 
			 
			 Home   2017   September 		 
		 
		 

		
			 
				 
					Month:  September 2017 				 
							  

						
				
 
	 
		 
					  Banned Books Week  
								 
								   September 25, 2017       khggerty   
															  Uncategorized  					
												  
					  

				 
			             Celebrate Banned Books Week at the University Libraries. Banned books will be on display on the first floor of McWherter Library through September 29th! 
     
					  
		
		 
						  Leave a comment  
			
					  
	  
 
			
				
 
	 
		 
					  Wii U Games!  
								 
								   September 19, 2017  September 19, 2017       khggerty   
															  Uncategorized  					
												  
					  

				 
			             New Wii U Games   controllers available at McWherter Library including Legend of Zelda: Breadth of Wind 
     
					  
		
		 
						  Leave a comment  
			
					  
	  
 
			
				
 
	 
		 
					  NEDxStudents  
								 
								   September 14, 2017       khggerty   
															  Uncategorized  					
												  
					  

				 
			                 
   
  Sign up by Friday, October 13:  goo.gl/Bwgyvd . Questions? Email  nedtalksmemphis@gmail.com.    
					  
		
		 
						  Leave a comment  
			
					  
	  
 
			
				
 
	 
		 
					  Enjoy MetOpera on Demand through October 5th!  
								 
								   September 6, 2017       khggerty   
															  Uncategorized  					
												  
					  

				 
			                 
					  
		
		 
						  Leave a comment  
			
					  
	  
 
			
			
		
		  
	  

					 
					 		 Recent Posts 		 
					 
				 3D Printing Workshop 
						 
					 
				 NedXStudents 
						 
					 
				 Craft-n-Chat 
						 
					 
				 Bridging East and West: The First Steel Bridge of Memphis 
						 
					 
				 Banned Books Display 
						 
				 
		 		  Archives 		 
			  November 2017  
	  October 2017  
	  September 2017  
	  August 2017  
	  June 2017  
	  May 2017  
	  April 2017  
	  March 2017  
	  February 2017  
	  January 2017  
	  December 2016  
	  April 2016  
	  February 2016  
	  September 2015  
	  May 2015  
	  April 2015  
	  March 2015  
	  February 2015  
	  January 2015  
	  December 2014  
	  November 2014  
	  October 2014  
	  September 2014  
	  August 2014  
	  May 2014  
	  April 2014  
	  March 2014  
	  February 2014  
	  January 2014  
		 
		   Categories 		 
	  Alerts 
 
	  Branch Libraries 
 
	  Events 
 
	  Exhibition 
 
	  Homepage 
 
	  News 
 
	  Research and Instructional Services 
 
	  Special Collections 
 
	  Trial Resources 
 
	  Uncategorized 
 
		 
   Meta 			 
						  Log in  
			  Entries  RSS   
			  Comments  RSS   
			  blogs.memphis.edu  
						 
 		  
	
	  

	 
		 
			 
								 Proudly powered by WordPress 
				  |  
				Theme: Big Brother by  WordPress.com .			  
					  
	  
  


 

        

        			 
				   Subscribe  
				 

					
						 Follow this blog 

						 
							
															 Get every new post delivered right to your inbox. 
							
							 
								 
							 
							
							 
							 
							
							  							   
						 

					
				 
			 
		






		 
							 Skip to toolbar 
						 
				 
		  University of Memphis   
		  University Home 		 
		  Memphis Blogs 		 
		  Blogging Help 		   		 
		  Log In 		   
		     Search    		  			 
					 

		
 
 