Departments and Divisions Contact Information - CAS - University of Memphis    










 
 
 
     



 
    
    
    Departments and Divisions Contact Information - 
      	CAS
      	 - University of Memphis
    
    
    
    
    
    
    
    
    
    
    
    
    
    
    
    
    
    
    
    
    
    
    
    
    
   
   
   






   
   
   
    
    
 
 
   
   
   
   
 
    
   
   
    
      
      
          
     
    
       
          
             
                
				    
					     
                   
      
                
                
                    
                
                
                   
                      
                         
                            
                               
                                   Lambuth Campus  
                                   myMemphis  
                                   Webmail  
                                   Faculty   Staff  
                                   Contact  
                                   Directories  
                               
                            
                            
                               Search 
                               
							   
							      
						 Site Index 
                            
                             
                         
                      
                   
                   
                      
                         
                            
                                Academics    
                                  
                                      Academics Overview  
                                      Colleges   Schools  
                                      Undergraduate Catalog  
                                      Graduate Catalog  
                                      Honors Program  
								      UofM Global  
                                  
                               
                                Admissions    
                                  
                                      Admissions Information  
                                      Undergraduate Students  
                                      Graduate Students  
                                      Law Students  
                                      International Students  
                                  
                               
                                Athletics    
                                  
                                      Tiger Athletics  
                                      Ticket Information  
                                      Intramurals  
                                      Make A Gift  
                                      Rec Center  
                                      gotigersgo.com  
                                  
                               
                                Research    
                                  
                                      Research   Sponsored Programs  
                                      Research Resources  
                                      Centers/Chairs of Excellence  

                                      Centers and Institutes  
									  FedEx Institute of Technology  
                                      electronic Research Administration (eRA)  
									  Office of Institutional Research  
                                  
                               
                                Support UofM    
                                  
                                      Development  
                                      Make a Gift  
                                      Alumni Association  
                                      Athletics Development  
                                  
                               
                                Libraries    
                                  
                                      University Libraries  
                                      Libraries Resources  
                                      Libraries Services  
                                      Special Collections  
                                      Ask a Librarian  
                                  
                               
                            
                         
                      
                   
                
             
             
                
                   
                      Resources for... 
                      
                          Prospective Students  
                          Current and Returning Students  
                          Parents  
                          Alumni  
                          Veterans  
                      
                       Expand Menu  
                   
				   			   
                
             
          
       
    
          
      
          
    
       
          
             
                
                   
                       
                           			College of Arts   Sciences
                           	 
                          
                   
                
             
          
       
       
          
             
                
                   
                      
                          About  
                          Areas of Study  
                          Research  
                          Scholarships  
                          Students  
                          Resources  
                          News  
                      
                   
                
             
          
          
             
                
                   
                      
                          Home  
                          
                              	CAS
                              	  
                         Departments and Divisions Contact Information 
                      
                   
                   
                       
                      
                     
                     		
                     
                     
                      Departments and Divisions Contact Information 
                     
                      For College of Arts and Sciences administrative contact information,  click here .
                      
                     
                      
                        
                         
                           
                            
                              
                               
                                 
                                  Department 
                                 
                               
                              
                               
                                 
                                  Chair/Director 
                                 
                               
                              
                               
                                 
                                  Office 
                                 
                               
                              
                               
                                 
                                  Assistant 
                                 
                               
                              
                               
                                 
                                  Phone 
                                 
                                  901.678. 
                                 
                               
                              
                               
                                 
                                  Fax 
                                 
                                  901.678. 
                                 
                               
                              
                               
                                 
                                  E-mail 
                                 
                               
                              
                            
                           
                            
                              
                               
                                 
                                   African and African American Studies  
                                 
                               
                              
                               
                                 
                                  Ladrica Menson-Furr 
                                 
                               
                              
                               
                                 
                                  SC 209A    PT 419 
                                 
                               
                              
                               
                                 
                                  Vacant 
                                 
                               
                              
                               
                                 
                                  1498 
                                 
                               
                              
                               
                                 
                                  5455 
                                 
                               
                              
                               
                                 
                                   lmnsnfrr@memphis.edu  
                                 
                               
                              
                            
                           
                            
                              
                               
                                 
                                   Anthropology  
                                 
                               
                              
                               
                                 
                                  Keri Brondo 
                                 
                               
                              
                               
                                 
                                  MN 316 
                                 
                               
                              
                               
                                 
                                    Evell Ballard  
                                 
                               
                              
                               
                                 
                                  4283 
                                 
                               
                              
                               
                                 
                                  2069 
                                 
                               
                              
                               
                                 
                                   kbrondo@memphis.edu  
                                 
                               
                              
                            
                           
                            
                              
                               
                                 
                                   Asian Studies   Confucius Institute  
                                 
                               
                              
                               
                                 
                                  Hsiang-te Kung 
                                 
                               
                              
                               
                                 
                                  WT 11th Floor 
                                 
                               
                              
                                 
                              
                               
                                 
                                  3166 
                                 
                               
                              
                               
                                 
                                  0859 
                                 
                               
                              
                               
                                 
                                   hkung@memphis.edu  
                                 
                               
                              
                            
                           
                            
                              
                               
                                 
                                   Benjamin L. Hooks Institute for Social Change  
                                 
                               
                              
                               
                                 
                                  Daphene R. McFerren 
                                 
                               
                              
                               
                                 
                                  SC 205 
                                 
                               
                              
                               
                                 
                                   Pamela DeShields  
                                 
                               
                              
                               
                                 
                                  3974 
                                 
                               
                              
                               
                                 
                                  0177 
                                 
                               
                              
                               
                                 
                                   drmcfrrn@memphis.edu  
                                 
                               
                              
                            
                           
                            
                              
                               
                                 
                                   Bioinformatics  
                                 
                               
                              
                               
                                 
                                  Ramin Homayouni 
                                 
                               
                              
                               
                                 
                                  SM 429 
                                 
                               
                              
                                 
                              
                               
                                 
                                  3132 
                                 
                               
                              
                               
                                 
                                  0176 
                                 
                               
                              
                               
                                 
                                   rhomayon@memphis.edu  
                                 
                               
                              
                            
                           
                            
                              
                               
                                 
                                   Biological Sciences  
                                 
                               
                              
                               
                                 
                                  Mel Beck, Interim Chair 
                                 
                               
                              
                               
                                 
                                  EH 201 
                                 
                               
                              
                               
                                 
                                   Zachary Ramsey  
                                 
                               
                              
                               
                                 
                                  2581 
                                 
                               
                              
                               
                                 
                                  4746 
                                 
                               
                              
                               
                                 
                                   mbeck@memphis.edu  
                                 
                               
                              
                            
                           
                            
                              
                               
                                 
                                   CERI  
                                 
                               
                              
                               
                                 
                                  Charles Langston 
                                 
                               
                              
                               
                                 
                                  3890 Central 
                                 
                               
                              
                               
                                 
                                    Michelle Smith  
                                 
                               
                              
                               
                                 
                                  4884 
                                 
                               
                              
                               
                                 
                                  4734 
                                 
                               
                              
                               
                                 
                                   clangstn@ceri.memphis.edu  
                                 
                               
                              
                            
                           
                            
                              
                               
                                 
                                   Chemistry  
                                 
                               
                              
                               
                                 
                                  Gary Emmert 
                                 
                               
                              
                               
                                 
                                  SM 210A 
                                 
                               
                              
                               
                                 
                                    Melody Bridgeford  
                                 
                               
                              
                               
                                 
                                  2621 
                                 
                               
                              
                               
                                 
                                  3447 
                                 
                               
                              
                               
                                 
                                   gemmert@memphis.edu  
                                 
                               
                              
                            
                           
                            
                              
                               
                                 
                                   Chucalissa  
                                 
                               
                              
                               
                                 
                                  Vacant 
                                 
                               
                              
                               
                                 
                                  1987 Indian Village Dr. 
                                 
                               
                              
                               
                                 
                                  Melissa Buchner 
                                 
                               
                              
                               
                                 
                                  (901)785.3160 Ext. 12 
                                 
                               
                              
                               
                                 
                                  (901)785.0519 
                                 
                               
                              
                               
                                 
                                   mmbuchnr@memphis.edu  
                                 
                               
                              
                            
                           
                            
                              
                               
                                 
                                   Computer Science  
                                 
                               
                              
                               
                                 
                                  Lan Wang 
                                 
                               
                              
                               
                                 
                                  WD 375A 
                                 
                               
                              
                               
                                 
                                   Lyndsey Rush , Administrative Secretary
                                  
                                 
                               
                              
                               
                                 
                                  3967 
                                 
                               
                              
                               
                                 
                                  2480 
                                 
                               
                              
                               
                                 
                                   lanwang@memphis.edu  
                                 
                               
                              
                            
                           
                            
                              
                               
                                 
                                   Criminology   Criminal Justice  
                                 
                               
                              
                               
                                 
                                  KB Turner 
                                 
                               
                              
                               
                                 
                                  MC 300 
                                 
                               
                              
                               
                                 
                                   Heather Seitz , Office Coordinator
                                  
                                 
                               
                              
                               
                                 
                                  3611 
                                 
                               
                              
                               
                                 
                                  5279 
                                 
                               
                              
                               
                                 
                                   kbturner@memphis.edu  
                                 
                               
                              
                            
                           
                            
                              
                               
                                 
                                   CROW  
                                 
                               
                              
                               
                                 
                                  Vacant 
                                 
                               
                              
                               
                                 
                                  SC 110 
                                 
                               
                              
                               
                                 
                                  Vacant 
                                 
                               
                              
                               
                                 
                                  3370 
                                 
                               
                              
                               
                                 
                                  3652 
                                 
                               
                              
                                 
                              
                            
                           
                            
                              
                               
                                 
                                   Earth Sciences  
                                 
                               
                              
                               
                                 
                                  Daniel Larsen 
                                 
                               
                              
                               
                                 
                                  JN 113 
                                 
                               
                              
                               
                                 
                                    Julia Crutchfield  
                                 
                               
                              
                               
                                 
                                  4571 
                                 
                               
                              
                               
                                 
                                  4467 
                                 
                               
                              
                               
                                 
                                   dlarsen@memphis.edu  
                                 
                               
                              
                            
                           
                            
                              
                               
                                 
                                   English  
                                 
                               
                              
                               
                                 
                                  Joshua Phillips 
                                 
                               
                              
                               
                                 
                                  PT 467 
                                 
                               
                              
                               
                                 
                                    Laura Wright  
                                 
                               
                              
                               
                                 
                                  4592 
                                 
                               
                              
                               
                                 
                                  2226 
                                 
                               
                              
                               
                                 
                                   jsphllps@memphis.edu  
                                 
                               
                              
                            
                           
                            
                              
                               
                                 
                                   History  
                                 
                               
                              
                               
                                 
                                  Aram G Goudsouzian 
                                 
                               
                              
                               
                                 
                                  MI 219 
                                 
                               
                              
                               
                                 
                                    Karen Bradley  
                                 
                               
                              
                               
                                 
                                  4097 
                                 
                               
                              
                               
                                 
                                  2720 
                                 
                               
                              
                               
                                 
                                   agoudszn@memphis.edu  
                                 
                               
                              
                            
                           
                            
                              
                               
                                 
                                   Interdisciplinary Studies  
                                 
                               
                              
                               
                                 
                                   Robert Marczynski , Assistant Director
                                  
                                 
                               
                              
                               
                                 
                                  Scates Hall, Room 218 
                                 
                               
                              
                                 
                              
                               
                                 
                                  3516 
                                 
                               
                              
                               
                                 
                                  4206  
                                 
                               
                              
                               
                                 
                                   marczyns@memphis.edu  
                                 
                               
                              
                            
                           
                            
                              
                               
                                 
                                   Institute for Intelligent Systems  
                                 
                               
                              
                               
                                 
                                   Alistair Windsor , Director
                                  
                                 
                               
                              
                               
                                 
                                  FIT 436 
                                 
                               
                              
                                Renee Cogar  
                              
                               
                                 
                                  5102 
                                 
                               
                              
                               
                                 
                                  4206  
                                 
                               
                              
                               
                                 
                                   awindsor@memphis.edu  
                                 
                               
                              
                            
                           
                            
                              
                               
                                 
                                   Judaic Studies  
                                 
                               
                              
                               
                                 
                                  Shaul Bar 
                                 
                               
                              
                               
                                 
                                  MI 301 
                                 
                               
                              
                               
                                 
                                    Rob Marczynski  
                                 
                               
                              
                               
                                 
                                  3516/5398 
                                 
                               
                              
                               
                                 
                                  2777 
                                 
                               
                              
                               
                                 
                                   sbar@memphis.edu  
                                 
                               
                              
                            
                           
                            
                              
                               
                                 
                                   Department of Mathematical Sciences  
                                 
                               
                              
                               
                                 
                                  Irene Lasiecka 
                                 
                               
                              
                               
                                 
                                  WD 373A 
                                 
                               
                              
                               
                                 
                                   Vickie Middleton  
                                 
                               
                              
                               
                                 
                                  2483 
                                 
                               
                              
                               
                                 
                                  2480 
                                 
                               
                              
                               
                                 
                                   lasiecka@memphis.edu  
                                 
                               
                              
                            
                           
                            
                              
                               
                                 
                                   MOCH - Marcus Orr Center for the Humanities  
                                 
                               
                              
                               
                                 
                                  Sarah Potter 
                                 
                               
                              
                               
                                 
                                  CL 127 
                                 
                               
                              
                                 
                              
                               
                                 
                                  4289 
                                 
                               
                              
                               
                                 
                                  4206 
                                 
                               
                              
                               
                                 
                                   spotter1@memphis.edu  
                                 
                               
                              
                            
                           
                            
                              
                               
                                 
                                   Philosophy  
                                 
                               
                              
                               
                                 
                                  Mary Beth Mader 
                                 
                               
                              
                               
                                 
                                  CL 303 
                                 
                               
                              
                               
                                 
                                    Connie Diffee  
                                 
                               
                              
                               
                                 
                                  2535 
                                 
                               
                              
                               
                                 
                                  4365 
                                 
                               
                              
                               
                                 
                                   mmader@memphis.edu  
                                 
                               
                              
                            
                           
                            
                              
                               
                                 
                                   Physics and Materials Science  
                                 
                               
                              
                               
                                 
                                  Jingbiao Cui 
                                 
                               
                              
                               
                                 
                                  MN 216 
                                 
                               
                              
                               
                                 
                                    Corinne O'Connor , Administrative Associate II
                                  
                                 
                               
                              
                               
                                 
                                  2410 
                                 
                               
                              
                               
                                 
                                  4733 
                                 
                               
                              
                               
                                 
                                   jcui@memphis.edu  
                                 
                               
                              
                            
                           
                            
                              
                               
                                 
                                   Planning  
                                 
                               
                              
                               
                                 
                                  Charles Santo 
                                 
                               
                              
                               
                                 
                                  MC 208 
                                 
                               
                              
                               
                                 
                                    Jessica Buttermore  
                                 
                               
                              
                               
                                 
                                  2161 
                                 
                               
                              
                               
                                 
                                  4162 
                                 
                               
                              
                               
                                 
                                   casanto@memphis.edu  
                                 
                               
                              
                            
                           
                            
                              
                               
                                 
                                   Political Science  
                                 
                               
                              
                               
                                 
                                  Matthias Kaelberer 
                                 
                               
                              
                               
                                 
                                  CL 437 
                                 
                               
                              
                               
                                 
                                   Jessica Abernathy , Administrative Associate I
                                  
                                 
                               
                              
                               
                                 
                                  5620 
                                 
                               
                              
                               
                                 
                                  2983 
                                 
                               
                              
                               
                                 
                                   mkaelbrr@memphis.edu  
                                 
                               
                              
                            
                           
                            
                              
                               
                                 
                                   Psychology  
                                 
                               
                              
                               
                                 
                                  Frank Andrasik 
                                 
                               
                              
                               
                                 
                                  PY 202 
                                 
                               
                              
                               
                                 
                                    Laura Simpson  
                                 
                               
                              
                               
                                 
                                  4699 
                                 
                               
                              
                               
                                 
                                  2579 
                                 
                               
                              
                               
                                 
                                   fndrasik@memphis.edu  
                                 
                               
                              
                            
                           
                            
                              
                               
                                 
                                   Public Administration  
                                 
                               
                              
                               
                                 
                                  Sharon Wrobel 
                                 
                               
                              
                               
                                 
                                  MC 134 
                                 
                               
                              
                               
                                 
                                    Rebecca Horowitz  
                                 
                               
                              
                               
                                 
                                  3360 
                                 
                               
                              
                               
                                 
                                   2983 
                                 
                               
                              
                               
                                 
                                   swrobel@memphis.edu  
                                 
                               
                              
                            
                           
                            
                              
                               
                                 
                                   ROTC - Air Force  
                                 
                               
                              
                               
                                 
                                  Lt. Col. Kyle Bellue 
                                 
                               
                              
                               
                                 
                                  Hayden 118 
                                 
                               
                              
                               
                                 
                                     Vacant
                                  
                                 
                               
                              
                               
                                 
                                  2681 
                                 
                               
                              
                               
                                 
                                  3063 
                                 
                               
                              
                               
                                 
                                   kgbellue@memphis.edu  
                                 
                               
                              
                            
                           
                            
                              
                               
                                 
                                   ROTC - Army  
                                 
                               
                              
                               
                                 
                                  Major Samuel D Smith 
                                 
                               
                              
                               
                                 
                                  Hayden 223 
                                 
                               
                              
                               
                                 
                                   Donna Haskins , Administrative Secretary
                                  
                                 
                               
                              
                               
                                 
                                  4025 
                                 
                               
                              
                               
                                 
                                  2696 
                                 
                               
                              
                               
                                 
                                   sdsmith19@memphis.edu  
                                 
                               
                              
                            
                           
                            
                              
                               
                                 
                                   ROTC - Naval  
                                 
                               
                              
                               
                                 
                                  CDR Ricardo "Ric" Escandon 
                                 
                               
                              
                               
                                 
                                  Hayden 120 
                                 
                               
                              
                               
                                 
                                    Tara Jackson , Administrative Secretary
                                  
                                 
                               
                              
                               
                                 
                                  2370 
                                 
                               
                              
                               
                                 
                                  4353 
                                 
                               
                              
                               
                                 
                                   nrotc@memphis.edu  
                                 
                               
                              
                            
                           
                            
                              
                               
                                 
                                   School of Urban Affairs and Public Policy  
                                 
                               
                              
                               
                                 
                                  Katherine Lambert Pennington 
                                 
                               
                              
                               
                                 
                                  MC 201C 
                                 
                               
                              
                               
                                 
                                    Vicki Peters  
                                 
                               
                              
                               
                                 
                                  1635 
                                 
                               
                              
                               
                                 
                                  2981 
                                 
                               
                              
                               
                                 
                                   almbrtpn@memphis.edu  
                                 
                               
                              
                            
                           
                            
                              
                               
                                 
                                   Social Work  
                                 
                               
                              
                               
                                 
                                  Susan Neely-Barnes 
                                 
                               
                              
                               
                                 
                                  MC 232 
                                 
                               
                              
                               
                                 
                                   Stephen McIvor  
                                 
                               
                              
                               
                                 
                                  3438 
                                 
                               
                              
                               
                                 
                                  2981 
                                 
                               
                              
                               
                                 
                                   snlybrns@memphis.edu  
                                 
                               
                              
                            
                           
                            
                              
                               
                                 
                                   Sociology  
                                 
                               
                              
                               
                                 
                                  Gretchen Peterson 
                                 
                               
                              
                               
                                 
                                  CL 231 
                                 
                               
                              
                               
                                 
                                    Betty Wiley  
                                 
                               
                              
                               
                                 
                                  3429 
                                 
                               
                              
                               
                                 
                                  2525 
                                 
                               
                              
                               
                                 
                                   gpterson@memphis.edu  
                                 
                               
                              
                            
                           
                            
                              
                               
                                 
                                   World Languages   Literatures  
                                 
                               
                              
                               
                                 
                                  William Thompson 
                                 
                               
                              
                               
                                 
                                  JO 108L 
                                 
                               
                              
                               
                                 
                                    Glynda Luttman  
                                 
                               
                              
                               
                                 
                                  2506 
                                 
                               
                              
                               
                                 
                                  5338 
                                 
                               
                              
                               
                                 
                                   wjthmpsn@memphis.edu  
                                 
                               
                              
                            
                           
                         
                        
                      
                     
                        
                     
                     
                     	
                      
                   
                
                
                   
                      
                      
                         
                            
                                Apply now for an Undergraduate Degree  
                               Pursue your dream, broaden your career choices and gain the confidence you need to
                                 succeed
                               
                            
                            
                                Offering Master's and Doctoral Degrees  
                               Enhance your knowledge, skills and experience 
                            
                            
                                Community Engagement  
                               Teaching and serving the Memphis and Mid-South community through programs and events 
                            
                            
                                Contact Us  
                               Dean's Office Contacts, Advising, Department Chairs... 
                            
                         
                      
                      
                      
                   
                   
                
                
             
             
          
          
       
    
    
    
      
      
       
 
    
       
          
             
                 Full sitemap   
             
             
                
                   
                      Admissions 
                      
                         
                             Prospective Students  
                             Undergraduate  
                             Graduate  
                             Law School  
                             International  
                             Parents  
                             Scholarship   Financial Aid  
                             Tuition   Fee Payment  
                             FAQs  
                             About UofM  
                         
                      
                   
                   
                      Academics 
                      
                         
                             Provost's Office  
                             Libraries  
                             Transcripts  
                             Undergraduate Catalog  
                             Graduate Catalog  
                             Academic Calendars  
                             Course Schedule  
                             Financial Aid  
                             Graduation  
                             Honors Program  
						     eCourseware  
                         
                      
                   
                   
                      Athletics 
                      
                         
                             Gotigersgo.com  
                             Ticket Information  
                             Intramural Sports  
                             Recreation Center  
                             Athletic Academic Support  
                             Former Tigers  
                             Facilities  
                             Tiger Scholarship Fund  
                             Media  
                         
                      
                   
				    
                   
                      Research 
                      
                         
                             Sponsored Programs  
                             Research Resources  
                             Centers   Institutes  
                             Chairs of Excellence  
                             FedEx Institute of Technology  
                             Libraries  
                             Grants Accounting  
                             Environmental Health  
                             Office of Institutional Research  
                         
                      
                   
                   
                      Support UofM 
                      
                         
                             Make a Gift  
                             Alumni Association  
                             Year of Service  
                         
                      
                   
                   
                      Administrative Support 
                      
                         
                             President's Office  
                             Academic Affairs  
                             Business   Finance  
                             Career Opportunities  
                             Conference   Event Services  
                             Corporate Partnerships  
  Development Office  
                             Government Relations  
                             Information Technology Services  
                             Media and Marketing  
                             Student Affairs  
                         
                      
                   
                
             
          
          
             
				    
                  
                
             
             
                   
                  
                
             
             
                
                   Follow UofM Online 
                     UofM Facebook     UofM Twitter     UofM YouTube   
                    
                   
                     UofM Instagram     UofM Pinterest     UofM LinkedIn   
                
             
              
                   
                      
                   
                
      
          
       
    
 
 
      
      
      
       
          
             
                
                   
                      
                         
                            
                               
                                 
                                 
                                  
  Print  
  Got a Question? Ask TOM  
  Copyright © 2017 University of Memphis  
  Important Notice  
                                  
                                 
                                 
                                  
                                     Last Updated: 11/22/17 
                                  
                                 
                                 
                                  
  University of Memphis  
 Memphis, TN 38152 
 Phone: 901.678.2000 
 
  
 The University of Memphis does not discriminate against students, employees, or applicants for admission or employment on the basis of race, color, religion, creed, national origin, sex, sexual orientation, gender identity/expression, disability, age, status as a protected veteran, genetic information, or any other legally protected class with respect to all employment, programs and activities sponsored by the University of Memphis. The Office for Institutional Equity has been designated to handle inquiries regarding non-discrimination policies. For more information, visit  University of Memphis Equal Opportunity and Affirmative Action .  
Title IX of the Education Amendments of 1972 protects people from discrimination based on sex in education programs or activities which receive Federal financial assistance. Title IX states: "No person in the United States shall, on the basis of sex, be excluded from participation in, be denied the benefits of, or be subjected to discrimination under any education program or activity receiving Federal financial assistance..." 20 U.S.C. § 1681 - To Learn More, visit  Title IX and Sexual Misconduct .
 
 
                                 
                                 
                                 
                               
                            
                         
                      
                   
                
             
          
       
    
   
   
   
   
   
   
 



 


