 Department of Criminology and Criminal Justice News and Events - Criminal Justice - University of Memphis    










 
 
 
     



 
    
    
     Department of Criminology and Criminal Justice News and Events - 
      	Criminal Justice
      	 - University of Memphis
    
    
    
    
    
    
    
    
    
    
    
    
    
    
    
    
    
    
    
    
    
    
    
    
    
   
   
   






   
   
   
    
    
    
    
    
    
    
    
    
    
    
    
    
    
    
    
    
    
 
 
   
   
   
   
 
    
   
   
    
      
      
          
     
    
       
          
             
                
				    
					     
                   
      
                
                
                    
                
                
                   
                      
                         
                            
                               
                                   Lambuth Campus  
                                   myMemphis  
                                   Webmail  
                                   Faculty   Staff  
                                   Contact  
                                   Directories  
                               
                            
                            
                               Search 
                               
							   
							      
						 Site Index 
                            
                             
                         
                      
                   
                   
                      
                         
                            
                                Academics    
                                  
                                      Academics Overview  
                                      Colleges   Schools  
                                      Undergraduate Catalog  
                                      Graduate Catalog  
                                      Honors Program  
								      UofM Global  
                                  
                               
                                Admissions    
                                  
                                      Admissions Information  
                                      Undergraduate Students  
                                      Graduate Students  
                                      Law Students  
                                      International Students  
                                  
                               
                                Athletics    
                                  
                                      Tiger Athletics  
                                      Ticket Information  
                                      Intramurals  
                                      Make A Gift  
                                      Rec Center  
                                      gotigersgo.com  
                                  
                               
                                Research    
                                  
                                      Research   Sponsored Programs  
                                      Research Resources  
                                      Centers/Chairs of Excellence  

                                      Centers and Institutes  
									  FedEx Institute of Technology  
                                      electronic Research Administration (eRA)  
									  Office of Institutional Research  
                                  
                               
                                Support UofM    
                                  
                                      Development  
                                      Make a Gift  
                                      Alumni Association  
                                      Athletics Development  
                                  
                               
                                Libraries    
                                  
                                      University Libraries  
                                      Libraries Resources  
                                      Libraries Services  
                                      Special Collections  
                                      Ask a Librarian  
                                  
                               
                            
                         
                      
                   
                
             
             
                
                   
                      Resources for... 
                      
                          Prospective Students  
                          Current and Returning Students  
                          Parents  
                          Alumni  
                          Veterans  
                      
                       Expand Menu  
                   
				   			   
                
             
          
       
    
          
      
          
    
       
          
             
                
                   
                       
                           			Department of Criminology and Criminal Justice
                           	 
                           
                   
                
             
          
       
       
          
             
                
                   
                      
                          Undergraduate  
                          Graduate  
                          Advising  
                          People  
                          More Information  
                          Lambuth  
                      
                   
                
             
          
          
             
                
                   
                      
                          Home  
                          
                              	Criminal Justice
                              	  
                         
                           	More Information
                           	
                         
                      
                   
                   
                       
                      
                     
                     		
                     
                     
                      More Information 
                     
                      Department news 
                     
                      The Department of Criminology and Criminal Justice publishes a newsletter every semester
                        updating students, alumni, and supporters of the Department with news on faculty productivity,
                        department changes, student programs, and other department activity.
                      
                     
                       Fall 2015 Newsletter   Spring 2016 Newsletter   Fall 2016 Newsletter   Spring 2017 Newsletter   Fall 2017 Newsletter  
                     
                      Advanced Applications in Criminal Justice 
                     
                        Dr. Lenard Wells  , an Instructor for the Department, has conducted a series of interviews with individuals
                        within the field of criminal justice, including academics, practitioners, and survivors
                        of violence. Below are a sample of some of his interviews.
                      
                     
                      Dr. Wells interviews Rev. Dr. Roland Ehlke, the survivor of the Texas Tower Shooting.  
                     
                       
                              
                     
                        
                     
                      Dr. Wells interviews  Dr. Amaia Iratzoqui , a professor in the Department, on issues teaching and working within the area of
                        domestic violence.
                      
                     
                       
                              
                      
                     
                        
                     
                      Dr. Wells interviews  Dr. Sheri Jenkins Keenan , a professor in the Department's Lambuth campus, about the recent work and expansion
                        of the Lambuth criminology program.
                      
                     
                       
                              
                     
                     
                     	
                      
                   
                
                
                   
                      
                      
                         
                            
                                Criminal Justice Student Association  
                               All majors and minors studying criminology and criminal justice at the UofM are eligible
                                 to become members of the CJSA.
                               
                            
                            
                                Course Offerings  
                               Find out what courses we offer and how you can enroll! 
                            
                            
                                Contact Us  
                               Main office and location information 
                            
                            
                                SUAPP  
                               The Department of Criminology and Criminal Justice is a part of the School of Urban
                                 Affairs and Public Policy.
                               
                            
                         
                      
                      
                      
                   
                   
                
                
             
             
          
          
       
    
    
    
      
      
       
 
    
       
          
             
                 Full sitemap   
             
             
                
                   
                      Admissions 
                      
                         
                             Prospective Students  
                             Undergraduate  
                             Graduate  
                             Law School  
                             International  
                             Parents  
                             Scholarship   Financial Aid  
                             Tuition   Fee Payment  
                             FAQs  
                             About UofM  
                         
                      
                   
                   
                      Academics 
                      
                         
                             Provost's Office  
                             Libraries  
                             Transcripts  
                             Undergraduate Catalog  
                             Graduate Catalog  
                             Academic Calendars  
                             Course Schedule  
                             Financial Aid  
                             Graduation  
                             Honors Program  
						     eCourseware  
                         
                      
                   
                   
                      Athletics 
                      
                         
                             Gotigersgo.com  
                             Ticket Information  
                             Intramural Sports  
                             Recreation Center  
                             Athletic Academic Support  
                             Former Tigers  
                             Facilities  
                             Tiger Scholarship Fund  
                             Media  
                         
                      
                   
				    
                   
                      Research 
                      
                         
                             Sponsored Programs  
                             Research Resources  
                             Centers   Institutes  
                             Chairs of Excellence  
                             FedEx Institute of Technology  
                             Libraries  
                             Grants Accounting  
                             Environmental Health  
                             Office of Institutional Research  
                         
                      
                   
                   
                      Support UofM 
                      
                         
                             Make a Gift  
                             Alumni Association  
                             Year of Service  
                         
                      
                   
                   
                      Administrative Support 
                      
                         
                             President's Office  
                             Academic Affairs  
                             Business   Finance  
                             Career Opportunities  
                             Conference   Event Services  
                             Corporate Partnerships  
  Development Office  
                             Government Relations  
                             Information Technology Services  
                             Media and Marketing  
                             Student Affairs  
                         
                      
                   
                
             
          
          
             
				    
                  
                
             
             
                   
                  
                
             
             
                
                   Follow UofM Online 
                     UofM Facebook     UofM Twitter     UofM YouTube   
                    
                   
                     UofM Instagram     UofM Pinterest     UofM LinkedIn   
                
             
              
                   
                      
                   
                
      
          
       
    
 
 
      
      
      
       
          
             
                
                   
                      
                         
                            
                               
                                 
                                 
                                  
  Print  
  Got a Question? Ask TOM  
  Copyright © 2017 University of Memphis  
  Important Notice  
                                  
                                 
                                 
                                  
                                     Last Updated: 11/29/17 
                                  
                                 
                                 
                                  
  University of Memphis  
 Memphis, TN 38152 
 Phone: 901.678.2000 
 
  
 The University of Memphis does not discriminate against students, employees, or applicants for admission or employment on the basis of race, color, religion, creed, national origin, sex, sexual orientation, gender identity/expression, disability, age, status as a protected veteran, genetic information, or any other legally protected class with respect to all employment, programs and activities sponsored by the University of Memphis. The Office for Institutional Equity has been designated to handle inquiries regarding non-discrimination policies. For more information, visit  University of Memphis Equal Opportunity and Affirmative Action .  
Title IX of the Education Amendments of 1972 protects people from discrimination based on sex in education programs or activities which receive Federal financial assistance. Title IX states: "No person in the United States shall, on the basis of sex, be excluded from participation in, be denied the benefits of, or be subjected to discrimination under any education program or activity receiving Federal financial assistance..." 20 U.S.C. § 1681 - To Learn More, visit  Title IX and Sexual Misconduct .
 
 
                                 
                                 
                                 
                               
                            
                         
                      
                   
                
             
          
       
    
   
   
   
   
   
   
 



 


