Strategic Plan - FCBE - University of Memphis    










 
 
 
     



 
    
    
    Strategic Plan - 
      	FCBE
      	 - University of Memphis
    
    
    
    
    
    
    
    
    
    
    
    
    
    
    
    
    
    
    
    
    
    
    
    
    
   
   
   






   
   
   
    
    
 
 
   
   
   
   
 
    
   
   
    
      
      
          
     
    
       
          
             
                
				    
					     
                   
      
                
                
                    
                
                
                   
                      
                         
                            
                               
                                   Lambuth Campus  
                                   myMemphis  
                                   Webmail  
                                   Faculty   Staff  
                                   Contact  
                                   Directories  
                               
                            
                            
                               Search 
                               
							   
							      
						 Site Index 
                            
                             
                         
                      
                   
                   
                      
                         
                            
                                Academics    
                                  
                                      Academics Overview  
                                      Colleges   Schools  
                                      Undergraduate Catalog  
                                      Graduate Catalog  
                                      Honors Program  
								      UofM Global  
                                  
                               
                                Admissions    
                                  
                                      Admissions Information  
                                      Undergraduate Students  
                                      Graduate Students  
                                      Law Students  
                                      International Students  
                                  
                               
                                Athletics    
                                  
                                      Tiger Athletics  
                                      Ticket Information  
                                      Intramurals  
                                      Make A Gift  
                                      Rec Center  
                                      gotigersgo.com  
                                  
                               
                                Research    
                                  
                                      Research   Sponsored Programs  
                                      Research Resources  
                                      Centers/Chairs of Excellence  

                                      Centers and Institutes  
									  FedEx Institute of Technology  
                                      electronic Research Administration (eRA)  
									  Office of Institutional Research  
                                  
                               
                                Support UofM    
                                  
                                      Development  
                                      Make a Gift  
                                      Alumni Association  
                                      Athletics Development  
                                  
                               
                                Libraries    
                                  
                                      University Libraries  
                                      Libraries Resources  
                                      Libraries Services  
                                      Special Collections  
                                      Ask a Librarian  
                                  
                               
                            
                         
                      
                   
                
             
             
                
                   
                      Resources for... 
                      
                          Prospective Students  
                          Current and Returning Students  
                          Parents  
                          Alumni  
                          Veterans  
                      
                       Expand Menu  
                   
				   			   
                
             
          
       
    
          
      
          
    
       
          
             
                
                   
                       
                           			Fogelman College of Business   Economics
                           	 
                          
                   
                
             
          
       
       
          
             
                
                   
                      
                          About  
                          Programs  
                          Students  
                          Departments  
                          Faculty   Staff  
                          Research  
                          News  
                      
                      
                         
                            About FCBE   
                            
                               
                                  
                                   Dean's Message  
                                   Strategic Plan  
                                   Facts   Figures  
                                   General Information  
                                         A to Z List  
                                         Driving Directions  
                                         FAQs  
                                     
                                  
                                   Job Announcements  
                                   Social Media Policy  
                                         Faculty and Staff  
                                         Student  
                                     
                                  
                                   Contact Us  
                               
                            
                         
                      
                   
                
             
          
          
             
                
                   
                      
                          Home  
                          
                              	FCBE
                              	  
                          
                              	About FCBE
                              	  
                         Strategic Plan 
                      
                   
                   
                       
                      
                     
                     		
                     
                     
                      Strategic Plan:  VISION 2020 
                     
                      Mission Statement 
                     
                      To develop a diverse community of students for ethical, effective, and responsible
                        business leadership; create and disseminate knowledge for new business realities in
                        the global economy; and advance the intellectual and economic vitality of the community,
                        region, and beyond.
                      
                     
                      Vision Statement 
                     
                      We support economic growth by developing a diverse student body into professionally
                        prepared future business leaders and research scholars.
                      
                     
                      Values 
                     
                      The Fogelman College of Business   Economics embraces the following values in teaching,
                        research and service: excellence, integrity, professionalism, innovation, respect,
                        collegiality and collaboration.
                      
                     
                      Strategic Priorities 
                     
                      
                        
                         Be a national leader in ensuring student success within a diverse student body 
                        
                         Significantly increase faculty's research productivity and promote research quality 
                        
                         Significantly increase the support of the opportunities for greater local and regional
                           economic development
                         
                        
                         To achieve FCBE's mission and vision in an environment of declining public funding,
                           significantly increase private funding by seeking new opportunities for engagement
                           with alumni and business community stakeholders.
                         
                        
                      
                     
                     
                     	
                      
                   
                
                
                   
                      
                         About FCBE 
                         
                            
                               
                                Dean's Message  
                                Strategic Plan  
                                Facts   Figures  
                                General Information  
                                      A to Z List  
                                      Driving Directions  
                                      FAQs  
                                  
                               
                                Job Announcements  
                                Social Media Policy  
                                      Faculty and Staff  
                                      Student  
                                  
                               
                                Contact Us  
                            
                         
                      
                      
                      
                         
                            
                                Apply to our Undergraduate Programs    
                               Enroll at the university and engage yourself with our six different departments, student
                                 enrichment, and more. 
                               
                            
                            
                                Apply to our Masters Programs    
                               Earn your degree with one of our five MBA tracks or with one of our four specialized
                                 Masters programs!
                               
                            
                            
                                Apply to our Doctoral Programs    
                               Interested in a Ph.D.? Start the journey towards your Ph.D. here! 
                            
                            
                                Contact Us    
                               Have questions? Call or email today!  
                            
                         
                      
                      
                      
                   
                   
                
                
             
             
          
          
       
    
    
    
      
      
       
 
    
       
          
             
                 Full sitemap   
             
             
                
                   
                      Admissions 
                      
                         
                             Prospective Students  
                             Undergraduate  
                             Graduate  
                             Law School  
                             International  
                             Parents  
                             Scholarship   Financial Aid  
                             Tuition   Fee Payment  
                             FAQs  
                             About UofM  
                         
                      
                   
                   
                      Academics 
                      
                         
                             Provost's Office  
                             Libraries  
                             Transcripts  
                             Undergraduate Catalog  
                             Graduate Catalog  
                             Academic Calendars  
                             Course Schedule  
                             Financial Aid  
                             Graduation  
                             Honors Program  
						     eCourseware  
                         
                      
                   
                   
                      Athletics 
                      
                         
                             Gotigersgo.com  
                             Ticket Information  
                             Intramural Sports  
                             Recreation Center  
                             Athletic Academic Support  
                             Former Tigers  
                             Facilities  
                             Tiger Scholarship Fund  
                             Media  
                         
                      
                   
				    
                   
                      Research 
                      
                         
                             Sponsored Programs  
                             Research Resources  
                             Centers   Institutes  
                             Chairs of Excellence  
                             FedEx Institute of Technology  
                             Libraries  
                             Grants Accounting  
                             Environmental Health  
                             Office of Institutional Research  
                         
                      
                   
                   
                      Support UofM 
                      
                         
                             Make a Gift  
                             Alumni Association  
                             Year of Service  
                         
                      
                   
                   
                      Administrative Support 
                      
                         
                             President's Office  
                             Academic Affairs  
                             Business   Finance  
                             Career Opportunities  
                             Conference   Event Services  
                             Corporate Partnerships  
  Development Office  
                             Government Relations  
                             Information Technology Services  
                             Media and Marketing  
                             Student Affairs  
                         
                      
                   
                
             
          
          
             
				    
                  
                
             
             
                   
                  
                
             
             
                
                   Follow UofM Online 
                     UofM Facebook     UofM Twitter     UofM YouTube   
                    
                   
                     UofM Instagram     UofM Pinterest     UofM LinkedIn   
                
             
              
                   
                      
                   
                
      
          
       
    
 
 
      
      
      
       
          
             
                
                   
                      
                         
                            
                               
                                 
                                 
                                  
  Print  
  Got a Question? Ask TOM  
  Copyright © 2017 University of Memphis  
  Important Notice  
                                  
                                 
                                 
                                  
                                     Last Updated: 11/3/17 
                                  
                                 
                                 
                                  
  University of Memphis  
 Memphis, TN 38152 
 Phone: 901.678.2000 
 
  
 The University of Memphis does not discriminate against students, employees, or applicants for admission or employment on the basis of race, color, religion, creed, national origin, sex, sexual orientation, gender identity/expression, disability, age, status as a protected veteran, genetic information, or any other legally protected class with respect to all employment, programs and activities sponsored by the University of Memphis. The Office for Institutional Equity has been designated to handle inquiries regarding non-discrimination policies. For more information, visit  University of Memphis Equal Opportunity and Affirmative Action .  
Title IX of the Education Amendments of 1972 protects people from discrimination based on sex in education programs or activities which receive Federal financial assistance. Title IX states: "No person in the United States shall, on the basis of sex, be excluded from participation in, be denied the benefits of, or be subjected to discrimination under any education program or activity receiving Federal financial assistance..." 20 U.S.C. § 1681 - To Learn More, visit  Title IX and Sexual Misconduct .
 
 
                                 
                                 
                                 
                               
                            
                         
                      
                   
                
             
          
       
    
   
   
   
   
   
   
 



 


