Executive MBA - Executive MBA - University of Memphis    










 
 
 
     



 
    
    
    Executive MBA - 
      	Executive MBA
      	 - University of Memphis
    
    
    
    
    
    
    
    
    
    
    
    
    
    
    
    
    
    
    
    
    
    
    
    
    
   
   
   






   
   
   
    
    
 
 
   
   
   
   
 
    
   
   
    
      
      
          
     
    
       
          
             
                
				    
					     
                   
      
                
                
                    
                
                
                   
                      
                         
                            
                               
                                   Lambuth Campus  
                                   myMemphis  
                                   Webmail  
                                   Faculty   Staff  
                                   Contact  
                                   Directories  
                               
                            
                            
                               Search 
                               
							   
							      
						 Site Index 
                            
                             
                         
                      
                   
                   
                      
                         
                            
                                Academics    
                                  
                                      Academics Overview  
                                      Colleges   Schools  
                                      Undergraduate Catalog  
                                      Graduate Catalog  
                                      Honors Program  
								      UofM Global  
                                  
                               
                                Admissions    
                                  
                                      Admissions Information  
                                      Undergraduate Students  
                                      Graduate Students  
                                      Law Students  
                                      International Students  
                                  
                               
                                Athletics    
                                  
                                      Tiger Athletics  
                                      Ticket Information  
                                      Intramurals  
                                      Make A Gift  
                                      Rec Center  
                                      gotigersgo.com  
                                  
                               
                                Research    
                                  
                                      Research   Sponsored Programs  
                                      Research Resources  
                                      Centers/Chairs of Excellence  

                                      Centers and Institutes  
									  FedEx Institute of Technology  
                                      electronic Research Administration (eRA)  
									  Office of Institutional Research  
                                  
                               
                                Support UofM    
                                  
                                      Development  
                                      Make a Gift  
                                      Alumni Association  
                                      Athletics Development  
                                  
                               
                                Libraries    
                                  
                                      University Libraries  
                                      Libraries Resources  
                                      Libraries Services  
                                      Special Collections  
                                      Ask a Librarian  
                                  
                               
                            
                         
                      
                   
                
             
             
                
                   
                      Resources for... 
                      
                          Prospective Students  
                          Current and Returning Students  
                          Parents  
                          Alumni  
                          Veterans  
                      
                       Expand Menu  
                   
				   			   
                
             
          
       
    
          
      
          
    
       
          
             
                
                   
                       
                           			Fogelman College - Executive MBA
                           	 
                          
                   
                
             
          
       
       
          
             
                
                   
                      
                          Welcome  
                          Curriculum  
                          Admissions  
                          Students  
                          FAQs  
                          News   Updates  
                          FCBE  
                      
                   
                
             
          
          
             
                
                   
                      
                          Home  
                         
                           	Executive MBA
                           	
                         
                      
                   
                   
                      
                         
                              
                            
                                
                            
                         
                         
                             
                         
                      
                      
                     		
                     
                     
                      Welcome 
                     
                      An MBA that takes you to the next level. 
                     
                      The Executive MBA program at the University of Memphis transforms already accomplished
                        business professionals into proven business leaders.  This intensive 17-month, Fall-to-Fall
                        program is exclusive to professionals with five-plus years of management experience
                        and an established record of excellence in their field.
                      
                     
                      During the executive mba program. 
                     
                      
                        
                         
                           
                            Students may continue to work full-time (* Full-time employment not a requirement for admission )
                            
                           
                         
                        
                         
                           
                            Attend class once per week with an alternating Thursday evening and Saturday schedule
                              (* Enrolled for 12 credit hours during the Fall and Spring semesters )
                            
                           
                         
                        
                         
                           
                            Experience a high-level of service from this all-inclusive program that frees you
                              to focus on learning.  All-inclusive covers: advising; registration; tuition and fees;
                              textbooks; software; case studies/learning materials; premiere parking; room/board
                              for two domestic residencies and flight, hotels and most meals for the international
                              residential week; and, catered meals on class days
                            
                           
                         
                        
                         
                           
                            Interact in a dynamic classroom setting that brings together faculty who have outstanding
                              academic reputations and achievements, with a highly-skilled student body who are
                              leaders in their companies
                            
                           
                         
                        
                         
                           
                            Build your network with other business leaders from various industries through executive
                              lecture events and unique collaboration opportunities
                            
                           
                         
                        
                      
                     
                      Beyond the program...The Return oN Investment. 
                     
                      As a result, senior executives learn savvy business techniques that have real-world
                        impact and further enhance their leadership skills.  Factor in the international experience
                        and challenging curriculum taught from a strategic viewpoint, makes the University
                        of Memphis Executive MBA Program as exciting as it is comprehensive.
                      
                     
                     	
                      
                   
                
                
                   
                      
                      
                         
                            
                                The Program  
                               Ready to take your career to your next level?  Let this program show you how. 
                            
                            
                                How To Apply  
                               What’s your first step?  Find out here! 
                            
                            
                                Contact Us  
                               Do you have questions? Please feel free to contact us! 
                            
                            
                                Return to FCBE  
                                
                            
                         
                      
                      
                      
                      
                         Follow Us Online 
                         
                              Twitter   
                              Facebook   
                         
                                               Event Calendar    Support the FCBE  
                   
                   
                
                
             
             
          
          
       
    
    
    
      
      
       
 
    
       
          
             
                 Full sitemap   
             
             
                
                   
                      Admissions 
                      
                         
                             Prospective Students  
                             Undergraduate  
                             Graduate  
                             Law School  
                             International  
                             Parents  
                             Scholarship   Financial Aid  
                             Tuition   Fee Payment  
                             FAQs  
                             About UofM  
                         
                      
                   
                   
                      Academics 
                      
                         
                             Provost's Office  
                             Libraries  
                             Transcripts  
                             Undergraduate Catalog  
                             Graduate Catalog  
                             Academic Calendars  
                             Course Schedule  
                             Financial Aid  
                             Graduation  
                             Honors Program  
						     eCourseware  
                         
                      
                   
                   
                      Athletics 
                      
                         
                             Gotigersgo.com  
                             Ticket Information  
                             Intramural Sports  
                             Recreation Center  
                             Athletic Academic Support  
                             Former Tigers  
                             Facilities  
                             Tiger Scholarship Fund  
                             Media  
                         
                      
                   
				    
                   
                      Research 
                      
                         
                             Sponsored Programs  
                             Research Resources  
                             Centers   Institutes  
                             Chairs of Excellence  
                             FedEx Institute of Technology  
                             Libraries  
                             Grants Accounting  
                             Environmental Health  
                             Office of Institutional Research  
                         
                      
                   
                   
                      Support UofM 
                      
                         
                             Make a Gift  
                             Alumni Association  
                             Year of Service  
                         
                      
                   
                   
                      Administrative Support 
                      
                         
                             President's Office  
                             Academic Affairs  
                             Business   Finance  
                             Career Opportunities  
                             Conference   Event Services  
                             Corporate Partnerships  
  Development Office  
                             Government Relations  
                             Information Technology Services  
                             Media and Marketing  
                             Student Affairs  
                         
                      
                   
                
             
          
          
             
				    
                  
                
             
             
                   
                  
                
             
             
                
                   Follow UofM Online 
                     UofM Facebook     UofM Twitter     UofM YouTube   
                    
                   
                     UofM Instagram     UofM Pinterest     UofM LinkedIn   
                
             
              
                   
                      
                   
                
      
          
       
    
 
 
      
      
      
       
          
             
                
                   
                      
                         
                            
                               
                                 
                                 
                                  
  Print  
  Got a Question? Ask TOM  
  Copyright © 2017 University of Memphis  
  Important Notice  
                                  
                                 
                                 
                                  
                                     Last Updated: 12/4/17 
                                  
                                 
                                 
                                  
  University of Memphis  
 Memphis, TN 38152 
 Phone: 901.678.2000 
 
  
 The University of Memphis does not discriminate against students, employees, or applicants for admission or employment on the basis of race, color, religion, creed, national origin, sex, sexual orientation, gender identity/expression, disability, age, status as a protected veteran, genetic information, or any other legally protected class with respect to all employment, programs and activities sponsored by the University of Memphis. The Office for Institutional Equity has been designated to handle inquiries regarding non-discrimination policies. For more information, visit  University of Memphis Equal Opportunity and Affirmative Action .  
Title IX of the Education Amendments of 1972 protects people from discrimination based on sex in education programs or activities which receive Federal financial assistance. Title IX states: "No person in the United States shall, on the basis of sex, be excluded from participation in, be denied the benefits of, or be subjected to discrimination under any education program or activity receiving Federal financial assistance..." 20 U.S.C. § 1681 - To Learn More, visit  Title IX and Sexual Misconduct .
 
 
                                 
                                 
                                 
                               
                            
                         
                      
                   
                
             
          
       
    
   
   
   
   
   
   
 



 


