Viewing your submission information and graded quizzes | Desire2Learn Resource Center   
 
 
 
 
   
 
 
 
 
 
 
 
 
 
 
 
 
 
 
 Viewing your submission information and graded quizzes | Desire2Learn Resource Center 






 

 
 
 
 
 

 

 

 





 
 
 
   
     Skip to main content 
   
     
   

           
         
              
       Main menu 
  
     Home    Accessibility    Capture    ePortfolio    Ideas Library    Insights    Integrations    Learning Environment    Learning Repository   
             
       
    
     
       

         

                       

                               
                                      
              
                               

                                        Desire2Learn Resource Center  
                  
                  
                 
              
             
          
                
       Select your language 
  
      
   العربية  English  Português  Español  Français  
 
 
 
 
 
 
 
 
 
 
   
      
         

       
     

    
    
    
     
       

         
           

             
               

                
                 

                  
                   
                     

                      
                       You are here    Home    »    Learning Environment    »    Quizzes    »    Participating in Quizzes   
                      
                      
                      
                      
                       
                           
  
   
   

    
               

                   
                          Viewing your submission information and graded quizzes                       
        
        
       
        
     
              
	On the Quiz List page, click    Submissions  from the context menu of the quiz you want to view. View your quiz score on the Quiz Submissions page. If learning objectives are associated with your quiz submission, they also display here.
 

 
	 Note  Grades and statistical information are not available until they are released.
 

     Audience:     Learner       

    
           

                   ‹ Taking a quiz 
        
                   up 
        
                   Adding a quiz to ePortfolio › 
        
       
    
   
     

              Printer-friendly version    
    
    
   
 

                          

                      
                     
                   

                 

                      
  
    
	    Copyright © 1999-2013 Desire2Learn Incorporated. All rights reserved.
 
 
      
               
             

                  
        Quizzes  
  
      Participating in Quizzes    Accessing Quizzes    Taking a quiz    Viewing your submission information and graded quizzes    Adding a quiz to ePortfolio      Using Quizzes    Managing quiz questions and sections    Viewing quizzes    
                  
           
         

       
     

    
    
    
   
 
   
 
